
4 4 1 4QHH 1P,5E16.9
1 8
-6.053272e+01 -0.000000e+00 -6.620042e+01 -0.000000e+00 -1.670997e+01 -0.000000e+00 1.041303e+01 -0.000000e+00 
2 8
4.263799e+02 -0.000000e+00 3.187868e+02 -0.000000e+00 1.519193e+02 -0.000000e+00 4.472312e+01 -0.000000e+00 
3 8
-1.835125e+02 -0.000000e+00 -2.493204e+02 -0.000000e+00 -1.561379e+02 -0.000000e+00 5.848098e+01 -0.000000e+00 
4 8
1.504632e+02 -0.000000e+00 -4.863966e+02 -0.000000e+00 -1.744156e+02 -0.000000e+00 2.127497e+02 -0.000000e+00 
5 1 1
0.000000e+00

4 4 1 4QHH 1P,5E16.9
1 8
-5.341901e+01 -1.637978e+01 -5.555273e+01 6.327518e+00 -1.369066e+01 -4.571620e-01 2.188405e+00 -8.768291e+00 
2 8
3.761692e+02 -7.572237e+00 2.128940e+02 -1.486204e+02 1.194720e+02 -1.931913e+01 9.622061e+01 2.082879e+01 
3 8
-1.449748e+02 2.168090e+01 -1.733967e+02 7.902679e+01 -1.338467e+02 -4.702500e+00 1.664353e+01 -2.987532e+01 
4 8
1.978884e+02 3.923197e+01 -4.008039e+02 6.067298e+01 -1.550325e+02 -1.268799e+01 1.394285e+02 -1.255458e+02 
5 1 1
1.500000e-02

4 4 1 4QHH 1P,5E16.9
1 8
-4.108491e+01 -7.053408e+01 -6.191547e+01 -2.062182e-01 -1.181994e+01 -8.957305e+00 -9.294642e+00 -1.416748e+01 
2 8
3.642741e+02 8.817409e+01 1.162586e+02 -2.648488e+02 1.026658e+02 1.555473e+01 1.226279e+02 -1.348292e+01 
3 8
-1.200537e+02 -2.011092e+01 -1.114849e+02 8.645873e+01 -1.085946e+02 -7.347606e+01 -2.869568e+00 -2.121962e+01 
4 8
2.269431e+02 9.277368e+00 -3.585325e+02 -7.469861e+00 -1.582653e+02 -1.014515e+02 4.568144e+01 -2.333702e+02 
5 1 1
5.000000e-02
