#TimeIteration Time SubCycles NewtonSteps Lx Ly Lz 
0 0.000000e+00 0 0 -6.450272e-18 2.907665e-15 1.687507e-16 
1 1.390349e-02 1 1 1.095932e+00 -1.076168e+00 2.568842e-02 
2 2.845597e-02 1 1 2.175018e+00 -2.137931e+00 1.223122e-02 
3 4.399851e-02 1 1 3.224345e+00 -3.172648e+00 -3.353921e-02 
4 6.099299e-02 1 1 4.225065e+00 -4.161765e+00 -9.840158e-02 
5 8.013127e-02 1 1 5.148765e+00 -5.077147e+00 -1.595266e-01 
6 1.025645e-01 1 1 5.950530e+00 -5.874032e+00 -1.784938e-01 
7 1.304165e-01 1 1 6.554132e+00 -6.475787e+00 -9.333924e-02 
8 1.675821e-01 1 1 6.825032e+00 -6.745466e+00 1.760382e-01 
9 2.143683e-01 1 1 6.626391e+00 -6.540071e+00 6.015149e-01 
10 2.571101e-01 1 1 6.129175e+00 -6.028763e+00 9.784863e-01 
11 2.965197e-01 1 1 5.538278e+00 -5.416959e+00 1.153181e+00 
12 3.362712e-01 1 1 4.947142e+00 -4.796657e+00 1.153320e+00 
13 3.787733e-01 1 1 4.409744e+00 -4.221031e+00 9.661592e-01 
14 4.256699e-01 1 1 3.967437e+00 -3.731629e+00 5.419402e-01 
15 4.778968e-01 1 1 3.639868e+00 -3.349942e+00 -9.308318e-02 
16 5.354339e-01 1 1 3.420596e+00 -3.073051e+00 -8.447431e-01 
17 5.988550e-01 1 1 3.279240e+00 -2.872877e+00 -1.541986e+00 
18 6.708053e-01 1 1 3.175945e+00 -2.708922e+00 -2.025351e+00 
19 7.556005e-01 1 1 3.078403e+00 -2.546165e+00 -2.196779e+00 
20 8.571320e-01 1 1 2.974438e+00 -2.370577e+00 -2.125888e+00 
21 9.761367e-01 1 1 2.870447e+00 -2.190066e+00 -1.951154e+00 
22 1.109677e+00 1 1 2.777101e+00 -2.020325e+00 -1.759101e+00 
23 1.255593e+00 1 1 2.694500e+00 -1.865556e+00 -1.550771e+00 
24 1.418023e+00 1 1 2.609700e+00 -1.713686e+00 -1.280792e+00 
25 1.605711e+00 1 1 2.504330e+00 -1.547287e+00 -9.497145e-01 
26 1.829986e+00 1 1 2.363657e+00 -1.356142e+00 -6.307705e-01 
27 2.088858e+00 1 1 2.195752e+00 -1.157634e+00 -4.180411e-01 
28 2.367259e+00 1 1 2.026557e+00 -9.824558e-01 -3.284026e-01 
29 2.670308e+00 1 1 1.871966e+00 -8.439307e-01 -3.206826e-01 
30 3.015736e+00 1 1 1.742402e+00 -7.473445e-01 -3.602347e-01 
31 3.419551e+00 1 1 1.645194e+00 -6.915398e-01 -4.189561e-01 
32 3.882736e+00 1 1 1.580164e+00 -6.652718e-01 -4.647064e-01 
33 4.401177e+00 1 1 1.537760e+00 -6.521305e-01 -4.749804e-01 
34 4.977057e+00 1 1 1.505811e+00 -6.380136e-01 -4.444849e-01 
35 5.615093e+00 1 1 1.474782e+00 -6.155608e-01 -3.789246e-01 
36 6.305581e+00 1 1 1.440003e+00 -5.839521e-01 -2.979454e-01 
37 6.998270e+00 1 1 1.402263e+00 -5.474582e-01 -2.213929e-01 
38 7.690972e+00 1 1 1.361837e+00 -5.085523e-01 -1.519167e-01 
39 8.383670e+00 1 1 1.319428e+00 -4.689980e-01 -9.149374e-02 
40 9.076352e+00 1 1 1.275791e+00 -4.303293e-01 -3.862303e-02 
41 9.769006e+00 1 1 1.231617e+00 -3.935428e-01 7.768269e-03 
42 1.046162e+01 1 1 1.187507e+00 -3.592388e-01 4.865350e-02 
43 1.115419e+01 1 1 1.144064e+00 -3.278236e-01 8.436088e-02 
44 1.184670e+01 1 1 1.101841e+00 -2.995102e-01 1.149847e-01 
45 1.253915e+01 1 1 1.061450e+00 -2.744607e-01 1.423563e-01 
46 1.323152e+01 1 1 1.023498e+00 -2.527609e-01 1.670503e-01 
47 1.392380e+01 1 1 9.884899e-01 -2.344016e-01 1.889633e-01 
48 1.461599e+01 1 1 9.568546e-01 -2.192970e-01 2.069267e-01 
49 1.530807e+01 1 1 9.288701e-01 -2.072657e-01 2.201407e-01 
50 1.600004e+01 1 1 9.046343e-01 -1.980170e-01 2.284506e-01 
51 1.669189e+01 1 1 8.841437e-01 -1.912570e-01 2.326309e-01 
52 1.738361e+01 1 1 8.672964e-01 -1.866591e-01 2.340909e-01 
53 1.807521e+01 1 1 8.538562e-01 -1.837750e-01 2.335960e-01 
54 1.876667e+01 1 1 8.435591e-01 -1.822582e-01 2.313713e-01 
55 1.945800e+01 1 1 8.361412e-01 -1.818371e-01 2.273612e-01 
56 2.014920e+01 1 1 8.313308e-01 -1.822946e-01 2.225504e-01 
57 2.084026e+01 1 1 8.288790e-01 -1.834228e-01 2.178281e-01 
58 2.153119e+01 1 1 8.285042e-01 -1.850768e-01 2.129161e-01 
59 2.222200e+01 1 1 8.299028e-01 -1.870713e-01 2.080096e-01 
60 2.291269e+01 1 1 8.327893e-01 -1.892893e-01 2.035013e-01 
61 2.360326e+01 1 1 8.368932e-01 -1.916500e-01 1.987460e-01 
62 2.429372e+01 1 1 8.419523e-01 -1.941188e-01 1.937260e-01 
63 2.498409e+01 1 1 8.476856e-01 -1.966108e-01 1.887294e-01 
64 2.567436e+01 1 1 8.538507e-01 -1.990311e-01 1.840523e-01 
65 2.636456e+01 1 1 8.602561e-01 -2.013402e-01 1.795488e-01 
66 2.705469e+01 1 1 8.666933e-01 -2.034766e-01 1.759007e-01 
67 2.774477e+01 1 1 8.730546e-01 -2.054624e-01 1.724290e-01 
68 2.843480e+01 1 1 8.791668e-01 -2.072538e-01 1.692823e-01 
69 2.912481e+01 1 1 8.849492e-01 -2.088711e-01 1.673294e-01 
70 2.981479e+01 1 1 8.903045e-01 -2.103083e-01 1.664762e-01 
71 3.050476e+01 1 1 8.951588e-01 -2.115488e-01 1.662548e-01 
72 3.119473e+01 1 1 8.994664e-01 -2.125852e-01 1.668638e-01 
73 3.188470e+01 1 1 9.032256e-01 -2.134396e-01 1.684761e-01 
74 3.257469e+01 1 1 9.064524e-01 -2.141468e-01 1.712729e-01 
75 3.326469e+01 1 1 9.091416e-01 -2.147081e-01 1.750358e-01 
76 3.395471e+01 1 1 9.113028e-01 -2.151261e-01 1.795116e-01 
77 3.464476e+01 1 1 9.129656e-01 -2.154155e-01 1.842231e-01 
78 3.533483e+01 1 1 9.141780e-01 -2.155891e-01 1.894050e-01 
79 3.602495e+01 1 1 9.149730e-01 -2.156652e-01 1.951350e-01 
80 3.671510e+01 1 1 9.153711e-01 -2.156378e-01 2.009862e-01 
81 3.740529e+01 1 1 9.154223e-01 -2.155342e-01 2.066789e-01 
82 3.809553e+01 1 1 9.151736e-01 -2.153711e-01 2.122480e-01 
83 3.878581e+01 1 1 9.146719e-01 -2.151586e-01 2.176675e-01 
84 3.947612e+01 1 1 9.139518e-01 -2.148949e-01 2.229799e-01 
85 4.016648e+01 1 1 9.130496e-01 -2.145842e-01 2.280162e-01 
86 4.085688e+01 1 1 9.120028e-01 -2.142416e-01 2.328548e-01 
87 4.154732e+01 1 1 9.108481e-01 -2.138783e-01 2.375316e-01 
88 4.223779e+01 1 1 9.096141e-01 -2.134955e-01 2.418681e-01 
89 4.292829e+01 1 1 9.083325e-01 -2.131004e-01 2.457854e-01 
90 4.361882e+01 1 1 9.070304e-01 -2.127014e-01 2.494120e-01 
91 4.430938e+01 1 1 9.057358e-01 -2.123124e-01 2.527869e-01 
92 4.499996e+01 1 1 9.044688e-01 -2.119390e-01 2.559960e-01 
93 4.569056e+01 1 1 9.032440e-01 -2.115828e-01 2.589749e-01 
94 4.638117e+01 1 1 9.020717e-01 -2.112379e-01 2.617307e-01 
95 4.707180e+01 1 1 9.009636e-01 -2.109089e-01 2.642275e-01 
96 4.776245e+01 1 1 8.999272e-01 -2.106018e-01 2.664445e-01 
97 4.845311e+01 1 1 8.989670e-01 -2.103160e-01 2.683864e-01 
98 4.914378e+01 1 1 8.980878e-01 -2.100519e-01 2.700409e-01 
99 4.983446e+01 1 1 8.972918e-01 -2.098088e-01 2.714071e-01 
100 5.052515e+01 1 1 8.965789e-01 -2.095847e-01 2.724980e-01 
101 5.121584e+01 1 1 8.959493e-01 -2.093799e-01 2.733504e-01 
102 5.190653e+01 1 1 8.954048e-01 -2.091992e-01 2.740251e-01 
103 5.259724e+01 1 1 8.949443e-01 -2.090426e-01 2.745581e-01 
104 5.328794e+01 1 1 8.945638e-01 -2.089083e-01 2.749302e-01 
105 5.397864e+01 1 1 8.942586e-01 -2.087944e-01 2.751598e-01 
106 5.466934e+01 1 1 8.940241e-01 -2.086999e-01 2.752519e-01 
107 5.536005e+01 1 1 8.938552e-01 -2.086262e-01 2.752241e-01 
108 5.605075e+01 1 1 8.937463e-01 -2.085719e-01 2.750993e-01 
109 5.674144e+01 1 1 8.936911e-01 -2.085349e-01 2.748891e-01 
110 5.743214e+01 1 1 8.936834e-01 -2.085134e-01 2.745986e-01 
111 5.812283e+01 1 1 8.937168e-01 -2.085062e-01 2.742625e-01 
112 5.881351e+01 1 1 8.937853e-01 -2.085121e-01 2.738860e-01 
113 5.950419e+01 1 1 8.938833e-01 -2.085293e-01 2.734824e-01 
114 6.019487e+01 1 1 8.940055e-01 -2.085557e-01 2.730644e-01 
115 6.088555e+01 1 1 8.941473e-01 -2.085895e-01 2.726380e-01 
116 6.157622e+01 1 1 8.943037e-01 -2.086294e-01 2.722064e-01 
117 6.226688e+01 1 1 8.944700e-01 -2.086743e-01 2.717844e-01 
118 6.295755e+01 1 1 8.946428e-01 -2.087231e-01 2.713815e-01 
119 6.364820e+01 1 1 8.948185e-01 -2.087747e-01 2.709999e-01 
120 6.433886e+01 1 1 8.949935e-01 -2.088276e-01 2.706390e-01 
121 6.502951e+01 1 1 8.951649e-01 -2.088805e-01 2.702969e-01 
122 6.572016e+01 1 1 8.953307e-01 -2.089324e-01 2.699741e-01 
123 6.641081e+01 1 1 8.954896e-01 -2.089832e-01 2.696801e-01 
124 6.710145e+01 1 1 8.956401e-01 -2.090322e-01 2.694144e-01 
125 6.779209e+01 1 1 8.957814e-01 -2.090784e-01 2.691742e-01 
126 6.848273e+01 1 1 8.959126e-01 -2.091220e-01 2.689604e-01 
127 6.917336e+01 1 1 8.960332e-01 -2.091628e-01 2.687741e-01 
128 6.986400e+01 1 1 8.961428e-01 -2.092006e-01 2.686096e-01 
129 7.055463e+01 1 1 8.962414e-01 -2.092356e-01 2.684688e-01 
130 7.124526e+01 1 1 8.963291e-01 -2.092674e-01 2.683553e-01 
131 7.193589e+01 1 1 8.964059e-01 -2.092955e-01 2.682658e-01 
132 7.262652e+01 1 1 8.964725e-01 -2.093201e-01 2.681995e-01 
133 7.331715e+01 1 1 8.965293e-01 -2.093416e-01 2.681543e-01 
134 7.400778e+01 1 1 8.965768e-01 -2.093601e-01 2.681277e-01 
135 7.469841e+01 1 1 8.966158e-01 -2.093757e-01 2.681185e-01 
136 7.538903e+01 1 1 8.966468e-01 -2.093885e-01 2.681247e-01 
137 7.607966e+01 1 1 8.966704e-01 -2.093988e-01 2.681451e-01 
138 7.677029e+01 1 1 8.966875e-01 -2.094068e-01 2.681773e-01 
139 7.746091e+01 1 1 8.966985e-01 -2.094126e-01 2.682184e-01 
140 7.815154e+01 1 1 8.967043e-01 -2.094166e-01 2.682668e-01 
141 7.884217e+01 1 1 8.967056e-01 -2.094189e-01 2.683206e-01 
142 7.953279e+01 1 1 8.967029e-01 -2.094200e-01 2.683794e-01 
143 8.022342e+01 1 1 8.966967e-01 -2.094199e-01 2.684412e-01 
144 8.091405e+01 1 1 8.966877e-01 -2.094188e-01 2.685051e-01 
145 8.160468e+01 1 1 8.966763e-01 -2.094167e-01 2.685703e-01 
146 8.229531e+01 1 1 8.966630e-01 -2.094136e-01 2.686355e-01 
147 8.298594e+01 1 1 8.966483e-01 -2.094099e-01 2.686999e-01 
148 8.367657e+01 1 1 8.966325e-01 -2.094057e-01 2.687625e-01 
149 8.436720e+01 1 1 8.966160e-01 -2.094009e-01 2.688227e-01 
150 8.505783e+01 1 1 8.965991e-01 -2.093959e-01 2.688798e-01 
151 8.574846e+01 1 1 8.965821e-01 -2.093907e-01 2.689337e-01 
152 8.643909e+01 1 1 8.965653e-01 -2.093853e-01 2.689841e-01 
153 8.712972e+01 1 1 8.965487e-01 -2.093799e-01 2.690305e-01 
154 8.782035e+01 1 1 8.965327e-01 -2.093747e-01 2.690729e-01 
155 8.851098e+01 1 1 8.965173e-01 -2.093695e-01 2.691111e-01 
156 8.920161e+01 1 1 8.965027e-01 -2.093645e-01 2.691452e-01 
157 8.989225e+01 1 1 8.964890e-01 -2.093597e-01 2.691755e-01 
158 9.058288e+01 1 1 8.964762e-01 -2.093552e-01 2.692017e-01 
159 9.127351e+01 1 1 8.964643e-01 -2.093509e-01 2.692242e-01 
160 9.196415e+01 1 1 8.964535e-01 -2.093470e-01 2.692434e-01 
161 9.265478e+01 1 1 8.964436e-01 -2.093434e-01 2.692593e-01 
162 9.334541e+01 1 1 8.964348e-01 -2.093400e-01 2.692720e-01 
163 9.403605e+01 1 1 8.964270e-01 -2.093371e-01 2.692818e-01 
164 9.472668e+01 1 1 8.964201e-01 -2.093344e-01 2.692890e-01 
165 9.541731e+01 1 1 8.964141e-01 -2.093320e-01 2.692938e-01 
166 9.610795e+01 1 1 8.964090e-01 -2.093299e-01 2.692965e-01 
167 9.679858e+01 1 1 8.964048e-01 -2.093281e-01 2.692973e-01 
168 9.748922e+01 1 1 8.964013e-01 -2.093266e-01 2.692964e-01 
169 9.817985e+01 1 1 8.963985e-01 -2.093254e-01 2.692941e-01 
170 9.887048e+01 1 1 8.963964e-01 -2.093243e-01 2.692906e-01 
171 9.956112e+01 1 1 8.963949e-01 -2.093235e-01 2.692861e-01 
172 1.002518e+02 1 1 8.963939e-01 -2.093229e-01 2.692807e-01 
173 1.009424e+02 1 1 8.963934e-01 -2.093225e-01 2.692748e-01 
174 1.016330e+02 1 1 8.963933e-01 -2.093222e-01 2.692683e-01 
175 1.023237e+02 1 1 8.963936e-01 -2.093221e-01 2.692615e-01 
176 1.030143e+02 1 1 8.963942e-01 -2.093221e-01 2.692546e-01 
177 1.037049e+02 1 1 8.963951e-01 -2.093222e-01 2.692476e-01 
178 1.043956e+02 1 1 8.963962e-01 -2.093224e-01 2.692406e-01 
179 1.050862e+02 1 1 8.963974e-01 -2.093227e-01 2.692338e-01 
180 1.057768e+02 1 1 8.963988e-01 -2.093231e-01 2.692272e-01 
181 1.064675e+02 1 1 8.964003e-01 -2.093235e-01 2.692208e-01 
182 1.071581e+02 1 1 8.964019e-01 -2.093240e-01 2.692148e-01 
183 1.078487e+02 1 1 8.964035e-01 -2.093245e-01 2.692091e-01 
184 1.085394e+02 1 1 8.964051e-01 -2.093250e-01 2.692038e-01 
185 1.092300e+02 1 1 8.964067e-01 -2.093255e-01 2.691989e-01 
186 1.099206e+02 1 1 8.964082e-01 -2.093260e-01 2.691944e-01 
187 1.106113e+02 1 1 8.964098e-01 -2.093265e-01 2.691904e-01 
188 1.113019e+02 1 1 8.964112e-01 -2.093270e-01 2.691867e-01 
189 1.119925e+02 1 1 8.964126e-01 -2.093275e-01 2.691835e-01 
190 1.126832e+02 1 1 8.964139e-01 -2.093279e-01 2.691807e-01 
191 1.133738e+02 1 1 8.964151e-01 -2.093283e-01 2.691782e-01 
192 1.140644e+02 1 1 8.964162e-01 -2.093287e-01 2.691761e-01 
193 1.147551e+02 1 1 8.964172e-01 -2.093291e-01 2.691744e-01 
194 1.154457e+02 1 1 8.964181e-01 -2.093294e-01 2.691729e-01 
195 1.161363e+02 1 1 8.964190e-01 -2.093298e-01 2.691718e-01 
196 1.168270e+02 1 1 8.964197e-01 -2.093300e-01 2.691709e-01 
197 1.175176e+02 1 1 8.964203e-01 -2.093303e-01 2.691703e-01 
198 1.182082e+02 1 1 8.964209e-01 -2.093305e-01 2.691699e-01 
199 1.188989e+02 1 1 8.964214e-01 -2.093307e-01 2.691697e-01 
200 1.195895e+02 1 1 8.964217e-01 -2.093309e-01 2.691696e-01 
201 1.202801e+02 1 1 8.964221e-01 -2.093310e-01 2.691697e-01 
202 1.209708e+02 1 1 8.964223e-01 -2.093311e-01 2.691700e-01 
203 1.216614e+02 1 1 8.964225e-01 -2.093312e-01 2.691703e-01 
204 1.223520e+02 1 1 8.964226e-01 -2.093313e-01 2.691707e-01 
205 1.230427e+02 1 1 8.964227e-01 -2.093313e-01 2.691712e-01 
206 1.237333e+02 1 1 8.964228e-01 -2.093314e-01 2.691718e-01 
207 1.244239e+02 1 1 8.964228e-01 -2.093314e-01 2.691724e-01 
208 1.251146e+02 1 1 8.964227e-01 -2.093314e-01 2.691730e-01 
209 1.258052e+02 1 1 8.964227e-01 -2.093314e-01 2.691737e-01 
210 1.264958e+02 1 1 8.964226e-01 -2.093314e-01 2.691743e-01 
211 1.271865e+02 1 1 8.964225e-01 -2.093314e-01 2.691750e-01 
212 1.278771e+02 1 1 8.964223e-01 -2.093313e-01 2.691756e-01 
213 1.285677e+02 1 1 8.964222e-01 -2.093313e-01 2.691762e-01 
214 1.292584e+02 1 1 8.964220e-01 -2.093313e-01 2.691768e-01 
215 1.299490e+02 1 1 8.964219e-01 -2.093312e-01 2.691773e-01 
216 1.306396e+02 1 1 8.964217e-01 -2.093312e-01 2.691779e-01 
217 1.313303e+02 1 1 8.964216e-01 -2.093311e-01 2.691783e-01 
218 1.320209e+02 1 1 8.964214e-01 -2.093311e-01 2.691788e-01 
219 1.327115e+02 1 1 8.964213e-01 -2.093310e-01 2.691792e-01 
220 1.334022e+02 1 1 8.964211e-01 -2.093310e-01 2.691796e-01 
221 1.340928e+02 1 1 8.964210e-01 -2.093309e-01 2.691799e-01 
222 1.347834e+02 1 1 8.964209e-01 -2.093309e-01 2.691802e-01 
223 1.354741e+02 1 1 8.964208e-01 -2.093308e-01 2.691804e-01 
224 1.361647e+02 1 1 8.964206e-01 -2.093308e-01 2.691806e-01 
225 1.368553e+02 1 1 8.964205e-01 -2.093308e-01 2.691808e-01 
226 1.375460e+02 1 1 8.964204e-01 -2.093307e-01 2.691810e-01 
227 1.382366e+02 1 1 8.964204e-01 -2.093307e-01 2.691811e-01 
228 1.389272e+02 1 1 8.964203e-01 -2.093307e-01 2.691812e-01 
229 1.396179e+02 1 1 8.964202e-01 -2.093306e-01 2.691813e-01 
230 1.403085e+02 1 1 8.964202e-01 -2.093306e-01 2.691813e-01 
231 1.409991e+02 1 1 8.964201e-01 -2.093306e-01 2.691814e-01 
232 1.416898e+02 1 1 8.964201e-01 -2.093306e-01 2.691814e-01 
233 1.423804e+02 1 1 8.964200e-01 -2.093306e-01 2.691814e-01 
234 1.430710e+02 1 1 8.964200e-01 -2.093306e-01 2.691814e-01 
235 1.437617e+02 1 1 8.964200e-01 -2.093305e-01 2.691813e-01 
236 1.444523e+02 1 1 8.964200e-01 -2.093305e-01 2.691813e-01 
237 1.451429e+02 1 1 8.964199e-01 -2.093305e-01 2.691813e-01 
238 1.458336e+02 1 1 8.964199e-01 -2.093305e-01 2.691812e-01 
239 1.465242e+02 1 1 8.964199e-01 -2.093305e-01 2.691812e-01 
240 1.472148e+02 1 1 8.964199e-01 -2.093305e-01 2.691811e-01 
