--------------------------------------------------------------------------
WARNING: It appears that your OpenFabrics subsystem is configured to only
allow registering part of your physical memory.  This can cause MPI jobs to
run with erratic performance, hang, and/or crash.

This may be caused by your OpenFabrics vendor limiting the amount of
physical memory that can be registered.  You should investigate the
relevant Linux kernel module parameters that control how much physical
memory can be registered, and increase them to allow registering all
physical memory on your machine.

See this Open MPI FAQ item for more information on these Linux kernel module
parameters:

    http://www.open-mpi.org/faq/?category=openfabrics#ib-locked-pages

  Local host:              compute-1-31.local
  Registerable memory:     32768 MiB
  Total memory:            65507 MiB
--------------------------------------------------------------------------

  _______                              __________
  ___    |_____ ______________         ___  ____/
  __  /| |_  _ \__  ___/_  __ \__________  /_  
  _  ___ |/  __/_  /    / /_/ /_/_____/_  __/    
  /_/  |_|\___/ /_/     \____/         /_/     
  Changeset ID: 65cd4574fada 1806 
*** Warning: Using the old CFL law with the parameters specified under Time (backwards compatiblity mode)
*** Warning: cfl0=0.000000, cflCoef1=2.000000, cflCoef2=2.000000, cflMax=100.000000, cflMin=1.000000, ser=0.700000, dualtimecfl=100.000000
128 MPI CPU for 128 subdomains
Node statistics: min=290, max=317, total=38934
Edge statistics: min=1319, max=1410, total=175251
Face statistics: min=493, max=537, total=65296
Elem statistics: min=741, max=786, total=97767
*** Running an Embedded Viscous 1 Phase Fluid-Structure simulation ***
--- Spalart-Allmaras Turbulent Model Used ***
Control volume statistics: min=2.548e-10, max=3.709e-02, total=1.251e+01
Mesh bounding box: (Xmin,Ymin,Zmin) = (-1.995e+01 -1.997e+01 0.000e+00)
                   (Xmax,Ymax,Zmax) = (1.998e+01 1.997e+01 1.000e-02)
[Probe] Number of probing nodes is 0
Setting interface thickness to 1.000000e-08.
Memory required for matvec with H1 (dim=5): 74.28 MB
Memory required for matvec with H1 (dim=1): 2.97 MB
Memory for ILU(0) preconditioner (dim=5): 74.28 MB
Memory for Gmres(250) solver: 745.58 MB
Memory for ILU(0) preconditioner (dim=1): 2.97 MB
Memory for Gmres(150) solver: 89.71 MB
Point-based initial conditions could not be found.  Assuming single-phase flow
NOTE: FluidId-based initial conditions not specified.
Spatial residual norm = 9.301936286456e+05
Time for one residual evaluation: 0.144709 s

It     0: Res = 1.000000e+00, Cfl = 0.000000e+00, Elapsed Time = 0.00e+00 s
*** Warning: 436 nut values clipped at cutoff (min=-7.606854e-09 at 18083)
It     1: Res = 7.060576e-01, Cfl = 2.000000e+00, Elapsed Time = 1.99e+00 s
[compute-1-31.local:29655] 127 more processes have sent help message help-mpi-btl-openib.txt / reg mem limit low
[compute-1-31.local:29655] Set MCA parameter "orte_base_help_aggregate" to 0 to see all help / error messages
It     2: Res = 5.274002e-01, Cfl = 2.000000e+00, Elapsed Time = 2.51e+00 s
It     3: Res = 3.637427e-01, Cfl = 4.000000e+00, Elapsed Time = 2.53e+00 s
It     4: Res = 2.521783e-01, Cfl = 6.000000e+00, Elapsed Time = 2.55e+00 s
It     5: Res = 1.782694e-01, Cfl = 8.000000e+00, Elapsed Time = 2.57e+00 s
It     6: Res = 1.267589e-01, Cfl = 1.000000e+01, Elapsed Time = 2.59e+00 s
It     7: Res = 8.849360e-02, Cfl = 1.200000e+01, Elapsed Time = 2.61e+00 s
It     8: Res = 6.343029e-02, Cfl = 1.400000e+01, Elapsed Time = 2.64e+00 s
It     9: Res = 4.821411e-02, Cfl = 1.600000e+01, Elapsed Time = 2.67e+00 s
It    10: Res = 3.863131e-02, Cfl = 1.800000e+01, Elapsed Time = 2.71e+00 s
It    11: Res = 3.229689e-02, Cfl = 2.000000e+01, Elapsed Time = 2.76e+00 s
It    12: Res = 2.795015e-02, Cfl = 2.200000e+01, Elapsed Time = 2.82e+00 s
It    13: Res = 2.475379e-02, Cfl = 2.400000e+01, Elapsed Time = 2.88e+00 s
It    14: Res = 2.215148e-02, Cfl = 2.600000e+01, Elapsed Time = 3.60e+00 s
It    15: Res = 1.980203e-02, Cfl = 2.800000e+01, Elapsed Time = 3.64e+00 s
It    16: Res = 1.755513e-02, Cfl = 3.000000e+01, Elapsed Time = 3.70e+00 s
It    17: Res = 1.539543e-02, Cfl = 3.200000e+01, Elapsed Time = 3.74e+00 s
It    18: Res = 1.338862e-02, Cfl = 3.400000e+01, Elapsed Time = 3.80e+00 s
It    19: Res = 1.158536e-02, Cfl = 3.600000e+01, Elapsed Time = 3.85e+00 s
It    20: Res = 1.001263e-02, Cfl = 3.800000e+01, Elapsed Time = 3.92e+00 s
It    21: Res = 8.628220e-03, Cfl = 4.000000e+01, Elapsed Time = 3.96e+00 s
It    22: Res = 7.347544e-03, Cfl = 4.200000e+01, Elapsed Time = 4.04e+00 s
It    23: Res = 6.171768e-03, Cfl = 4.400000e+01, Elapsed Time = 4.08e+00 s
It    24: Res = 5.105831e-03, Cfl = 4.600000e+01, Elapsed Time = 4.12e+00 s
It    25: Res = 4.206761e-03, Cfl = 4.800000e+01, Elapsed Time = 4.16e+00 s
It    26: Res = 3.489708e-03, Cfl = 5.000000e+01, Elapsed Time = 4.21e+00 s
It    27: Res = 2.948583e-03, Cfl = 5.200000e+01, Elapsed Time = 4.28e+00 s
It    28: Res = 2.577428e-03, Cfl = 5.400000e+01, Elapsed Time = 4.36e+00 s
It    29: Res = 2.343338e-03, Cfl = 5.600000e+01, Elapsed Time = 4.42e+00 s
It    30: Res = 2.197857e-03, Cfl = 5.800000e+01, Elapsed Time = 4.50e+00 s
It    31: Res = 2.073679e-03, Cfl = 6.000000e+01, Elapsed Time = 4.62e+00 s
It    32: Res = 1.930896e-03, Cfl = 6.200000e+01, Elapsed Time = 5.16e+00 s
It    33: Res = 1.785507e-03, Cfl = 6.400000e+01, Elapsed Time = 5.27e+00 s
It    34: Res = 1.646719e-03, Cfl = 6.600000e+01, Elapsed Time = 5.33e+00 s
It    35: Res = 1.534779e-03, Cfl = 6.800000e+01, Elapsed Time = 5.44e+00 s
It    36: Res = 1.448069e-03, Cfl = 7.000000e+01, Elapsed Time = 5.53e+00 s
It    37: Res = 1.372490e-03, Cfl = 7.200000e+01, Elapsed Time = 5.61e+00 s
It    38: Res = 1.294763e-03, Cfl = 7.400000e+01, Elapsed Time = 5.66e+00 s
It    39: Res = 1.208880e-03, Cfl = 7.600000e+01, Elapsed Time = 5.71e+00 s
It    40: Res = 1.119056e-03, Cfl = 7.800000e+01, Elapsed Time = 5.78e+00 s
It    41: Res = 1.020972e-03, Cfl = 8.000000e+01, Elapsed Time = 5.86e+00 s
It    42: Res = 9.198293e-04, Cfl = 8.200000e+01, Elapsed Time = 5.94e+00 s
It    43: Res = 8.325147e-04, Cfl = 8.400000e+01, Elapsed Time = 6.04e+00 s
It    44: Res = 7.679423e-04, Cfl = 8.600000e+01, Elapsed Time = 6.12e+00 s
It    45: Res = 7.279721e-04, Cfl = 8.800000e+01, Elapsed Time = 6.24e+00 s
It    46: Res = 7.044441e-04, Cfl = 9.000000e+01, Elapsed Time = 6.58e+00 s
It    47: Res = 6.918031e-04, Cfl = 9.200000e+01, Elapsed Time = 6.67e+00 s
It    48: Res = 6.827582e-04, Cfl = 9.400000e+01, Elapsed Time = 6.88e+00 s
It    49: Res = 6.773076e-04, Cfl = 9.600000e+01, Elapsed Time = 7.07e+00 s
It    50: Res = 6.762561e-04, Cfl = 9.800000e+01, Elapsed Time = 7.13e+00 s
It    51: Res = 6.844910e-04, Cfl = 1.000000e+02, Elapsed Time = 7.18e+00 s
It    52: Res = 7.004559e-04, Cfl = 1.000000e+02, Elapsed Time = 7.27e+00 s
It    53: Res = 7.218602e-04, Cfl = 1.000000e+02, Elapsed Time = 7.38e+00 s
It    54: Res = 7.459669e-04, Cfl = 1.000000e+02, Elapsed Time = 7.49e+00 s
It    55: Res = 7.710862e-04, Cfl = 1.000000e+02, Elapsed Time = 7.61e+00 s
It    56: Res = 7.948920e-04, Cfl = 1.000000e+02, Elapsed Time = 7.77e+00 s
It    57: Res = 8.157096e-04, Cfl = 1.000000e+02, Elapsed Time = 7.86e+00 s
It    58: Res = 8.325512e-04, Cfl = 1.000000e+02, Elapsed Time = 7.94e+00 s
It    59: Res = 8.450237e-04, Cfl = 1.000000e+02, Elapsed Time = 8.00e+00 s
It    60: Res = 8.526454e-04, Cfl = 1.000000e+02, Elapsed Time = 8.05e+00 s
It    61: Res = 8.554265e-04, Cfl = 1.000000e+02, Elapsed Time = 8.13e+00 s
It    62: Res = 8.534901e-04, Cfl = 1.000000e+02, Elapsed Time = 8.24e+00 s
It    63: Res = 8.476563e-04, Cfl = 1.000000e+02, Elapsed Time = 8.35e+00 s
It    64: Res = 8.378992e-04, Cfl = 1.000000e+02, Elapsed Time = 8.44e+00 s
It    65: Res = 8.248847e-04, Cfl = 1.000000e+02, Elapsed Time = 8.55e+00 s
It    66: Res = 8.093150e-04, Cfl = 1.000000e+02, Elapsed Time = 8.63e+00 s
It    67: Res = 7.920907e-04, Cfl = 1.000000e+02, Elapsed Time = 8.69e+00 s
It    68: Res = 7.739139e-04, Cfl = 1.000000e+02, Elapsed Time = 8.75e+00 s
It    69: Res = 7.544529e-04, Cfl = 1.000000e+02, Elapsed Time = 8.85e+00 s
It    70: Res = 7.349484e-04, Cfl = 1.000000e+02, Elapsed Time = 8.94e+00 s
It    71: Res = 7.157170e-04, Cfl = 1.000000e+02, Elapsed Time = 9.05e+00 s
It    72: Res = 6.967906e-04, Cfl = 1.000000e+02, Elapsed Time = 9.21e+00 s
It    73: Res = 6.786463e-04, Cfl = 1.000000e+02, Elapsed Time = 9.35e+00 s
It    74: Res = 6.607385e-04, Cfl = 1.000000e+02, Elapsed Time = 9.41e+00 s
It    75: Res = 6.444682e-04, Cfl = 1.000000e+02, Elapsed Time = 9.46e+00 s
It    76: Res = 6.298123e-04, Cfl = 1.000000e+02, Elapsed Time = 9.54e+00 s
It    77: Res = 6.165552e-04, Cfl = 1.000000e+02, Elapsed Time = 9.64e+00 s
It    78: Res = 6.047869e-04, Cfl = 1.000000e+02, Elapsed Time = 9.72e+00 s
It    79: Res = 5.940114e-04, Cfl = 1.000000e+02, Elapsed Time = 9.87e+00 s
It    80: Res = 5.840198e-04, Cfl = 1.000000e+02, Elapsed Time = 9.98e+00 s
It    81: Res = 5.747380e-04, Cfl = 1.000000e+02, Elapsed Time = 1.01e+01 s
It    82: Res = 5.662871e-04, Cfl = 1.000000e+02, Elapsed Time = 1.02e+01 s
It    83: Res = 5.587585e-04, Cfl = 1.000000e+02, Elapsed Time = 1.03e+01 s
It    84: Res = 5.518386e-04, Cfl = 1.000000e+02, Elapsed Time = 1.03e+01 s
It    85: Res = 5.456042e-04, Cfl = 1.000000e+02, Elapsed Time = 1.04e+01 s
It    86: Res = 5.400088e-04, Cfl = 1.000000e+02, Elapsed Time = 1.05e+01 s
It    87: Res = 5.350112e-04, Cfl = 1.000000e+02, Elapsed Time = 1.06e+01 s
It    88: Res = 5.304151e-04, Cfl = 1.000000e+02, Elapsed Time = 1.07e+01 s
It    89: Res = 5.263890e-04, Cfl = 1.000000e+02, Elapsed Time = 1.07e+01 s
It    90: Res = 5.227985e-04, Cfl = 1.000000e+02, Elapsed Time = 1.09e+01 s
It    91: Res = 5.195363e-04, Cfl = 1.000000e+02, Elapsed Time = 1.09e+01 s
It    92: Res = 5.164333e-04, Cfl = 1.000000e+02, Elapsed Time = 1.10e+01 s
It    93: Res = 5.135289e-04, Cfl = 1.000000e+02, Elapsed Time = 1.11e+01 s
It    94: Res = 5.107524e-04, Cfl = 1.000000e+02, Elapsed Time = 1.12e+01 s
It    95: Res = 5.081463e-04, Cfl = 1.000000e+02, Elapsed Time = 1.13e+01 s
It    96: Res = 5.056457e-04, Cfl = 1.000000e+02, Elapsed Time = 1.14e+01 s
It    97: Res = 5.032436e-04, Cfl = 1.000000e+02, Elapsed Time = 1.16e+01 s
It    98: Res = 5.009738e-04, Cfl = 1.000000e+02, Elapsed Time = 1.16e+01 s
It    99: Res = 4.988197e-04, Cfl = 1.000000e+02, Elapsed Time = 1.17e+01 s
It   100: Res = 4.967565e-04, Cfl = 1.000000e+02, Elapsed Time = 1.18e+01 s
It   101: Res = 4.947078e-04, Cfl = 1.000000e+02, Elapsed Time = 1.18e+01 s
It   102: Res = 4.925453e-04, Cfl = 1.000000e+02, Elapsed Time = 1.19e+01 s
It   103: Res = 4.902956e-04, Cfl = 1.000000e+02, Elapsed Time = 1.20e+01 s
It   104: Res = 4.878734e-04, Cfl = 1.000000e+02, Elapsed Time = 1.22e+01 s
It   105: Res = 4.852824e-04, Cfl = 1.000000e+02, Elapsed Time = 1.23e+01 s
It   106: Res = 4.824219e-04, Cfl = 1.000000e+02, Elapsed Time = 1.24e+01 s
It   107: Res = 4.793662e-04, Cfl = 1.000000e+02, Elapsed Time = 1.25e+01 s
It   108: Res = 4.759948e-04, Cfl = 1.000000e+02, Elapsed Time = 1.26e+01 s
It   109: Res = 4.721762e-04, Cfl = 1.000000e+02, Elapsed Time = 1.26e+01 s
It   110: Res = 4.677132e-04, Cfl = 1.000000e+02, Elapsed Time = 1.27e+01 s
It   111: Res = 4.624137e-04, Cfl = 1.000000e+02, Elapsed Time = 1.28e+01 s
It   112: Res = 4.561880e-04, Cfl = 1.000000e+02, Elapsed Time = 1.29e+01 s
It   113: Res = 4.489981e-04, Cfl = 1.000000e+02, Elapsed Time = 1.30e+01 s
It   114: Res = 4.406900e-04, Cfl = 1.000000e+02, Elapsed Time = 1.31e+01 s
It   115: Res = 4.311550e-04, Cfl = 1.000000e+02, Elapsed Time = 1.32e+01 s
It   116: Res = 4.203498e-04, Cfl = 1.000000e+02, Elapsed Time = 1.33e+01 s
It   117: Res = 4.083564e-04, Cfl = 1.000000e+02, Elapsed Time = 1.33e+01 s
It   118: Res = 3.953381e-04, Cfl = 1.000000e+02, Elapsed Time = 1.34e+01 s
It   119: Res = 3.814599e-04, Cfl = 1.000000e+02, Elapsed Time = 1.35e+01 s
It   120: Res = 3.668622e-04, Cfl = 1.000000e+02, Elapsed Time = 1.37e+01 s
It   121: Res = 3.516363e-04, Cfl = 1.000000e+02, Elapsed Time = 1.38e+01 s
It   122: Res = 3.358689e-04, Cfl = 1.000000e+02, Elapsed Time = 1.39e+01 s
It   123: Res = 3.199379e-04, Cfl = 1.000000e+02, Elapsed Time = 1.40e+01 s
It   124: Res = 3.041782e-04, Cfl = 1.000000e+02, Elapsed Time = 1.40e+01 s
It   125: Res = 2.887740e-04, Cfl = 1.000000e+02, Elapsed Time = 1.41e+01 s
It   126: Res = 2.738917e-04, Cfl = 1.000000e+02, Elapsed Time = 1.42e+01 s
It   127: Res = 2.599197e-04, Cfl = 1.000000e+02, Elapsed Time = 1.43e+01 s
It   128: Res = 2.467507e-04, Cfl = 1.000000e+02, Elapsed Time = 1.44e+01 s
It   129: Res = 2.344668e-04, Cfl = 1.000000e+02, Elapsed Time = 1.45e+01 s
It   130: Res = 2.231514e-04, Cfl = 1.000000e+02, Elapsed Time = 1.47e+01 s
It   131: Res = 2.128339e-04, Cfl = 1.000000e+02, Elapsed Time = 1.48e+01 s
It   132: Res = 2.035522e-04, Cfl = 1.000000e+02, Elapsed Time = 1.49e+01 s
It   133: Res = 1.952853e-04, Cfl = 1.000000e+02, Elapsed Time = 1.49e+01 s
It   134: Res = 1.879575e-04, Cfl = 1.000000e+02, Elapsed Time = 1.50e+01 s
It   135: Res = 1.814702e-04, Cfl = 1.000000e+02, Elapsed Time = 1.51e+01 s
It   136: Res = 1.756272e-04, Cfl = 1.000000e+02, Elapsed Time = 1.52e+01 s
It   137: Res = 1.702638e-04, Cfl = 1.000000e+02, Elapsed Time = 1.53e+01 s
It   138: Res = 1.653164e-04, Cfl = 1.000000e+02, Elapsed Time = 1.54e+01 s
It   139: Res = 1.607397e-04, Cfl = 1.000000e+02, Elapsed Time = 1.55e+01 s
It   140: Res = 1.563840e-04, Cfl = 1.000000e+02, Elapsed Time = 1.56e+01 s
It   141: Res = 1.521580e-04, Cfl = 1.000000e+02, Elapsed Time = 1.56e+01 s
It   142: Res = 1.481395e-04, Cfl = 1.000000e+02, Elapsed Time = 1.57e+01 s
It   143: Res = 1.442582e-04, Cfl = 1.000000e+02, Elapsed Time = 1.58e+01 s
It   144: Res = 1.404805e-04, Cfl = 1.000000e+02, Elapsed Time = 1.59e+01 s
It   145: Res = 1.367982e-04, Cfl = 1.000000e+02, Elapsed Time = 1.60e+01 s
It   146: Res = 1.332233e-04, Cfl = 1.000000e+02, Elapsed Time = 1.62e+01 s
It   147: Res = 1.297819e-04, Cfl = 1.000000e+02, Elapsed Time = 1.63e+01 s
It   148: Res = 1.264945e-04, Cfl = 1.000000e+02, Elapsed Time = 1.63e+01 s
It   149: Res = 1.233602e-04, Cfl = 1.000000e+02, Elapsed Time = 1.64e+01 s
It   150: Res = 1.204044e-04, Cfl = 1.000000e+02, Elapsed Time = 1.65e+01 s
It   151: Res = 1.175776e-04, Cfl = 1.000000e+02, Elapsed Time = 1.66e+01 s
It   152: Res = 1.148618e-04, Cfl = 1.000000e+02, Elapsed Time = 1.67e+01 s
It   153: Res = 1.123272e-04, Cfl = 1.000000e+02, Elapsed Time = 1.68e+01 s
It   154: Res = 1.098635e-04, Cfl = 1.000000e+02, Elapsed Time = 1.69e+01 s
It   155: Res = 1.074801e-04, Cfl = 1.000000e+02, Elapsed Time = 1.70e+01 s
It   156: Res = 1.051774e-04, Cfl = 1.000000e+02, Elapsed Time = 1.71e+01 s
It   157: Res = 1.029443e-04, Cfl = 1.000000e+02, Elapsed Time = 1.72e+01 s
It   158: Res = 1.007892e-04, Cfl = 1.000000e+02, Elapsed Time = 1.72e+01 s
It   159: Res = 9.868889e-05, Cfl = 1.000000e+02, Elapsed Time = 1.73e+01 s
It   160: Res = 9.664437e-05, Cfl = 1.000000e+02, Elapsed Time = 1.74e+01 s
It   161: Res = 9.463996e-05, Cfl = 1.000000e+02, Elapsed Time = 1.75e+01 s
It   162: Res = 9.269363e-05, Cfl = 1.000000e+02, Elapsed Time = 1.76e+01 s
It   163: Res = 9.081226e-05, Cfl = 1.000000e+02, Elapsed Time = 1.77e+01 s
It   164: Res = 8.897580e-05, Cfl = 1.000000e+02, Elapsed Time = 1.78e+01 s
It   165: Res = 8.716817e-05, Cfl = 1.000000e+02, Elapsed Time = 1.79e+01 s
It   166: Res = 8.540923e-05, Cfl = 1.000000e+02, Elapsed Time = 1.79e+01 s
It   167: Res = 8.370073e-05, Cfl = 1.000000e+02, Elapsed Time = 1.80e+01 s
It   168: Res = 8.203415e-05, Cfl = 1.000000e+02, Elapsed Time = 1.81e+01 s
It   169: Res = 8.039928e-05, Cfl = 1.000000e+02, Elapsed Time = 1.82e+01 s
It   170: Res = 7.879921e-05, Cfl = 1.000000e+02, Elapsed Time = 1.84e+01 s
It   171: Res = 7.723284e-05, Cfl = 1.000000e+02, Elapsed Time = 1.85e+01 s
It   172: Res = 7.568247e-05, Cfl = 1.000000e+02, Elapsed Time = 1.86e+01 s
It   173: Res = 7.417671e-05, Cfl = 1.000000e+02, Elapsed Time = 1.86e+01 s
It   174: Res = 7.268808e-05, Cfl = 1.000000e+02, Elapsed Time = 1.87e+01 s
It   175: Res = 7.119598e-05, Cfl = 1.000000e+02, Elapsed Time = 1.88e+01 s
It   176: Res = 6.976013e-05, Cfl = 1.000000e+02, Elapsed Time = 1.89e+01 s
It   177: Res = 6.836385e-05, Cfl = 1.000000e+02, Elapsed Time = 1.90e+01 s
It   178: Res = 6.699681e-05, Cfl = 1.000000e+02, Elapsed Time = 1.91e+01 s
It   179: Res = 6.565984e-05, Cfl = 1.000000e+02, Elapsed Time = 1.92e+01 s
It   180: Res = 6.436277e-05, Cfl = 1.000000e+02, Elapsed Time = 1.94e+01 s
It   181: Res = 6.309941e-05, Cfl = 1.000000e+02, Elapsed Time = 1.95e+01 s
It   182: Res = 6.184957e-05, Cfl = 1.000000e+02, Elapsed Time = 1.95e+01 s
It   183: Res = 6.062244e-05, Cfl = 1.000000e+02, Elapsed Time = 1.96e+01 s
It   184: Res = 5.941094e-05, Cfl = 1.000000e+02, Elapsed Time = 1.96e+01 s
It   185: Res = 5.821461e-05, Cfl = 1.000000e+02, Elapsed Time = 1.97e+01 s
It   186: Res = 5.703056e-05, Cfl = 1.000000e+02, Elapsed Time = 1.99e+01 s
It   187: Res = 5.587226e-05, Cfl = 1.000000e+02, Elapsed Time = 2.00e+01 s
It   188: Res = 5.472875e-05, Cfl = 1.000000e+02, Elapsed Time = 2.01e+01 s
It   189: Res = 5.361751e-05, Cfl = 1.000000e+02, Elapsed Time = 2.01e+01 s
It   190: Res = 5.253836e-05, Cfl = 1.000000e+02, Elapsed Time = 2.02e+01 s
It   191: Res = 5.147488e-05, Cfl = 1.000000e+02, Elapsed Time = 2.03e+01 s
It   192: Res = 5.040846e-05, Cfl = 1.000000e+02, Elapsed Time = 2.04e+01 s
It   193: Res = 4.935472e-05, Cfl = 1.000000e+02, Elapsed Time = 2.04e+01 s
It   194: Res = 4.831398e-05, Cfl = 1.000000e+02, Elapsed Time = 2.07e+01 s
It   195: Res = 4.730564e-05, Cfl = 1.000000e+02, Elapsed Time = 2.08e+01 s
It   196: Res = 4.632135e-05, Cfl = 1.000000e+02, Elapsed Time = 2.09e+01 s
It   197: Res = 4.536453e-05, Cfl = 1.000000e+02, Elapsed Time = 2.09e+01 s
It   198: Res = 4.443648e-05, Cfl = 1.000000e+02, Elapsed Time = 2.10e+01 s
It   199: Res = 4.353432e-05, Cfl = 1.000000e+02, Elapsed Time = 2.11e+01 s
It   200: Res = 4.264679e-05, Cfl = 1.000000e+02, Elapsed Time = 2.12e+01 s
It   201: Res = 4.177248e-05, Cfl = 1.000000e+02, Elapsed Time = 2.13e+01 s
It   202: Res = 4.091937e-05, Cfl = 1.000000e+02, Elapsed Time = 2.14e+01 s
It   203: Res = 4.008984e-05, Cfl = 1.000000e+02, Elapsed Time = 2.16e+01 s
It   204: Res = 3.927988e-05, Cfl = 1.000000e+02, Elapsed Time = 2.17e+01 s
It   205: Res = 3.849272e-05, Cfl = 1.000000e+02, Elapsed Time = 2.18e+01 s
It   206: Res = 3.773175e-05, Cfl = 1.000000e+02, Elapsed Time = 2.18e+01 s
It   207: Res = 3.698340e-05, Cfl = 1.000000e+02, Elapsed Time = 2.19e+01 s
It   208: Res = 3.624751e-05, Cfl = 1.000000e+02, Elapsed Time = 2.20e+01 s
It   209: Res = 3.552748e-05, Cfl = 1.000000e+02, Elapsed Time = 2.21e+01 s
It   210: Res = 3.482198e-05, Cfl = 1.000000e+02, Elapsed Time = 2.22e+01 s
It   211: Res = 3.413098e-05, Cfl = 1.000000e+02, Elapsed Time = 2.23e+01 s
It   212: Res = 3.345922e-05, Cfl = 1.000000e+02, Elapsed Time = 2.24e+01 s
It   213: Res = 3.280416e-05, Cfl = 1.000000e+02, Elapsed Time = 2.24e+01 s
It   214: Res = 3.217641e-05, Cfl = 1.000000e+02, Elapsed Time = 2.25e+01 s
It   215: Res = 3.157936e-05, Cfl = 1.000000e+02, Elapsed Time = 2.26e+01 s
It   216: Res = 3.099103e-05, Cfl = 1.000000e+02, Elapsed Time = 2.27e+01 s
It   217: Res = 3.040786e-05, Cfl = 1.000000e+02, Elapsed Time = 2.28e+01 s
It   218: Res = 2.982874e-05, Cfl = 1.000000e+02, Elapsed Time = 2.30e+01 s
It   219: Res = 2.925908e-05, Cfl = 1.000000e+02, Elapsed Time = 2.31e+01 s
It   220: Res = 2.869877e-05, Cfl = 1.000000e+02, Elapsed Time = 2.32e+01 s
It   221: Res = 2.814980e-05, Cfl = 1.000000e+02, Elapsed Time = 2.32e+01 s
It   222: Res = 2.761122e-05, Cfl = 1.000000e+02, Elapsed Time = 2.33e+01 s
It   223: Res = 2.708336e-05, Cfl = 1.000000e+02, Elapsed Time = 2.33e+01 s
It   224: Res = 2.656736e-05, Cfl = 1.000000e+02, Elapsed Time = 2.35e+01 s
It   225: Res = 2.606360e-05, Cfl = 1.000000e+02, Elapsed Time = 2.35e+01 s
It   226: Res = 2.557141e-05, Cfl = 1.000000e+02, Elapsed Time = 2.36e+01 s
It   227: Res = 2.509414e-05, Cfl = 1.000000e+02, Elapsed Time = 2.38e+01 s
It   228: Res = 2.463132e-05, Cfl = 1.000000e+02, Elapsed Time = 2.39e+01 s
It   229: Res = 2.417724e-05, Cfl = 1.000000e+02, Elapsed Time = 2.40e+01 s
It   230: Res = 2.372892e-05, Cfl = 1.000000e+02, Elapsed Time = 2.41e+01 s
It   231: Res = 2.329189e-05, Cfl = 1.000000e+02, Elapsed Time = 2.41e+01 s
It   232: Res = 2.286416e-05, Cfl = 1.000000e+02, Elapsed Time = 2.42e+01 s
It   233: Res = 2.244504e-05, Cfl = 1.000000e+02, Elapsed Time = 2.43e+01 s
It   234: Res = 2.203237e-05, Cfl = 1.000000e+02, Elapsed Time = 2.45e+01 s
It   235: Res = 2.163476e-05, Cfl = 1.000000e+02, Elapsed Time = 2.46e+01 s
It   236: Res = 2.124013e-05, Cfl = 1.000000e+02, Elapsed Time = 2.47e+01 s
It   237: Res = 2.085472e-05, Cfl = 1.000000e+02, Elapsed Time = 2.47e+01 s
It   238: Res = 2.047566e-05, Cfl = 1.000000e+02, Elapsed Time = 2.48e+01 s
It   239: Res = 2.010199e-05, Cfl = 1.000000e+02, Elapsed Time = 2.48e+01 s
It   240: Res = 1.973724e-05, Cfl = 1.000000e+02, Elapsed Time = 2.49e+01 s
It   241: Res = 1.937979e-05, Cfl = 1.000000e+02, Elapsed Time = 2.50e+01 s
It   242: Res = 1.902818e-05, Cfl = 1.000000e+02, Elapsed Time = 2.53e+01 s
It   243: Res = 1.868669e-05, Cfl = 1.000000e+02, Elapsed Time = 2.54e+01 s
It   244: Res = 1.834939e-05, Cfl = 1.000000e+02, Elapsed Time = 2.55e+01 s
It   245: Res = 1.802130e-05, Cfl = 1.000000e+02, Elapsed Time = 2.55e+01 s
It   246: Res = 1.770241e-05, Cfl = 1.000000e+02, Elapsed Time = 2.56e+01 s
It   247: Res = 1.738863e-05, Cfl = 1.000000e+02, Elapsed Time = 2.57e+01 s
It   248: Res = 1.708109e-05, Cfl = 1.000000e+02, Elapsed Time = 2.58e+01 s
It   249: Res = 1.679054e-05, Cfl = 1.000000e+02, Elapsed Time = 2.59e+01 s
It   250: Res = 1.650264e-05, Cfl = 1.000000e+02, Elapsed Time = 2.61e+01 s
It   251: Res = 1.621847e-05, Cfl = 1.000000e+02, Elapsed Time = 2.62e+01 s
It   252: Res = 1.593539e-05, Cfl = 1.000000e+02, Elapsed Time = 2.63e+01 s
It   253: Res = 1.566371e-05, Cfl = 1.000000e+02, Elapsed Time = 2.64e+01 s
It   254: Res = 1.539390e-05, Cfl = 1.000000e+02, Elapsed Time = 2.65e+01 s
It   255: Res = 1.511597e-05, Cfl = 1.000000e+02, Elapsed Time = 2.66e+01 s
It   256: Res = 1.484482e-05, Cfl = 1.000000e+02, Elapsed Time = 2.68e+01 s
It   257: Res = 1.458499e-05, Cfl = 1.000000e+02, Elapsed Time = 2.69e+01 s
It   258: Res = 1.433834e-05, Cfl = 1.000000e+02, Elapsed Time = 2.70e+01 s
It   259: Res = 1.409714e-05, Cfl = 1.000000e+02, Elapsed Time = 2.70e+01 s
It   260: Res = 1.386422e-05, Cfl = 1.000000e+02, Elapsed Time = 2.71e+01 s
It   261: Res = 1.363634e-05, Cfl = 1.000000e+02, Elapsed Time = 2.71e+01 s
It   262: Res = 1.341761e-05, Cfl = 1.000000e+02, Elapsed Time = 2.72e+01 s
It   263: Res = 1.320576e-05, Cfl = 1.000000e+02, Elapsed Time = 2.73e+01 s
It   264: Res = 1.299847e-05, Cfl = 1.000000e+02, Elapsed Time = 2.75e+01 s
It   265: Res = 1.279849e-05, Cfl = 1.000000e+02, Elapsed Time = 2.77e+01 s
It   266: Res = 1.260761e-05, Cfl = 1.000000e+02, Elapsed Time = 2.78e+01 s
It   267: Res = 1.241859e-05, Cfl = 1.000000e+02, Elapsed Time = 2.78e+01 s
It   268: Res = 1.223529e-05, Cfl = 1.000000e+02, Elapsed Time = 2.79e+01 s
It   269: Res = 1.205431e-05, Cfl = 1.000000e+02, Elapsed Time = 2.80e+01 s
It   270: Res = 1.188390e-05, Cfl = 1.000000e+02, Elapsed Time = 2.81e+01 s
It   271: Res = 1.171570e-05, Cfl = 1.000000e+02, Elapsed Time = 2.82e+01 s
It   272: Res = 1.155269e-05, Cfl = 1.000000e+02, Elapsed Time = 2.83e+01 s
It   273: Res = 1.139196e-05, Cfl = 1.000000e+02, Elapsed Time = 2.85e+01 s
It   274: Res = 1.123705e-05, Cfl = 1.000000e+02, Elapsed Time = 2.86e+01 s
It   275: Res = 1.108862e-05, Cfl = 1.000000e+02, Elapsed Time = 2.87e+01 s
It   276: Res = 1.094108e-05, Cfl = 1.000000e+02, Elapsed Time = 2.88e+01 s
It   277: Res = 1.079750e-05, Cfl = 1.000000e+02, Elapsed Time = 2.89e+01 s
It   278: Res = 1.065804e-05, Cfl = 1.000000e+02, Elapsed Time = 2.90e+01 s
It   279: Res = 1.051993e-05, Cfl = 1.000000e+02, Elapsed Time = 2.92e+01 s
It   280: Res = 1.038685e-05, Cfl = 1.000000e+02, Elapsed Time = 2.92e+01 s
It   281: Res = 1.025789e-05, Cfl = 1.000000e+02, Elapsed Time = 2.93e+01 s
It   282: Res = 1.013483e-05, Cfl = 1.000000e+02, Elapsed Time = 2.93e+01 s
It   283: Res = 1.001677e-05, Cfl = 1.000000e+02, Elapsed Time = 2.94e+01 s
It   284: Res = 9.903550e-06, Cfl = 1.000000e+02, Elapsed Time = 2.95e+01 s
It   285: Res = 9.795697e-06, Cfl = 1.000000e+02, Elapsed Time = 2.95e+01 s
It   286: Res = 9.691769e-06, Cfl = 1.000000e+02, Elapsed Time = 2.97e+01 s
It   287: Res = 9.590663e-06, Cfl = 1.000000e+02, Elapsed Time = 2.98e+01 s
It   288: Res = 9.491665e-06, Cfl = 1.000000e+02, Elapsed Time = 3.00e+01 s
It   289: Res = 9.389109e-06, Cfl = 1.000000e+02, Elapsed Time = 3.01e+01 s
It   290: Res = 9.292440e-06, Cfl = 1.000000e+02, Elapsed Time = 3.01e+01 s
It   291: Res = 9.202233e-06, Cfl = 1.000000e+02, Elapsed Time = 3.02e+01 s
It   292: Res = 9.116130e-06, Cfl = 1.000000e+02, Elapsed Time = 3.03e+01 s
It   293: Res = 9.030651e-06, Cfl = 1.000000e+02, Elapsed Time = 3.04e+01 s
It   294: Res = 8.952097e-06, Cfl = 1.000000e+02, Elapsed Time = 3.05e+01 s
It   295: Res = 8.876036e-06, Cfl = 1.000000e+02, Elapsed Time = 3.09e+01 s
It   296: Res = 8.800165e-06, Cfl = 1.000000e+02, Elapsed Time = 3.13e+01 s
It   297: Res = 8.735478e-06, Cfl = 1.000000e+02, Elapsed Time = 3.14e+01 s
It   298: Res = 8.688914e-06, Cfl = 1.000000e+02, Elapsed Time = 3.15e+01 s
It   299: Res = 8.639788e-06, Cfl = 1.000000e+02, Elapsed Time = 3.15e+01 s
It   300: Res = 8.585570e-06, Cfl = 1.000000e+02, Elapsed Time = 3.16e+01 s
It   301: Res = 8.531248e-06, Cfl = 1.000000e+02, Elapsed Time = 3.17e+01 s
It   302: Res = 8.477104e-06, Cfl = 1.000000e+02, Elapsed Time = 3.17e+01 s
It   303: Res = 8.421349e-06, Cfl = 1.000000e+02, Elapsed Time = 3.18e+01 s
It   304: Res = 8.361460e-06, Cfl = 1.000000e+02, Elapsed Time = 3.19e+01 s
It   305: Res = 8.301237e-06, Cfl = 1.000000e+02, Elapsed Time = 3.21e+01 s
It   306: Res = 8.246620e-06, Cfl = 1.000000e+02, Elapsed Time = 3.22e+01 s
It   307: Res = 8.202832e-06, Cfl = 1.000000e+02, Elapsed Time = 3.23e+01 s
It   308: Res = 8.181997e-06, Cfl = 1.000000e+02, Elapsed Time = 3.24e+01 s
It   309: Res = 8.150671e-06, Cfl = 1.000000e+02, Elapsed Time = 3.25e+01 s
It   310: Res = 8.116021e-06, Cfl = 1.000000e+02, Elapsed Time = 3.25e+01 s
It   311: Res = 8.078469e-06, Cfl = 1.000000e+02, Elapsed Time = 3.26e+01 s
It   312: Res = 8.036753e-06, Cfl = 1.000000e+02, Elapsed Time = 3.27e+01 s
It   313: Res = 7.988444e-06, Cfl = 1.000000e+02, Elapsed Time = 3.28e+01 s
It   314: Res = 7.935682e-06, Cfl = 1.000000e+02, Elapsed Time = 3.29e+01 s
It   315: Res = 7.880461e-06, Cfl = 1.000000e+02, Elapsed Time = 3.31e+01 s
It   316: Res = 7.823687e-06, Cfl = 1.000000e+02, Elapsed Time = 3.32e+01 s
It   317: Res = 7.766006e-06, Cfl = 1.000000e+02, Elapsed Time = 3.33e+01 s
It   318: Res = 7.696121e-06, Cfl = 1.000000e+02, Elapsed Time = 3.34e+01 s
It   319: Res = 7.635178e-06, Cfl = 1.000000e+02, Elapsed Time = 3.35e+01 s
It   320: Res = 7.574084e-06, Cfl = 1.000000e+02, Elapsed Time = 3.36e+01 s
It   321: Res = 7.514029e-06, Cfl = 1.000000e+02, Elapsed Time = 3.38e+01 s
It   322: Res = 7.458452e-06, Cfl = 1.000000e+02, Elapsed Time = 3.38e+01 s
It   323: Res = 7.405405e-06, Cfl = 1.000000e+02, Elapsed Time = 3.39e+01 s
It   324: Res = 7.354036e-06, Cfl = 1.000000e+02, Elapsed Time = 3.39e+01 s
It   325: Res = 7.306839e-06, Cfl = 1.000000e+02, Elapsed Time = 3.40e+01 s
It   326: Res = 7.265425e-06, Cfl = 1.000000e+02, Elapsed Time = 3.40e+01 s
It   327: Res = 7.222685e-06, Cfl = 1.000000e+02, Elapsed Time = 3.41e+01 s
It   328: Res = 7.177980e-06, Cfl = 1.000000e+02, Elapsed Time = 3.42e+01 s
It   329: Res = 7.127798e-06, Cfl = 1.000000e+02, Elapsed Time = 3.44e+01 s
It   330: Res = 7.079290e-06, Cfl = 1.000000e+02, Elapsed Time = 3.46e+01 s
It   331: Res = 7.032573e-06, Cfl = 1.000000e+02, Elapsed Time = 3.47e+01 s
It   332: Res = 6.983772e-06, Cfl = 1.000000e+02, Elapsed Time = 3.47e+01 s
It   333: Res = 6.930926e-06, Cfl = 1.000000e+02, Elapsed Time = 3.48e+01 s
It   334: Res = 6.886737e-06, Cfl = 1.000000e+02, Elapsed Time = 3.48e+01 s
It   335: Res = 6.844762e-06, Cfl = 1.000000e+02, Elapsed Time = 3.49e+01 s
It   336: Res = 6.804995e-06, Cfl = 1.000000e+02, Elapsed Time = 3.50e+01 s
It   337: Res = 6.768396e-06, Cfl = 1.000000e+02, Elapsed Time = 3.52e+01 s
It   338: Res = 6.733353e-06, Cfl = 1.000000e+02, Elapsed Time = 3.53e+01 s
It   339: Res = 6.698803e-06, Cfl = 1.000000e+02, Elapsed Time = 3.54e+01 s
It   340: Res = 6.660692e-06, Cfl = 1.000000e+02, Elapsed Time = 3.55e+01 s
It   341: Res = 6.621077e-06, Cfl = 1.000000e+02, Elapsed Time = 3.56e+01 s
It   342: Res = 6.580512e-06, Cfl = 1.000000e+02, Elapsed Time = 3.57e+01 s
It   343: Res = 6.540573e-06, Cfl = 1.000000e+02, Elapsed Time = 3.59e+01 s
It   344: Res = 6.500936e-06, Cfl = 1.000000e+02, Elapsed Time = 3.60e+01 s
It   345: Res = 6.463003e-06, Cfl = 1.000000e+02, Elapsed Time = 3.61e+01 s
It   346: Res = 6.425962e-06, Cfl = 1.000000e+02, Elapsed Time = 3.61e+01 s
It   347: Res = 6.387494e-06, Cfl = 1.000000e+02, Elapsed Time = 3.62e+01 s
It   348: Res = 6.325649e-06, Cfl = 1.000000e+02, Elapsed Time = 3.63e+01 s
It   349: Res = 6.268955e-06, Cfl = 1.000000e+02, Elapsed Time = 3.63e+01 s
It   350: Res = 6.228033e-06, Cfl = 1.000000e+02, Elapsed Time = 3.64e+01 s
It   351: Res = 6.194045e-06, Cfl = 1.000000e+02, Elapsed Time = 3.65e+01 s
It   352: Res = 6.160709e-06, Cfl = 1.000000e+02, Elapsed Time = 3.66e+01 s
It   353: Res = 6.126539e-06, Cfl = 1.000000e+02, Elapsed Time = 3.68e+01 s
It   354: Res = 6.088919e-06, Cfl = 1.000000e+02, Elapsed Time = 3.69e+01 s
It   355: Res = 6.049301e-06, Cfl = 1.000000e+02, Elapsed Time = 3.70e+01 s
It   356: Res = 6.012876e-06, Cfl = 1.000000e+02, Elapsed Time = 3.71e+01 s
It   357: Res = 5.977802e-06, Cfl = 1.000000e+02, Elapsed Time = 3.71e+01 s
It   358: Res = 5.943613e-06, Cfl = 1.000000e+02, Elapsed Time = 3.72e+01 s
It   359: Res = 5.910291e-06, Cfl = 1.000000e+02, Elapsed Time = 3.73e+01 s
It   360: Res = 5.875661e-06, Cfl = 1.000000e+02, Elapsed Time = 3.74e+01 s
It   361: Res = 5.842943e-06, Cfl = 1.000000e+02, Elapsed Time = 3.75e+01 s
It   362: Res = 5.811931e-06, Cfl = 1.000000e+02, Elapsed Time = 3.76e+01 s
It   363: Res = 5.782527e-06, Cfl = 1.000000e+02, Elapsed Time = 3.77e+01 s
It   364: Res = 5.753852e-06, Cfl = 1.000000e+02, Elapsed Time = 3.78e+01 s
It   365: Res = 5.724778e-06, Cfl = 1.000000e+02, Elapsed Time = 3.80e+01 s
It   366: Res = 5.695525e-06, Cfl = 1.000000e+02, Elapsed Time = 3.81e+01 s
It   367: Res = 5.665525e-06, Cfl = 1.000000e+02, Elapsed Time = 3.82e+01 s
It   368: Res = 5.635680e-06, Cfl = 1.000000e+02, Elapsed Time = 3.83e+01 s
It   369: Res = 5.607123e-06, Cfl = 1.000000e+02, Elapsed Time = 3.84e+01 s
It   370: Res = 5.580117e-06, Cfl = 1.000000e+02, Elapsed Time = 3.84e+01 s
It   371: Res = 5.551685e-06, Cfl = 1.000000e+02, Elapsed Time = 3.85e+01 s
It   372: Res = 5.518484e-06, Cfl = 1.000000e+02, Elapsed Time = 3.86e+01 s
It   373: Res = 5.488292e-06, Cfl = 1.000000e+02, Elapsed Time = 3.86e+01 s
It   374: Res = 5.459496e-06, Cfl = 1.000000e+02, Elapsed Time = 3.87e+01 s
It   375: Res = 5.431458e-06, Cfl = 1.000000e+02, Elapsed Time = 3.88e+01 s
It   376: Res = 5.403094e-06, Cfl = 1.000000e+02, Elapsed Time = 3.89e+01 s
It   377: Res = 5.376006e-06, Cfl = 1.000000e+02, Elapsed Time = 3.91e+01 s
It   378: Res = 5.350053e-06, Cfl = 1.000000e+02, Elapsed Time = 3.92e+01 s
It   379: Res = 5.325897e-06, Cfl = 1.000000e+02, Elapsed Time = 3.93e+01 s
It   380: Res = 5.302663e-06, Cfl = 1.000000e+02, Elapsed Time = 3.94e+01 s
It   381: Res = 5.278574e-06, Cfl = 1.000000e+02, Elapsed Time = 3.94e+01 s
It   382: Res = 5.254228e-06, Cfl = 1.000000e+02, Elapsed Time = 3.95e+01 s
It   383: Res = 5.230045e-06, Cfl = 1.000000e+02, Elapsed Time = 3.96e+01 s
It   384: Res = 5.204195e-06, Cfl = 1.000000e+02, Elapsed Time = 3.98e+01 s
It   385: Res = 5.177875e-06, Cfl = 1.000000e+02, Elapsed Time = 3.99e+01 s
It   386: Res = 5.150729e-06, Cfl = 1.000000e+02, Elapsed Time = 4.00e+01 s
It   387: Res = 5.126006e-06, Cfl = 1.000000e+02, Elapsed Time = 4.01e+01 s
It   388: Res = 5.100982e-06, Cfl = 1.000000e+02, Elapsed Time = 4.02e+01 s
It   389: Res = 5.075154e-06, Cfl = 1.000000e+02, Elapsed Time = 4.03e+01 s
It   390: Res = 5.048670e-06, Cfl = 1.000000e+02, Elapsed Time = 4.05e+01 s
It   391: Res = 5.022302e-06, Cfl = 1.000000e+02, Elapsed Time = 4.06e+01 s
It   392: Res = 4.996396e-06, Cfl = 1.000000e+02, Elapsed Time = 4.07e+01 s
It   393: Res = 4.971347e-06, Cfl = 1.000000e+02, Elapsed Time = 4.07e+01 s
It   394: Res = 4.945146e-06, Cfl = 1.000000e+02, Elapsed Time = 4.08e+01 s
It   395: Res = 4.919895e-06, Cfl = 1.000000e+02, Elapsed Time = 4.08e+01 s
It   396: Res = 4.895841e-06, Cfl = 1.000000e+02, Elapsed Time = 4.09e+01 s
It   397: Res = 4.872464e-06, Cfl = 1.000000e+02, Elapsed Time = 4.10e+01 s
It   398: Res = 4.849445e-06, Cfl = 1.000000e+02, Elapsed Time = 4.10e+01 s
It   399: Res = 4.826268e-06, Cfl = 1.000000e+02, Elapsed Time = 4.12e+01 s
It   400: Res = 4.803715e-06, Cfl = 1.000000e+02, Elapsed Time = 4.13e+01 s
It   401: Res = 4.781373e-06, Cfl = 1.000000e+02, Elapsed Time = 4.15e+01 s
It   402: Res = 4.758379e-06, Cfl = 1.000000e+02, Elapsed Time = 4.16e+01 s
It   403: Res = 4.735443e-06, Cfl = 1.000000e+02, Elapsed Time = 4.16e+01 s
It   404: Res = 4.712875e-06, Cfl = 1.000000e+02, Elapsed Time = 4.17e+01 s
It   405: Res = 4.690342e-06, Cfl = 1.000000e+02, Elapsed Time = 4.18e+01 s
It   406: Res = 4.667987e-06, Cfl = 1.000000e+02, Elapsed Time = 4.19e+01 s
It   407: Res = 4.645757e-06, Cfl = 1.000000e+02, Elapsed Time = 4.20e+01 s
It   408: Res = 4.623532e-06, Cfl = 1.000000e+02, Elapsed Time = 4.21e+01 s
It   409: Res = 4.600938e-06, Cfl = 1.000000e+02, Elapsed Time = 4.22e+01 s
It   410: Res = 4.577812e-06, Cfl = 1.000000e+02, Elapsed Time = 4.23e+01 s
It   411: Res = 4.554861e-06, Cfl = 1.000000e+02, Elapsed Time = 4.24e+01 s
It   412: Res = 4.531841e-06, Cfl = 1.000000e+02, Elapsed Time = 4.25e+01 s
It   413: Res = 4.508380e-06, Cfl = 1.000000e+02, Elapsed Time = 4.27e+01 s
It   414: Res = 4.484905e-06, Cfl = 1.000000e+02, Elapsed Time = 4.28e+01 s
It   415: Res = 4.461236e-06, Cfl = 1.000000e+02, Elapsed Time = 4.29e+01 s
It   416: Res = 4.437774e-06, Cfl = 1.000000e+02, Elapsed Time = 4.30e+01 s
It   417: Res = 4.414497e-06, Cfl = 1.000000e+02, Elapsed Time = 4.30e+01 s
It   418: Res = 4.391324e-06, Cfl = 1.000000e+02, Elapsed Time = 4.31e+01 s
It   419: Res = 4.367801e-06, Cfl = 1.000000e+02, Elapsed Time = 4.32e+01 s
It   420: Res = 4.343756e-06, Cfl = 1.000000e+02, Elapsed Time = 4.32e+01 s
It   421: Res = 4.321609e-06, Cfl = 1.000000e+02, Elapsed Time = 4.33e+01 s
It   422: Res = 4.298722e-06, Cfl = 1.000000e+02, Elapsed Time = 4.34e+01 s
It   423: Res = 4.275210e-06, Cfl = 1.000000e+02, Elapsed Time = 4.35e+01 s
It   424: Res = 4.250881e-06, Cfl = 1.000000e+02, Elapsed Time = 4.37e+01 s
It   425: Res = 4.226522e-06, Cfl = 1.000000e+02, Elapsed Time = 4.38e+01 s
It   426: Res = 4.202418e-06, Cfl = 1.000000e+02, Elapsed Time = 4.39e+01 s
It   427: Res = 4.178529e-06, Cfl = 1.000000e+02, Elapsed Time = 4.40e+01 s
It   428: Res = 4.154876e-06, Cfl = 1.000000e+02, Elapsed Time = 4.40e+01 s
It   429: Res = 4.131250e-06, Cfl = 1.000000e+02, Elapsed Time = 4.41e+01 s
It   430: Res = 4.107589e-06, Cfl = 1.000000e+02, Elapsed Time = 4.42e+01 s
It   431: Res = 4.083926e-06, Cfl = 1.000000e+02, Elapsed Time = 4.43e+01 s
It   432: Res = 4.060382e-06, Cfl = 1.000000e+02, Elapsed Time = 4.44e+01 s
It   433: Res = 4.036868e-06, Cfl = 1.000000e+02, Elapsed Time = 4.45e+01 s
It   434: Res = 4.013150e-06, Cfl = 1.000000e+02, Elapsed Time = 4.47e+01 s
It   435: Res = 3.992608e-06, Cfl = 1.000000e+02, Elapsed Time = 4.48e+01 s
It   436: Res = 3.979180e-06, Cfl = 1.000000e+02, Elapsed Time = 4.49e+01 s
It   437: Res = 3.961447e-06, Cfl = 1.000000e+02, Elapsed Time = 4.50e+01 s
It   438: Res = 3.940344e-06, Cfl = 1.000000e+02, Elapsed Time = 4.52e+01 s
It   439: Res = 3.918070e-06, Cfl = 1.000000e+02, Elapsed Time = 4.52e+01 s
It   440: Res = 3.895415e-06, Cfl = 1.000000e+02, Elapsed Time = 4.53e+01 s
It   441: Res = 3.872380e-06, Cfl = 1.000000e+02, Elapsed Time = 4.54e+01 s
It   442: Res = 3.849002e-06, Cfl = 1.000000e+02, Elapsed Time = 4.54e+01 s
It   443: Res = 3.825195e-06, Cfl = 1.000000e+02, Elapsed Time = 4.55e+01 s
It   444: Res = 3.800769e-06, Cfl = 1.000000e+02, Elapsed Time = 4.55e+01 s
It   445: Res = 3.775978e-06, Cfl = 1.000000e+02, Elapsed Time = 4.56e+01 s
It   446: Res = 3.750662e-06, Cfl = 1.000000e+02, Elapsed Time = 4.57e+01 s
It   447: Res = 3.725062e-06, Cfl = 1.000000e+02, Elapsed Time = 4.59e+01 s
It   448: Res = 3.699300e-06, Cfl = 1.000000e+02, Elapsed Time = 4.60e+01 s
It   449: Res = 3.673330e-06, Cfl = 1.000000e+02, Elapsed Time = 4.61e+01 s
It   450: Res = 3.647467e-06, Cfl = 1.000000e+02, Elapsed Time = 4.62e+01 s
It   451: Res = 3.621475e-06, Cfl = 1.000000e+02, Elapsed Time = 4.63e+01 s
It   452: Res = 3.595151e-06, Cfl = 1.000000e+02, Elapsed Time = 4.64e+01 s
It   453: Res = 3.568476e-06, Cfl = 1.000000e+02, Elapsed Time = 4.65e+01 s
It   454: Res = 3.541399e-06, Cfl = 1.000000e+02, Elapsed Time = 4.66e+01 s
It   455: Res = 3.513897e-06, Cfl = 1.000000e+02, Elapsed Time = 4.67e+01 s
It   456: Res = 3.486018e-06, Cfl = 1.000000e+02, Elapsed Time = 4.68e+01 s
It   457: Res = 3.457743e-06, Cfl = 1.000000e+02, Elapsed Time = 4.69e+01 s
It   458: Res = 3.429197e-06, Cfl = 1.000000e+02, Elapsed Time = 4.70e+01 s
It   459: Res = 3.400409e-06, Cfl = 1.000000e+02, Elapsed Time = 4.71e+01 s
It   460: Res = 3.371355e-06, Cfl = 1.000000e+02, Elapsed Time = 4.73e+01 s
It   461: Res = 3.341993e-06, Cfl = 1.000000e+02, Elapsed Time = 4.74e+01 s
It   462: Res = 3.312387e-06, Cfl = 1.000000e+02, Elapsed Time = 4.75e+01 s
It   463: Res = 3.282548e-06, Cfl = 1.000000e+02, Elapsed Time = 4.76e+01 s
It   464: Res = 3.252488e-06, Cfl = 1.000000e+02, Elapsed Time = 4.76e+01 s
It   465: Res = 3.222234e-06, Cfl = 1.000000e+02, Elapsed Time = 4.77e+01 s
It   466: Res = 3.191791e-06, Cfl = 1.000000e+02, Elapsed Time = 4.77e+01 s
It   467: Res = 3.161167e-06, Cfl = 1.000000e+02, Elapsed Time = 4.78e+01 s
It   468: Res = 3.130337e-06, Cfl = 1.000000e+02, Elapsed Time = 4.79e+01 s
It   469: Res = 3.099121e-06, Cfl = 1.000000e+02, Elapsed Time = 4.79e+01 s
It   470: Res = 3.067644e-06, Cfl = 1.000000e+02, Elapsed Time = 4.80e+01 s
It   471: Res = 3.036049e-06, Cfl = 1.000000e+02, Elapsed Time = 4.82e+01 s
It   472: Res = 3.004325e-06, Cfl = 1.000000e+02, Elapsed Time = 4.83e+01 s
It   473: Res = 2.972360e-06, Cfl = 1.000000e+02, Elapsed Time = 4.84e+01 s
It   474: Res = 2.939983e-06, Cfl = 1.000000e+02, Elapsed Time = 4.85e+01 s
It   475: Res = 2.907411e-06, Cfl = 1.000000e+02, Elapsed Time = 4.86e+01 s
It   476: Res = 2.874728e-06, Cfl = 1.000000e+02, Elapsed Time = 4.86e+01 s
It   477: Res = 2.841972e-06, Cfl = 1.000000e+02, Elapsed Time = 4.88e+01 s
It   478: Res = 2.809102e-06, Cfl = 1.000000e+02, Elapsed Time = 4.88e+01 s
It   479: Res = 2.776028e-06, Cfl = 1.000000e+02, Elapsed Time = 4.89e+01 s
It   480: Res = 2.742979e-06, Cfl = 1.000000e+02, Elapsed Time = 4.90e+01 s
It   481: Res = 2.709836e-06, Cfl = 1.000000e+02, Elapsed Time = 4.91e+01 s
It   482: Res = 2.676657e-06, Cfl = 1.000000e+02, Elapsed Time = 4.93e+01 s
It   483: Res = 2.643467e-06, Cfl = 1.000000e+02, Elapsed Time = 4.94e+01 s
It   484: Res = 2.610326e-06, Cfl = 1.000000e+02, Elapsed Time = 4.95e+01 s
It   485: Res = 2.577193e-06, Cfl = 1.000000e+02, Elapsed Time = 4.97e+01 s
It   486: Res = 2.544002e-06, Cfl = 1.000000e+02, Elapsed Time = 4.98e+01 s
It   487: Res = 2.510540e-06, Cfl = 1.000000e+02, Elapsed Time = 4.98e+01 s
It   488: Res = 2.477216e-06, Cfl = 1.000000e+02, Elapsed Time = 4.99e+01 s
It   489: Res = 2.443996e-06, Cfl = 1.000000e+02, Elapsed Time = 5.00e+01 s
It   490: Res = 2.410905e-06, Cfl = 1.000000e+02, Elapsed Time = 5.00e+01 s
It   491: Res = 2.377939e-06, Cfl = 1.000000e+02, Elapsed Time = 5.01e+01 s
It   492: Res = 2.345072e-06, Cfl = 1.000000e+02, Elapsed Time = 5.01e+01 s
It   493: Res = 2.312283e-06, Cfl = 1.000000e+02, Elapsed Time = 5.02e+01 s
It   494: Res = 2.279557e-06, Cfl = 1.000000e+02, Elapsed Time = 5.03e+01 s
It   495: Res = 2.246914e-06, Cfl = 1.000000e+02, Elapsed Time = 5.04e+01 s
It   496: Res = 2.214395e-06, Cfl = 1.000000e+02, Elapsed Time = 5.06e+01 s
It   497: Res = 2.182119e-06, Cfl = 1.000000e+02, Elapsed Time = 5.07e+01 s
It   498: Res = 2.149955e-06, Cfl = 1.000000e+02, Elapsed Time = 5.08e+01 s
It   499: Res = 2.118142e-06, Cfl = 1.000000e+02, Elapsed Time = 5.09e+01 s
It   500: Res = 2.086431e-06, Cfl = 1.000000e+02, Elapsed Time = 5.09e+01 s
It   501: Res = 2.054795e-06, Cfl = 1.000000e+02, Elapsed Time = 5.10e+01 s
It   502: Res = 2.023301e-06, Cfl = 1.000000e+02, Elapsed Time = 5.11e+01 s
It   503: Res = 1.991979e-06, Cfl = 1.000000e+02, Elapsed Time = 5.12e+01 s
It   504: Res = 1.960867e-06, Cfl = 1.000000e+02, Elapsed Time = 5.13e+01 s
It   505: Res = 1.929996e-06, Cfl = 1.000000e+02, Elapsed Time = 5.14e+01 s
It   506: Res = 1.899365e-06, Cfl = 1.000000e+02, Elapsed Time = 5.16e+01 s
It   507: Res = 1.869021e-06, Cfl = 1.000000e+02, Elapsed Time = 5.17e+01 s
It   508: Res = 1.838921e-06, Cfl = 1.000000e+02, Elapsed Time = 5.18e+01 s
It   509: Res = 1.809103e-06, Cfl = 1.000000e+02, Elapsed Time = 5.20e+01 s
It   510: Res = 1.779553e-06, Cfl = 1.000000e+02, Elapsed Time = 5.21e+01 s
It   511: Res = 1.750288e-06, Cfl = 1.000000e+02, Elapsed Time = 5.21e+01 s
It   512: Res = 1.721319e-06, Cfl = 1.000000e+02, Elapsed Time = 5.22e+01 s
It   513: Res = 1.692639e-06, Cfl = 1.000000e+02, Elapsed Time = 5.23e+01 s
It   514: Res = 1.664297e-06, Cfl = 1.000000e+02, Elapsed Time = 5.23e+01 s
It   515: Res = 1.636214e-06, Cfl = 1.000000e+02, Elapsed Time = 5.24e+01 s
It   516: Res = 1.608327e-06, Cfl = 1.000000e+02, Elapsed Time = 5.24e+01 s
It   517: Res = 1.580780e-06, Cfl = 1.000000e+02, Elapsed Time = 5.25e+01 s
It   518: Res = 1.553559e-06, Cfl = 1.000000e+02, Elapsed Time = 5.26e+01 s
It   519: Res = 1.526659e-06, Cfl = 1.000000e+02, Elapsed Time = 5.28e+01 s
It   520: Res = 1.500072e-06, Cfl = 1.000000e+02, Elapsed Time = 5.29e+01 s
It   521: Res = 1.473809e-06, Cfl = 1.000000e+02, Elapsed Time = 5.30e+01 s
It   522: Res = 1.447854e-06, Cfl = 1.000000e+02, Elapsed Time = 5.31e+01 s
It   523: Res = 1.422233e-06, Cfl = 1.000000e+02, Elapsed Time = 5.32e+01 s
It   524: Res = 1.396894e-06, Cfl = 1.000000e+02, Elapsed Time = 5.33e+01 s
It   525: Res = 1.371867e-06, Cfl = 1.000000e+02, Elapsed Time = 5.34e+01 s
It   526: Res = 1.347132e-06, Cfl = 1.000000e+02, Elapsed Time = 5.35e+01 s
It   527: Res = 1.322691e-06, Cfl = 1.000000e+02, Elapsed Time = 5.36e+01 s
It   528: Res = 1.298385e-06, Cfl = 1.000000e+02, Elapsed Time = 5.37e+01 s
It   529: Res = 1.274255e-06, Cfl = 1.000000e+02, Elapsed Time = 5.38e+01 s
It   530: Res = 1.250388e-06, Cfl = 1.000000e+02, Elapsed Time = 5.39e+01 s
It   531: Res = 1.226978e-06, Cfl = 1.000000e+02, Elapsed Time = 5.40e+01 s
It   532: Res = 1.203971e-06, Cfl = 1.000000e+02, Elapsed Time = 5.42e+01 s
It   533: Res = 1.181343e-06, Cfl = 1.000000e+02, Elapsed Time = 5.43e+01 s
It   534: Res = 1.159059e-06, Cfl = 1.000000e+02, Elapsed Time = 5.44e+01 s
It   535: Res = 1.137098e-06, Cfl = 1.000000e+02, Elapsed Time = 5.45e+01 s
It   536: Res = 1.115473e-06, Cfl = 1.000000e+02, Elapsed Time = 5.46e+01 s
It   537: Res = 1.094178e-06, Cfl = 1.000000e+02, Elapsed Time = 5.46e+01 s
It   538: Res = 1.073200e-06, Cfl = 1.000000e+02, Elapsed Time = 5.47e+01 s
It   539: Res = 1.052530e-06, Cfl = 1.000000e+02, Elapsed Time = 5.47e+01 s
It   540: Res = 1.032189e-06, Cfl = 1.000000e+02, Elapsed Time = 5.49e+01 s
It   541: Res = 1.012211e-06, Cfl = 1.000000e+02, Elapsed Time = 5.50e+01 s
It   542: Res = 9.926071e-07, Cfl = 1.000000e+02, Elapsed Time = 5.51e+01 s
It   543: Res = 9.733396e-07, Cfl = 1.000000e+02, Elapsed Time = 5.53e+01 s
It   544: Res = 9.544334e-07, Cfl = 1.000000e+02, Elapsed Time = 5.54e+01 s
It   545: Res = 9.358808e-07, Cfl = 1.000000e+02, Elapsed Time = 5.54e+01 s
It   546: Res = 9.176911e-07, Cfl = 1.000000e+02, Elapsed Time = 5.55e+01 s
It   547: Res = 8.997756e-07, Cfl = 1.000000e+02, Elapsed Time = 5.56e+01 s
It   548: Res = 8.822921e-07, Cfl = 1.000000e+02, Elapsed Time = 5.57e+01 s
It   549: Res = 8.652218e-07, Cfl = 1.000000e+02, Elapsed Time = 5.58e+01 s
It   550: Res = 8.486018e-07, Cfl = 1.000000e+02, Elapsed Time = 5.59e+01 s
It   551: Res = 8.324183e-07, Cfl = 1.000000e+02, Elapsed Time = 5.60e+01 s
It   552: Res = 8.166471e-07, Cfl = 1.000000e+02, Elapsed Time = 5.61e+01 s
It   553: Res = 8.012835e-07, Cfl = 1.000000e+02, Elapsed Time = 5.63e+01 s
It   554: Res = 7.862695e-07, Cfl = 1.000000e+02, Elapsed Time = 5.64e+01 s
It   555: Res = 7.716714e-07, Cfl = 1.000000e+02, Elapsed Time = 5.66e+01 s
It   556: Res = 7.575032e-07, Cfl = 1.000000e+02, Elapsed Time = 5.67e+01 s
It   557: Res = 7.437726e-07, Cfl = 1.000000e+02, Elapsed Time = 5.68e+01 s
It   558: Res = 7.305250e-07, Cfl = 1.000000e+02, Elapsed Time = 5.68e+01 s
It   559: Res = 7.177579e-07, Cfl = 1.000000e+02, Elapsed Time = 5.69e+01 s
It   560: Res = 7.054154e-07, Cfl = 1.000000e+02, Elapsed Time = 5.69e+01 s
It   561: Res = 6.935202e-07, Cfl = 1.000000e+02, Elapsed Time = 5.70e+01 s
It   562: Res = 6.820429e-07, Cfl = 1.000000e+02, Elapsed Time = 5.71e+01 s
It   563: Res = 6.709822e-07, Cfl = 1.000000e+02, Elapsed Time = 5.72e+01 s
It   564: Res = 6.603448e-07, Cfl = 1.000000e+02, Elapsed Time = 5.73e+01 s
It   565: Res = 6.501451e-07, Cfl = 1.000000e+02, Elapsed Time = 5.74e+01 s
It   566: Res = 6.403665e-07, Cfl = 1.000000e+02, Elapsed Time = 5.76e+01 s
It   567: Res = 6.310282e-07, Cfl = 1.000000e+02, Elapsed Time = 5.77e+01 s
It   568: Res = 6.221141e-07, Cfl = 1.000000e+02, Elapsed Time = 5.78e+01 s
It   569: Res = 6.135986e-07, Cfl = 1.000000e+02, Elapsed Time = 5.78e+01 s
It   570: Res = 6.055014e-07, Cfl = 1.000000e+02, Elapsed Time = 5.79e+01 s
It   571: Res = 5.978272e-07, Cfl = 1.000000e+02, Elapsed Time = 5.80e+01 s
It   572: Res = 5.905583e-07, Cfl = 1.000000e+02, Elapsed Time = 5.81e+01 s
It   573: Res = 5.836774e-07, Cfl = 1.000000e+02, Elapsed Time = 5.82e+01 s
It   574: Res = 5.771893e-07, Cfl = 1.000000e+02, Elapsed Time = 5.82e+01 s
It   575: Res = 5.711069e-07, Cfl = 1.000000e+02, Elapsed Time = 5.83e+01 s
It   576: Res = 5.653534e-07, Cfl = 1.000000e+02, Elapsed Time = 5.85e+01 s
It   577: Res = 5.599263e-07, Cfl = 1.000000e+02, Elapsed Time = 5.86e+01 s
It   578: Res = 5.548280e-07, Cfl = 1.000000e+02, Elapsed Time = 5.87e+01 s
It   579: Res = 5.500338e-07, Cfl = 1.000000e+02, Elapsed Time = 5.89e+01 s
It   580: Res = 5.454912e-07, Cfl = 1.000000e+02, Elapsed Time = 5.89e+01 s
It   581: Res = 5.412352e-07, Cfl = 1.000000e+02, Elapsed Time = 5.90e+01 s
It   582: Res = 5.372756e-07, Cfl = 1.000000e+02, Elapsed Time = 5.91e+01 s
It   583: Res = 5.336366e-07, Cfl = 1.000000e+02, Elapsed Time = 5.91e+01 s
It   584: Res = 5.302811e-07, Cfl = 1.000000e+02, Elapsed Time = 5.92e+01 s
It   585: Res = 5.271742e-07, Cfl = 1.000000e+02, Elapsed Time = 5.92e+01 s
It   586: Res = 5.242681e-07, Cfl = 1.000000e+02, Elapsed Time = 5.93e+01 s
It   587: Res = 5.215832e-07, Cfl = 1.000000e+02, Elapsed Time = 5.93e+01 s
It   588: Res = 5.191526e-07, Cfl = 1.000000e+02, Elapsed Time = 5.94e+01 s
It   589: Res = 5.169206e-07, Cfl = 1.000000e+02, Elapsed Time = 5.95e+01 s
It   590: Res = 5.148439e-07, Cfl = 1.000000e+02, Elapsed Time = 5.97e+01 s
It   591: Res = 5.129414e-07, Cfl = 1.000000e+02, Elapsed Time = 5.98e+01 s
It   592: Res = 5.112165e-07, Cfl = 1.000000e+02, Elapsed Time = 5.99e+01 s
It   593: Res = 5.096645e-07, Cfl = 1.000000e+02, Elapsed Time = 6.00e+01 s
It   594: Res = 5.081824e-07, Cfl = 1.000000e+02, Elapsed Time = 6.01e+01 s
It   595: Res = 5.068722e-07, Cfl = 1.000000e+02, Elapsed Time = 6.01e+01 s
It   596: Res = 5.057118e-07, Cfl = 1.000000e+02, Elapsed Time = 6.02e+01 s
It   597: Res = 5.047376e-07, Cfl = 1.000000e+02, Elapsed Time = 6.03e+01 s
It   598: Res = 5.038646e-07, Cfl = 1.000000e+02, Elapsed Time = 6.04e+01 s
It   599: Res = 5.030684e-07, Cfl = 1.000000e+02, Elapsed Time = 6.05e+01 s
It   600: Res = 5.022377e-07, Cfl = 1.000000e+02, Elapsed Time = 6.06e+01 s
It   601: Res = 5.015367e-07, Cfl = 1.000000e+02, Elapsed Time = 6.07e+01 s
It   602: Res = 5.009738e-07, Cfl = 1.000000e+02, Elapsed Time = 6.08e+01 s
It   603: Res = 5.005572e-07, Cfl = 1.000000e+02, Elapsed Time = 6.09e+01 s
It   604: Res = 5.002374e-07, Cfl = 1.000000e+02, Elapsed Time = 6.10e+01 s
It   605: Res = 5.000169e-07, Cfl = 1.000000e+02, Elapsed Time = 6.12e+01 s
It   606: Res = 4.997546e-07, Cfl = 1.000000e+02, Elapsed Time = 6.13e+01 s
It   607: Res = 4.994242e-07, Cfl = 1.000000e+02, Elapsed Time = 6.13e+01 s
It   608: Res = 4.990383e-07, Cfl = 1.000000e+02, Elapsed Time = 6.14e+01 s
It   609: Res = 4.987315e-07, Cfl = 1.000000e+02, Elapsed Time = 6.15e+01 s
It   610: Res = 4.984783e-07, Cfl = 1.000000e+02, Elapsed Time = 6.15e+01 s
It   611: Res = 4.982572e-07, Cfl = 1.000000e+02, Elapsed Time = 6.16e+01 s
It   612: Res = 4.979451e-07, Cfl = 1.000000e+02, Elapsed Time = 6.16e+01 s
It   613: Res = 4.977156e-07, Cfl = 1.000000e+02, Elapsed Time = 6.17e+01 s
It   614: Res = 4.974727e-07, Cfl = 1.000000e+02, Elapsed Time = 6.18e+01 s
It   615: Res = 4.972103e-07, Cfl = 1.000000e+02, Elapsed Time = 6.19e+01 s
It   616: Res = 4.969419e-07, Cfl = 1.000000e+02, Elapsed Time = 6.20e+01 s
It   617: Res = 4.966336e-07, Cfl = 1.000000e+02, Elapsed Time = 6.22e+01 s
It   618: Res = 4.963392e-07, Cfl = 1.000000e+02, Elapsed Time = 6.23e+01 s
It   619: Res = 4.960271e-07, Cfl = 1.000000e+02, Elapsed Time = 6.24e+01 s
It   620: Res = 4.957000e-07, Cfl = 1.000000e+02, Elapsed Time = 6.24e+01 s
It   621: Res = 4.953554e-07, Cfl = 1.000000e+02, Elapsed Time = 6.25e+01 s
It   622: Res = 4.949571e-07, Cfl = 1.000000e+02, Elapsed Time = 6.26e+01 s
It   623: Res = 4.944995e-07, Cfl = 1.000000e+02, Elapsed Time = 6.27e+01 s
It   624: Res = 4.939921e-07, Cfl = 1.000000e+02, Elapsed Time = 6.28e+01 s
It   625: Res = 4.934219e-07, Cfl = 1.000000e+02, Elapsed Time = 6.29e+01 s
It   626: Res = 4.928174e-07, Cfl = 1.000000e+02, Elapsed Time = 6.30e+01 s
It   627: Res = 4.921673e-07, Cfl = 1.000000e+02, Elapsed Time = 6.32e+01 s
It   628: Res = 4.914857e-07, Cfl = 1.000000e+02, Elapsed Time = 6.33e+01 s
It   629: Res = 4.907627e-07, Cfl = 1.000000e+02, Elapsed Time = 6.34e+01 s
It   630: Res = 4.900008e-07, Cfl = 1.000000e+02, Elapsed Time = 6.35e+01 s
It   631: Res = 4.891970e-07, Cfl = 1.000000e+02, Elapsed Time = 6.36e+01 s
It   632: Res = 4.883515e-07, Cfl = 1.000000e+02, Elapsed Time = 6.37e+01 s
It   633: Res = 4.874575e-07, Cfl = 1.000000e+02, Elapsed Time = 6.38e+01 s
It   634: Res = 4.865103e-07, Cfl = 1.000000e+02, Elapsed Time = 6.38e+01 s
It   635: Res = 4.855208e-07, Cfl = 1.000000e+02, Elapsed Time = 6.39e+01 s
It   636: Res = 4.844911e-07, Cfl = 1.000000e+02, Elapsed Time = 6.40e+01 s
It   637: Res = 4.834229e-07, Cfl = 1.000000e+02, Elapsed Time = 6.40e+01 s
It   638: Res = 4.823184e-07, Cfl = 1.000000e+02, Elapsed Time = 6.42e+01 s
It   639: Res = 4.812425e-07, Cfl = 1.000000e+02, Elapsed Time = 6.43e+01 s
It   640: Res = 4.801179e-07, Cfl = 1.000000e+02, Elapsed Time = 6.44e+01 s
It   641: Res = 4.789194e-07, Cfl = 1.000000e+02, Elapsed Time = 6.45e+01 s
It   642: Res = 4.776649e-07, Cfl = 1.000000e+02, Elapsed Time = 6.46e+01 s
It   643: Res = 4.763670e-07, Cfl = 1.000000e+02, Elapsed Time = 6.47e+01 s
It   644: Res = 4.750246e-07, Cfl = 1.000000e+02, Elapsed Time = 6.48e+01 s
It   645: Res = 4.736541e-07, Cfl = 1.000000e+02, Elapsed Time = 6.49e+01 s
It   646: Res = 4.722359e-07, Cfl = 1.000000e+02, Elapsed Time = 6.50e+01 s
It   647: Res = 4.707989e-07, Cfl = 1.000000e+02, Elapsed Time = 6.51e+01 s
It   648: Res = 4.693541e-07, Cfl = 1.000000e+02, Elapsed Time = 6.52e+01 s
It   649: Res = 4.679024e-07, Cfl = 1.000000e+02, Elapsed Time = 6.53e+01 s
It   650: Res = 4.664420e-07, Cfl = 1.000000e+02, Elapsed Time = 6.54e+01 s
It   651: Res = 4.649654e-07, Cfl = 1.000000e+02, Elapsed Time = 6.56e+01 s
It   652: Res = 4.634687e-07, Cfl = 1.000000e+02, Elapsed Time = 6.57e+01 s
It   653: Res = 4.619622e-07, Cfl = 1.000000e+02, Elapsed Time = 6.58e+01 s
It   654: Res = 4.604441e-07, Cfl = 1.000000e+02, Elapsed Time = 6.59e+01 s
It   655: Res = 4.589064e-07, Cfl = 1.000000e+02, Elapsed Time = 6.60e+01 s
It   656: Res = 4.574132e-07, Cfl = 1.000000e+02, Elapsed Time = 6.60e+01 s
It   657: Res = 4.558988e-07, Cfl = 1.000000e+02, Elapsed Time = 6.61e+01 s
It   658: Res = 4.543678e-07, Cfl = 1.000000e+02, Elapsed Time = 6.62e+01 s
It   659: Res = 4.528904e-07, Cfl = 1.000000e+02, Elapsed Time = 6.62e+01 s
It   660: Res = 4.515038e-07, Cfl = 1.000000e+02, Elapsed Time = 6.63e+01 s
It   661: Res = 4.500888e-07, Cfl = 1.000000e+02, Elapsed Time = 6.64e+01 s
It   662: Res = 4.486151e-07, Cfl = 1.000000e+02, Elapsed Time = 6.65e+01 s
It   663: Res = 4.471016e-07, Cfl = 1.000000e+02, Elapsed Time = 6.67e+01 s
It   664: Res = 4.455634e-07, Cfl = 1.000000e+02, Elapsed Time = 6.68e+01 s
It   665: Res = 4.440100e-07, Cfl = 1.000000e+02, Elapsed Time = 6.69e+01 s
It   666: Res = 4.424475e-07, Cfl = 1.000000e+02, Elapsed Time = 6.70e+01 s
It   667: Res = 4.408884e-07, Cfl = 1.000000e+02, Elapsed Time = 6.70e+01 s
It   668: Res = 4.393348e-07, Cfl = 1.000000e+02, Elapsed Time = 6.71e+01 s
It   669: Res = 4.377999e-07, Cfl = 1.000000e+02, Elapsed Time = 6.72e+01 s
It   670: Res = 4.362085e-07, Cfl = 1.000000e+02, Elapsed Time = 6.73e+01 s
It   671: Res = 4.346165e-07, Cfl = 1.000000e+02, Elapsed Time = 6.74e+01 s
It   672: Res = 4.330616e-07, Cfl = 1.000000e+02, Elapsed Time = 6.75e+01 s
It   673: Res = 4.315269e-07, Cfl = 1.000000e+02, Elapsed Time = 6.76e+01 s
It   674: Res = 4.299884e-07, Cfl = 1.000000e+02, Elapsed Time = 6.78e+01 s
It   675: Res = 4.284287e-07, Cfl = 1.000000e+02, Elapsed Time = 6.79e+01 s
It   676: Res = 4.268626e-07, Cfl = 1.000000e+02, Elapsed Time = 6.80e+01 s
It   677: Res = 4.253470e-07, Cfl = 1.000000e+02, Elapsed Time = 6.81e+01 s
It   678: Res = 4.239093e-07, Cfl = 1.000000e+02, Elapsed Time = 6.82e+01 s
It   679: Res = 4.224469e-07, Cfl = 1.000000e+02, Elapsed Time = 6.83e+01 s
It   680: Res = 4.209538e-07, Cfl = 1.000000e+02, Elapsed Time = 6.83e+01 s
It   681: Res = 4.195325e-07, Cfl = 1.000000e+02, Elapsed Time = 6.84e+01 s
It   682: Res = 4.181099e-07, Cfl = 1.000000e+02, Elapsed Time = 6.85e+01 s
It   683: Res = 4.166678e-07, Cfl = 1.000000e+02, Elapsed Time = 6.85e+01 s
It   684: Res = 4.152274e-07, Cfl = 1.000000e+02, Elapsed Time = 6.86e+01 s
It   685: Res = 4.137449e-07, Cfl = 1.000000e+02, Elapsed Time = 6.87e+01 s
It   686: Res = 4.122769e-07, Cfl = 1.000000e+02, Elapsed Time = 6.88e+01 s
It   687: Res = 4.108236e-07, Cfl = 1.000000e+02, Elapsed Time = 6.89e+01 s
It   688: Res = 4.094156e-07, Cfl = 1.000000e+02, Elapsed Time = 6.91e+01 s
It   689: Res = 4.079709e-07, Cfl = 1.000000e+02, Elapsed Time = 6.92e+01 s
It   690: Res = 4.065008e-07, Cfl = 1.000000e+02, Elapsed Time = 6.92e+01 s
It   691: Res = 4.052027e-07, Cfl = 1.000000e+02, Elapsed Time = 6.93e+01 s
It   692: Res = 4.038670e-07, Cfl = 1.000000e+02, Elapsed Time = 6.94e+01 s
It   693: Res = 4.025120e-07, Cfl = 1.000000e+02, Elapsed Time = 6.95e+01 s
It   694: Res = 4.011589e-07, Cfl = 1.000000e+02, Elapsed Time = 6.96e+01 s
It   695: Res = 3.997149e-07, Cfl = 1.000000e+02, Elapsed Time = 6.97e+01 s
It   696: Res = 3.982769e-07, Cfl = 1.000000e+02, Elapsed Time = 6.97e+01 s
It   697: Res = 3.968899e-07, Cfl = 1.000000e+02, Elapsed Time = 6.99e+01 s
It   698: Res = 3.955248e-07, Cfl = 1.000000e+02, Elapsed Time = 7.00e+01 s
It   699: Res = 3.942013e-07, Cfl = 1.000000e+02, Elapsed Time = 7.01e+01 s
It   700: Res = 3.928930e-07, Cfl = 1.000000e+02, Elapsed Time = 7.03e+01 s
It   701: Res = 3.915893e-07, Cfl = 1.000000e+02, Elapsed Time = 7.04e+01 s
It   702: Res = 3.902830e-07, Cfl = 1.000000e+02, Elapsed Time = 7.05e+01 s
It   703: Res = 3.889791e-07, Cfl = 1.000000e+02, Elapsed Time = 7.06e+01 s
It   704: Res = 3.876735e-07, Cfl = 1.000000e+02, Elapsed Time = 7.06e+01 s
It   705: Res = 3.863778e-07, Cfl = 1.000000e+02, Elapsed Time = 7.07e+01 s
It   706: Res = 3.851644e-07, Cfl = 1.000000e+02, Elapsed Time = 7.07e+01 s
It   707: Res = 3.839749e-07, Cfl = 1.000000e+02, Elapsed Time = 7.08e+01 s
It   708: Res = 3.827718e-07, Cfl = 1.000000e+02, Elapsed Time = 7.09e+01 s
It   709: Res = 3.815567e-07, Cfl = 1.000000e+02, Elapsed Time = 7.10e+01 s
It   710: Res = 3.803339e-07, Cfl = 1.000000e+02, Elapsed Time = 7.11e+01 s
It   711: Res = 3.791044e-07, Cfl = 1.000000e+02, Elapsed Time = 7.12e+01 s
It   712: Res = 3.778655e-07, Cfl = 1.000000e+02, Elapsed Time = 7.13e+01 s
It   713: Res = 3.766160e-07, Cfl = 1.000000e+02, Elapsed Time = 7.14e+01 s
It   714: Res = 3.753687e-07, Cfl = 1.000000e+02, Elapsed Time = 7.15e+01 s
It   715: Res = 3.741300e-07, Cfl = 1.000000e+02, Elapsed Time = 7.16e+01 s
It   716: Res = 3.728963e-07, Cfl = 1.000000e+02, Elapsed Time = 7.16e+01 s
It   717: Res = 3.716648e-07, Cfl = 1.000000e+02, Elapsed Time = 7.17e+01 s
It   718: Res = 3.704449e-07, Cfl = 1.000000e+02, Elapsed Time = 7.18e+01 s
It   719: Res = 3.692284e-07, Cfl = 1.000000e+02, Elapsed Time = 7.19e+01 s
It   720: Res = 3.680186e-07, Cfl = 1.000000e+02, Elapsed Time = 7.20e+01 s
It   721: Res = 3.668100e-07, Cfl = 1.000000e+02, Elapsed Time = 7.21e+01 s
It   722: Res = 3.655981e-07, Cfl = 1.000000e+02, Elapsed Time = 7.22e+01 s
It   723: Res = 3.643780e-07, Cfl = 1.000000e+02, Elapsed Time = 7.23e+01 s
It   724: Res = 3.631572e-07, Cfl = 1.000000e+02, Elapsed Time = 7.24e+01 s
It   725: Res = 3.619429e-07, Cfl = 1.000000e+02, Elapsed Time = 7.26e+01 s
It   726: Res = 3.606515e-07, Cfl = 1.000000e+02, Elapsed Time = 7.27e+01 s
It   727: Res = 3.595235e-07, Cfl = 1.000000e+02, Elapsed Time = 7.28e+01 s
It   728: Res = 3.585073e-07, Cfl = 1.000000e+02, Elapsed Time = 7.29e+01 s
It   729: Res = 3.574273e-07, Cfl = 1.000000e+02, Elapsed Time = 7.29e+01 s
It   730: Res = 3.562711e-07, Cfl = 1.000000e+02, Elapsed Time = 7.30e+01 s
It   731: Res = 3.550787e-07, Cfl = 1.000000e+02, Elapsed Time = 7.30e+01 s
It   732: Res = 3.538813e-07, Cfl = 1.000000e+02, Elapsed Time = 7.31e+01 s
It   733: Res = 3.529142e-07, Cfl = 1.000000e+02, Elapsed Time = 7.32e+01 s
It   734: Res = 3.520949e-07, Cfl = 1.000000e+02, Elapsed Time = 7.33e+01 s
It   735: Res = 3.510006e-07, Cfl = 1.000000e+02, Elapsed Time = 7.34e+01 s
It   736: Res = 3.497502e-07, Cfl = 1.000000e+02, Elapsed Time = 7.35e+01 s
It   737: Res = 3.485158e-07, Cfl = 1.000000e+02, Elapsed Time = 7.36e+01 s
It   738: Res = 3.472971e-07, Cfl = 1.000000e+02, Elapsed Time = 7.37e+01 s
It   739: Res = 3.460783e-07, Cfl = 1.000000e+02, Elapsed Time = 7.38e+01 s
It   740: Res = 3.449185e-07, Cfl = 1.000000e+02, Elapsed Time = 7.39e+01 s
It   741: Res = 3.437600e-07, Cfl = 1.000000e+02, Elapsed Time = 7.40e+01 s
It   742: Res = 3.425798e-07, Cfl = 1.000000e+02, Elapsed Time = 7.41e+01 s
It   743: Res = 3.413852e-07, Cfl = 1.000000e+02, Elapsed Time = 7.42e+01 s
It   744: Res = 3.401812e-07, Cfl = 1.000000e+02, Elapsed Time = 7.42e+01 s
It   745: Res = 3.389710e-07, Cfl = 1.000000e+02, Elapsed Time = 7.43e+01 s
It   746: Res = 3.377639e-07, Cfl = 1.000000e+02, Elapsed Time = 7.44e+01 s
It   747: Res = 3.365577e-07, Cfl = 1.000000e+02, Elapsed Time = 7.45e+01 s
It   748: Res = 3.353055e-07, Cfl = 1.000000e+02, Elapsed Time = 7.46e+01 s
It   749: Res = 3.340707e-07, Cfl = 1.000000e+02, Elapsed Time = 7.48e+01 s
It   750: Res = 3.329343e-07, Cfl = 1.000000e+02, Elapsed Time = 7.49e+01 s
It   751: Res = 3.319728e-07, Cfl = 1.000000e+02, Elapsed Time = 7.50e+01 s
It   752: Res = 3.309513e-07, Cfl = 1.000000e+02, Elapsed Time = 7.51e+01 s
It   753: Res = 3.298592e-07, Cfl = 1.000000e+02, Elapsed Time = 7.52e+01 s
It   754: Res = 3.287408e-07, Cfl = 1.000000e+02, Elapsed Time = 7.52e+01 s
It   755: Res = 3.276204e-07, Cfl = 1.000000e+02, Elapsed Time = 7.53e+01 s
It   756: Res = 3.264901e-07, Cfl = 1.000000e+02, Elapsed Time = 7.53e+01 s
It   757: Res = 3.253961e-07, Cfl = 1.000000e+02, Elapsed Time = 7.54e+01 s
It   758: Res = 3.243145e-07, Cfl = 1.000000e+02, Elapsed Time = 7.55e+01 s
It   759: Res = 3.232065e-07, Cfl = 1.000000e+02, Elapsed Time = 7.56e+01 s
It   760: Res = 3.220907e-07, Cfl = 1.000000e+02, Elapsed Time = 7.57e+01 s
It   761: Res = 3.209781e-07, Cfl = 1.000000e+02, Elapsed Time = 7.58e+01 s
It   762: Res = 3.198656e-07, Cfl = 1.000000e+02, Elapsed Time = 7.59e+01 s
It   763: Res = 3.187509e-07, Cfl = 1.000000e+02, Elapsed Time = 7.61e+01 s
It   764: Res = 3.176358e-07, Cfl = 1.000000e+02, Elapsed Time = 7.61e+01 s
It   765: Res = 3.165224e-07, Cfl = 1.000000e+02, Elapsed Time = 7.62e+01 s
It   766: Res = 3.154121e-07, Cfl = 1.000000e+02, Elapsed Time = 7.63e+01 s
It   767: Res = 3.142944e-07, Cfl = 1.000000e+02, Elapsed Time = 7.64e+01 s
It   768: Res = 3.130950e-07, Cfl = 1.000000e+02, Elapsed Time = 7.65e+01 s
It   769: Res = 3.119848e-07, Cfl = 1.000000e+02, Elapsed Time = 7.66e+01 s
It   770: Res = 3.108970e-07, Cfl = 1.000000e+02, Elapsed Time = 7.66e+01 s
It   771: Res = 3.098188e-07, Cfl = 1.000000e+02, Elapsed Time = 7.67e+01 s
It   772: Res = 3.087527e-07, Cfl = 1.000000e+02, Elapsed Time = 7.68e+01 s
It   773: Res = 3.078117e-07, Cfl = 1.000000e+02, Elapsed Time = 7.70e+01 s
It   774: Res = 3.068533e-07, Cfl = 1.000000e+02, Elapsed Time = 7.71e+01 s
It   775: Res = 3.058147e-07, Cfl = 1.000000e+02, Elapsed Time = 7.73e+01 s
It   776: Res = 3.047655e-07, Cfl = 1.000000e+02, Elapsed Time = 7.74e+01 s
It   777: Res = 3.037186e-07, Cfl = 1.000000e+02, Elapsed Time = 7.75e+01 s
It   778: Res = 3.026949e-07, Cfl = 1.000000e+02, Elapsed Time = 7.75e+01 s
It   779: Res = 3.016657e-07, Cfl = 1.000000e+02, Elapsed Time = 7.76e+01 s
It   780: Res = 3.006358e-07, Cfl = 1.000000e+02, Elapsed Time = 7.76e+01 s
It   781: Res = 2.996111e-07, Cfl = 1.000000e+02, Elapsed Time = 7.77e+01 s
It   782: Res = 2.985815e-07, Cfl = 1.000000e+02, Elapsed Time = 7.78e+01 s
It   783: Res = 2.975485e-07, Cfl = 1.000000e+02, Elapsed Time = 7.79e+01 s
It   784: Res = 2.965469e-07, Cfl = 1.000000e+02, Elapsed Time = 7.80e+01 s
It   785: Res = 2.958282e-07, Cfl = 1.000000e+02, Elapsed Time = 7.80e+01 s
It   786: Res = 2.950515e-07, Cfl = 1.000000e+02, Elapsed Time = 7.81e+01 s
It   787: Res = 2.940987e-07, Cfl = 1.000000e+02, Elapsed Time = 7.83e+01 s
It   788: Res = 2.929773e-07, Cfl = 1.000000e+02, Elapsed Time = 7.84e+01 s
It   789: Res = 2.918018e-07, Cfl = 1.000000e+02, Elapsed Time = 7.85e+01 s
It   790: Res = 2.906381e-07, Cfl = 1.000000e+02, Elapsed Time = 7.85e+01 s
It   791: Res = 2.895152e-07, Cfl = 1.000000e+02, Elapsed Time = 7.86e+01 s
It   792: Res = 2.884361e-07, Cfl = 1.000000e+02, Elapsed Time = 7.87e+01 s
It   793: Res = 2.873848e-07, Cfl = 1.000000e+02, Elapsed Time = 7.88e+01 s
It   794: Res = 2.863497e-07, Cfl = 1.000000e+02, Elapsed Time = 7.89e+01 s
It   795: Res = 2.853179e-07, Cfl = 1.000000e+02, Elapsed Time = 7.89e+01 s
It   796: Res = 2.842838e-07, Cfl = 1.000000e+02, Elapsed Time = 7.90e+01 s
It   797: Res = 2.832581e-07, Cfl = 1.000000e+02, Elapsed Time = 7.91e+01 s
It   798: Res = 2.822618e-07, Cfl = 1.000000e+02, Elapsed Time = 7.92e+01 s
It   799: Res = 2.812592e-07, Cfl = 1.000000e+02, Elapsed Time = 7.94e+01 s
It   800: Res = 2.802606e-07, Cfl = 1.000000e+02, Elapsed Time = 7.95e+01 s
It   801: Res = 2.792702e-07, Cfl = 1.000000e+02, Elapsed Time = 7.96e+01 s
It   802: Res = 2.782791e-07, Cfl = 1.000000e+02, Elapsed Time = 7.97e+01 s
It   803: Res = 2.772933e-07, Cfl = 1.000000e+02, Elapsed Time = 7.98e+01 s
It   804: Res = 2.763219e-07, Cfl = 1.000000e+02, Elapsed Time = 7.98e+01 s
It   805: Res = 2.753577e-07, Cfl = 1.000000e+02, Elapsed Time = 7.99e+01 s
It   806: Res = 2.743954e-07, Cfl = 1.000000e+02, Elapsed Time = 8.00e+01 s
It   807: Res = 2.735018e-07, Cfl = 1.000000e+02, Elapsed Time = 8.00e+01 s
It   808: Res = 2.727059e-07, Cfl = 1.000000e+02, Elapsed Time = 8.01e+01 s
It   809: Res = 2.718785e-07, Cfl = 1.000000e+02, Elapsed Time = 8.02e+01 s
It   810: Res = 2.710316e-07, Cfl = 1.000000e+02, Elapsed Time = 8.03e+01 s
It   811: Res = 2.702100e-07, Cfl = 1.000000e+02, Elapsed Time = 8.04e+01 s
It   812: Res = 2.692842e-07, Cfl = 1.000000e+02, Elapsed Time = 8.05e+01 s
It   813: Res = 2.683152e-07, Cfl = 1.000000e+02, Elapsed Time = 8.06e+01 s
It   814: Res = 2.673792e-07, Cfl = 1.000000e+02, Elapsed Time = 8.07e+01 s
It   815: Res = 2.664241e-07, Cfl = 1.000000e+02, Elapsed Time = 8.08e+01 s
It   816: Res = 2.654510e-07, Cfl = 1.000000e+02, Elapsed Time = 8.09e+01 s
It   817: Res = 2.644810e-07, Cfl = 1.000000e+02, Elapsed Time = 8.10e+01 s
It   818: Res = 2.635236e-07, Cfl = 1.000000e+02, Elapsed Time = 8.11e+01 s
It   819: Res = 2.626055e-07, Cfl = 1.000000e+02, Elapsed Time = 8.12e+01 s
It   820: Res = 2.617216e-07, Cfl = 1.000000e+02, Elapsed Time = 8.12e+01 s
It   821: Res = 2.608510e-07, Cfl = 1.000000e+02, Elapsed Time = 8.13e+01 s
It   822: Res = 2.599822e-07, Cfl = 1.000000e+02, Elapsed Time = 8.14e+01 s
It   823: Res = 2.591148e-07, Cfl = 1.000000e+02, Elapsed Time = 8.15e+01 s
It   824: Res = 2.582426e-07, Cfl = 1.000000e+02, Elapsed Time = 8.17e+01 s
It   825: Res = 2.573641e-07, Cfl = 1.000000e+02, Elapsed Time = 8.18e+01 s
It   826: Res = 2.564883e-07, Cfl = 1.000000e+02, Elapsed Time = 8.19e+01 s
It   827: Res = 2.556178e-07, Cfl = 1.000000e+02, Elapsed Time = 8.20e+01 s
It   828: Res = 2.547481e-07, Cfl = 1.000000e+02, Elapsed Time = 8.21e+01 s
It   829: Res = 2.538843e-07, Cfl = 1.000000e+02, Elapsed Time = 8.22e+01 s
It   830: Res = 2.530306e-07, Cfl = 1.000000e+02, Elapsed Time = 8.22e+01 s
It   831: Res = 2.521833e-07, Cfl = 1.000000e+02, Elapsed Time = 8.23e+01 s
It   832: Res = 2.513277e-07, Cfl = 1.000000e+02, Elapsed Time = 8.23e+01 s
It   833: Res = 2.504704e-07, Cfl = 1.000000e+02, Elapsed Time = 8.24e+01 s
It   834: Res = 2.496120e-07, Cfl = 1.000000e+02, Elapsed Time = 8.25e+01 s
It   835: Res = 2.487404e-07, Cfl = 1.000000e+02, Elapsed Time = 8.26e+01 s
It   836: Res = 2.478543e-07, Cfl = 1.000000e+02, Elapsed Time = 8.27e+01 s
It   837: Res = 2.469601e-07, Cfl = 1.000000e+02, Elapsed Time = 8.29e+01 s
It   838: Res = 2.460593e-07, Cfl = 1.000000e+02, Elapsed Time = 8.30e+01 s
It   839: Res = 2.451557e-07, Cfl = 1.000000e+02, Elapsed Time = 8.31e+01 s
It   840: Res = 2.442567e-07, Cfl = 1.000000e+02, Elapsed Time = 8.32e+01 s
It   841: Res = 2.433532e-07, Cfl = 1.000000e+02, Elapsed Time = 8.32e+01 s
It   842: Res = 2.424463e-07, Cfl = 1.000000e+02, Elapsed Time = 8.33e+01 s
It   843: Res = 2.415385e-07, Cfl = 1.000000e+02, Elapsed Time = 8.34e+01 s
It   844: Res = 2.406254e-07, Cfl = 1.000000e+02, Elapsed Time = 8.35e+01 s
It   845: Res = 2.396958e-07, Cfl = 1.000000e+02, Elapsed Time = 8.36e+01 s
It   846: Res = 2.387545e-07, Cfl = 1.000000e+02, Elapsed Time = 8.37e+01 s
It   847: Res = 2.378042e-07, Cfl = 1.000000e+02, Elapsed Time = 8.38e+01 s
It   848: Res = 2.368575e-07, Cfl = 1.000000e+02, Elapsed Time = 8.39e+01 s
It   849: Res = 2.359086e-07, Cfl = 1.000000e+02, Elapsed Time = 8.41e+01 s
It   850: Res = 2.349533e-07, Cfl = 1.000000e+02, Elapsed Time = 8.42e+01 s
It   851: Res = 2.339983e-07, Cfl = 1.000000e+02, Elapsed Time = 8.43e+01 s
It   852: Res = 2.331043e-07, Cfl = 1.000000e+02, Elapsed Time = 8.44e+01 s
It   853: Res = 2.322914e-07, Cfl = 1.000000e+02, Elapsed Time = 8.44e+01 s
It   854: Res = 2.314382e-07, Cfl = 1.000000e+02, Elapsed Time = 8.45e+01 s
It   855: Res = 2.305447e-07, Cfl = 1.000000e+02, Elapsed Time = 8.46e+01 s
It   856: Res = 2.296203e-07, Cfl = 1.000000e+02, Elapsed Time = 8.46e+01 s
It   857: Res = 2.286765e-07, Cfl = 1.000000e+02, Elapsed Time = 8.47e+01 s
It   858: Res = 2.277119e-07, Cfl = 1.000000e+02, Elapsed Time = 8.48e+01 s
It   859: Res = 2.267260e-07, Cfl = 1.000000e+02, Elapsed Time = 8.49e+01 s
It   860: Res = 2.257275e-07, Cfl = 1.000000e+02, Elapsed Time = 8.50e+01 s
It   861: Res = 2.247146e-07, Cfl = 1.000000e+02, Elapsed Time = 8.51e+01 s
It   862: Res = 2.236843e-07, Cfl = 1.000000e+02, Elapsed Time = 8.52e+01 s
It   863: Res = 2.226436e-07, Cfl = 1.000000e+02, Elapsed Time = 8.54e+01 s
It   864: Res = 2.216004e-07, Cfl = 1.000000e+02, Elapsed Time = 8.54e+01 s
It   865: Res = 2.205399e-07, Cfl = 1.000000e+02, Elapsed Time = 8.55e+01 s
It   866: Res = 2.194825e-07, Cfl = 1.000000e+02, Elapsed Time = 8.56e+01 s
It   867: Res = 2.184277e-07, Cfl = 1.000000e+02, Elapsed Time = 8.57e+01 s
It   868: Res = 2.173745e-07, Cfl = 1.000000e+02, Elapsed Time = 8.58e+01 s
It   869: Res = 2.163232e-07, Cfl = 1.000000e+02, Elapsed Time = 8.58e+01 s
It   870: Res = 2.152676e-07, Cfl = 1.000000e+02, Elapsed Time = 8.60e+01 s
It   871: Res = 2.141966e-07, Cfl = 1.000000e+02, Elapsed Time = 8.61e+01 s
It   872: Res = 2.131168e-07, Cfl = 1.000000e+02, Elapsed Time = 8.62e+01 s
It   873: Res = 2.119842e-07, Cfl = 1.000000e+02, Elapsed Time = 8.64e+01 s
It   874: Res = 2.108894e-07, Cfl = 1.000000e+02, Elapsed Time = 8.65e+01 s
It   875: Res = 2.097685e-07, Cfl = 1.000000e+02, Elapsed Time = 8.66e+01 s
It   876: Res = 2.086339e-07, Cfl = 1.000000e+02, Elapsed Time = 8.67e+01 s
It   877: Res = 2.075097e-07, Cfl = 1.000000e+02, Elapsed Time = 8.67e+01 s
It   878: Res = 2.063840e-07, Cfl = 1.000000e+02, Elapsed Time = 8.68e+01 s
It   879: Res = 2.052589e-07, Cfl = 1.000000e+02, Elapsed Time = 8.68e+01 s
It   880: Res = 2.041342e-07, Cfl = 1.000000e+02, Elapsed Time = 8.69e+01 s
It   881: Res = 2.030098e-07, Cfl = 1.000000e+02, Elapsed Time = 8.70e+01 s
It   882: Res = 2.018923e-07, Cfl = 1.000000e+02, Elapsed Time = 8.71e+01 s
It   883: Res = 2.008159e-07, Cfl = 1.000000e+02, Elapsed Time = 8.72e+01 s
It   884: Res = 1.997287e-07, Cfl = 1.000000e+02, Elapsed Time = 8.73e+01 s
It   885: Res = 1.986086e-07, Cfl = 1.000000e+02, Elapsed Time = 8.73e+01 s
It   886: Res = 1.974677e-07, Cfl = 1.000000e+02, Elapsed Time = 8.75e+01 s
It   887: Res = 1.963258e-07, Cfl = 1.000000e+02, Elapsed Time = 8.76e+01 s
It   888: Res = 1.951843e-07, Cfl = 1.000000e+02, Elapsed Time = 8.77e+01 s
It   889: Res = 1.940352e-07, Cfl = 1.000000e+02, Elapsed Time = 8.78e+01 s
It   890: Res = 1.928833e-07, Cfl = 1.000000e+02, Elapsed Time = 8.79e+01 s
It   891: Res = 1.917332e-07, Cfl = 1.000000e+02, Elapsed Time = 8.80e+01 s
It   892: Res = 1.905841e-07, Cfl = 1.000000e+02, Elapsed Time = 8.81e+01 s
It   893: Res = 1.894335e-07, Cfl = 1.000000e+02, Elapsed Time = 8.81e+01 s
It   894: Res = 1.882789e-07, Cfl = 1.000000e+02, Elapsed Time = 8.82e+01 s
It   895: Res = 1.871257e-07, Cfl = 1.000000e+02, Elapsed Time = 8.83e+01 s
It   896: Res = 1.859704e-07, Cfl = 1.000000e+02, Elapsed Time = 8.84e+01 s
It   897: Res = 1.848121e-07, Cfl = 1.000000e+02, Elapsed Time = 8.85e+01 s
It   898: Res = 1.836486e-07, Cfl = 1.000000e+02, Elapsed Time = 8.87e+01 s
It   899: Res = 1.824841e-07, Cfl = 1.000000e+02, Elapsed Time = 8.88e+01 s
It   900: Res = 1.812919e-07, Cfl = 1.000000e+02, Elapsed Time = 8.89e+01 s
It   901: Res = 1.801410e-07, Cfl = 1.000000e+02, Elapsed Time = 8.90e+01 s
It   902: Res = 1.790487e-07, Cfl = 1.000000e+02, Elapsed Time = 8.90e+01 s
It   903: Res = 1.779484e-07, Cfl = 1.000000e+02, Elapsed Time = 8.91e+01 s
It   904: Res = 1.768306e-07, Cfl = 1.000000e+02, Elapsed Time = 8.92e+01 s
It   905: Res = 1.756906e-07, Cfl = 1.000000e+02, Elapsed Time = 8.92e+01 s
It   906: Res = 1.745361e-07, Cfl = 1.000000e+02, Elapsed Time = 8.93e+01 s
It   907: Res = 1.733839e-07, Cfl = 1.000000e+02, Elapsed Time = 8.94e+01 s
It   908: Res = 1.724716e-07, Cfl = 1.000000e+02, Elapsed Time = 8.94e+01 s
It   909: Res = 1.714609e-07, Cfl = 1.000000e+02, Elapsed Time = 8.96e+01 s
It   910: Res = 1.701742e-07, Cfl = 1.000000e+02, Elapsed Time = 8.96e+01 s
It   911: Res = 1.687442e-07, Cfl = 1.000000e+02, Elapsed Time = 8.98e+01 s
It   912: Res = 1.674318e-07, Cfl = 1.000000e+02, Elapsed Time = 8.99e+01 s
It   913: Res = 1.661843e-07, Cfl = 1.000000e+02, Elapsed Time = 9.00e+01 s
It   914: Res = 1.649702e-07, Cfl = 1.000000e+02, Elapsed Time = 9.00e+01 s
It   915: Res = 1.637714e-07, Cfl = 1.000000e+02, Elapsed Time = 9.02e+01 s
It   916: Res = 1.625842e-07, Cfl = 1.000000e+02, Elapsed Time = 9.03e+01 s
It   917: Res = 1.614128e-07, Cfl = 1.000000e+02, Elapsed Time = 9.03e+01 s
It   918: Res = 1.602498e-07, Cfl = 1.000000e+02, Elapsed Time = 9.04e+01 s
It   919: Res = 1.590919e-07, Cfl = 1.000000e+02, Elapsed Time = 9.05e+01 s
It   920: Res = 1.579397e-07, Cfl = 1.000000e+02, Elapsed Time = 9.06e+01 s
It   921: Res = 1.567134e-07, Cfl = 1.000000e+02, Elapsed Time = 9.07e+01 s
It   922: Res = 1.555123e-07, Cfl = 1.000000e+02, Elapsed Time = 9.08e+01 s
It   923: Res = 1.543469e-07, Cfl = 1.000000e+02, Elapsed Time = 9.10e+01 s
It   924: Res = 1.532283e-07, Cfl = 1.000000e+02, Elapsed Time = 9.11e+01 s
It   925: Res = 1.522068e-07, Cfl = 1.000000e+02, Elapsed Time = 9.12e+01 s
It   926: Res = 1.511621e-07, Cfl = 1.000000e+02, Elapsed Time = 9.13e+01 s
It   927: Res = 1.500880e-07, Cfl = 1.000000e+02, Elapsed Time = 9.13e+01 s
It   928: Res = 1.489812e-07, Cfl = 1.000000e+02, Elapsed Time = 9.14e+01 s
It   929: Res = 1.478552e-07, Cfl = 1.000000e+02, Elapsed Time = 9.14e+01 s
It   930: Res = 1.467750e-07, Cfl = 1.000000e+02, Elapsed Time = 9.15e+01 s
It   931: Res = 1.457755e-07, Cfl = 1.000000e+02, Elapsed Time = 9.15e+01 s
It   932: Res = 1.447534e-07, Cfl = 1.000000e+02, Elapsed Time = 9.16e+01 s
It   933: Res = 1.436777e-07, Cfl = 1.000000e+02, Elapsed Time = 9.17e+01 s
It   934: Res = 1.425800e-07, Cfl = 1.000000e+02, Elapsed Time = 9.18e+01 s
It   935: Res = 1.414764e-07, Cfl = 1.000000e+02, Elapsed Time = 9.19e+01 s
It   936: Res = 1.403795e-07, Cfl = 1.000000e+02, Elapsed Time = 9.19e+01 s
It   937: Res = 1.392922e-07, Cfl = 1.000000e+02, Elapsed Time = 9.21e+01 s
It   938: Res = 1.382231e-07, Cfl = 1.000000e+02, Elapsed Time = 9.22e+01 s
It   939: Res = 1.371745e-07, Cfl = 1.000000e+02, Elapsed Time = 9.23e+01 s
It   940: Res = 1.361432e-07, Cfl = 1.000000e+02, Elapsed Time = 9.24e+01 s
It   941: Res = 1.351276e-07, Cfl = 1.000000e+02, Elapsed Time = 9.25e+01 s
It   942: Res = 1.340749e-07, Cfl = 1.000000e+02, Elapsed Time = 9.26e+01 s
It   943: Res = 1.332164e-07, Cfl = 1.000000e+02, Elapsed Time = 9.26e+01 s
It   944: Res = 1.323881e-07, Cfl = 1.000000e+02, Elapsed Time = 9.27e+01 s
It   945: Res = 1.314742e-07, Cfl = 1.000000e+02, Elapsed Time = 9.28e+01 s
It   946: Res = 1.305093e-07, Cfl = 1.000000e+02, Elapsed Time = 9.29e+01 s
It   947: Res = 1.295451e-07, Cfl = 1.000000e+02, Elapsed Time = 9.30e+01 s
It   948: Res = 1.285980e-07, Cfl = 1.000000e+02, Elapsed Time = 9.31e+01 s
It   949: Res = 1.276888e-07, Cfl = 1.000000e+02, Elapsed Time = 9.32e+01 s
It   950: Res = 1.267890e-07, Cfl = 1.000000e+02, Elapsed Time = 9.33e+01 s
It   951: Res = 1.258942e-07, Cfl = 1.000000e+02, Elapsed Time = 9.34e+01 s
It   952: Res = 1.250065e-07, Cfl = 1.000000e+02, Elapsed Time = 9.35e+01 s
It   953: Res = 1.242456e-07, Cfl = 1.000000e+02, Elapsed Time = 9.36e+01 s
It   954: Res = 1.235579e-07, Cfl = 1.000000e+02, Elapsed Time = 9.36e+01 s
It   955: Res = 1.228270e-07, Cfl = 1.000000e+02, Elapsed Time = 9.37e+01 s
It   956: Res = 1.220576e-07, Cfl = 1.000000e+02, Elapsed Time = 9.37e+01 s
It   957: Res = 1.212403e-07, Cfl = 1.000000e+02, Elapsed Time = 9.38e+01 s
It   958: Res = 1.204775e-07, Cfl = 1.000000e+02, Elapsed Time = 9.38e+01 s
It   959: Res = 1.198472e-07, Cfl = 1.000000e+02, Elapsed Time = 9.39e+01 s
It   960: Res = 1.191650e-07, Cfl = 1.000000e+02, Elapsed Time = 9.40e+01 s
It   961: Res = 1.184551e-07, Cfl = 1.000000e+02, Elapsed Time = 9.41e+01 s
It   962: Res = 1.177787e-07, Cfl = 1.000000e+02, Elapsed Time = 9.41e+01 s
It   963: Res = 1.171334e-07, Cfl = 1.000000e+02, Elapsed Time = 9.42e+01 s
It   964: Res = 1.165088e-07, Cfl = 1.000000e+02, Elapsed Time = 9.43e+01 s
It   965: Res = 1.159251e-07, Cfl = 1.000000e+02, Elapsed Time = 9.45e+01 s
It   966: Res = 1.153435e-07, Cfl = 1.000000e+02, Elapsed Time = 9.45e+01 s
It   967: Res = 1.147664e-07, Cfl = 1.000000e+02, Elapsed Time = 9.46e+01 s
It   968: Res = 1.141911e-07, Cfl = 1.000000e+02, Elapsed Time = 9.47e+01 s
It   969: Res = 1.136133e-07, Cfl = 1.000000e+02, Elapsed Time = 9.48e+01 s
It   970: Res = 1.130467e-07, Cfl = 1.000000e+02, Elapsed Time = 9.49e+01 s
It   971: Res = 1.124935e-07, Cfl = 1.000000e+02, Elapsed Time = 9.49e+01 s
It   972: Res = 1.119546e-07, Cfl = 1.000000e+02, Elapsed Time = 9.50e+01 s
It   973: Res = 1.114312e-07, Cfl = 1.000000e+02, Elapsed Time = 9.50e+01 s
It   974: Res = 1.109214e-07, Cfl = 1.000000e+02, Elapsed Time = 9.51e+01 s
It   975: Res = 1.104251e-07, Cfl = 1.000000e+02, Elapsed Time = 9.52e+01 s
It   976: Res = 1.099353e-07, Cfl = 1.000000e+02, Elapsed Time = 9.53e+01 s
It   977: Res = 1.094445e-07, Cfl = 1.000000e+02, Elapsed Time = 9.53e+01 s
It   978: Res = 1.089833e-07, Cfl = 1.000000e+02, Elapsed Time = 9.54e+01 s
It   979: Res = 1.085472e-07, Cfl = 1.000000e+02, Elapsed Time = 9.56e+01 s
It   980: Res = 1.081320e-07, Cfl = 1.000000e+02, Elapsed Time = 9.57e+01 s
It   981: Res = 1.077307e-07, Cfl = 1.000000e+02, Elapsed Time = 9.58e+01 s
It   982: Res = 1.073409e-07, Cfl = 1.000000e+02, Elapsed Time = 9.58e+01 s
It   983: Res = 1.069617e-07, Cfl = 1.000000e+02, Elapsed Time = 9.59e+01 s
It   984: Res = 1.065379e-07, Cfl = 1.000000e+02, Elapsed Time = 9.60e+01 s
It   985: Res = 1.061309e-07, Cfl = 1.000000e+02, Elapsed Time = 9.60e+01 s
It   986: Res = 1.057727e-07, Cfl = 1.000000e+02, Elapsed Time = 9.61e+01 s
It   987: Res = 1.054394e-07, Cfl = 1.000000e+02, Elapsed Time = 9.61e+01 s
It   988: Res = 1.051565e-07, Cfl = 1.000000e+02, Elapsed Time = 9.62e+01 s
It   989: Res = 1.049554e-07, Cfl = 1.000000e+02, Elapsed Time = 9.62e+01 s
It   990: Res = 1.047638e-07, Cfl = 1.000000e+02, Elapsed Time = 9.63e+01 s
It   991: Res = 1.045908e-07, Cfl = 1.000000e+02, Elapsed Time = 9.64e+01 s
It   992: Res = 1.046399e-07, Cfl = 1.000000e+02, Elapsed Time = 9.65e+01 s
It   993: Res = 1.046512e-07, Cfl = 1.000000e+02, Elapsed Time = 9.66e+01 s
It   994: Res = 1.045149e-07, Cfl = 1.000000e+02, Elapsed Time = 9.67e+01 s
It   995: Res = 1.042925e-07, Cfl = 1.000000e+02, Elapsed Time = 9.68e+01 s
It   996: Res = 1.040480e-07, Cfl = 1.000000e+02, Elapsed Time = 9.69e+01 s
It   997: Res = 1.037988e-07, Cfl = 1.000000e+02, Elapsed Time = 9.70e+01 s
It   998: Res = 1.035666e-07, Cfl = 1.000000e+02, Elapsed Time = 9.71e+01 s
It   999: Res = 1.030570e-07, Cfl = 1.000000e+02, Elapsed Time = 9.72e+01 s
It  1000: Res = 1.027161e-07, Cfl = 1.000000e+02, Elapsed Time = 9.72e+01 s
It  1001: Res = 1.025071e-07, Cfl = 1.000000e+02, Elapsed Time = 9.73e+01 s
It  1002: Res = 1.023593e-07, Cfl = 1.000000e+02, Elapsed Time = 9.73e+01 s
It  1003: Res = 1.022277e-07, Cfl = 1.000000e+02, Elapsed Time = 9.74e+01 s
It  1004: Res = 1.020956e-07, Cfl = 1.000000e+02, Elapsed Time = 9.75e+01 s
It  1005: Res = 1.019605e-07, Cfl = 1.000000e+02, Elapsed Time = 9.76e+01 s
It  1006: Res = 1.018186e-07, Cfl = 1.000000e+02, Elapsed Time = 9.77e+01 s
It  1007: Res = 1.016767e-07, Cfl = 1.000000e+02, Elapsed Time = 9.78e+01 s
It  1008: Res = 1.015507e-07, Cfl = 1.000000e+02, Elapsed Time = 9.80e+01 s
It  1009: Res = 1.014379e-07, Cfl = 1.000000e+02, Elapsed Time = 9.81e+01 s
It  1010: Res = 1.013411e-07, Cfl = 1.000000e+02, Elapsed Time = 9.81e+01 s
It  1011: Res = 1.012325e-07, Cfl = 1.000000e+02, Elapsed Time = 9.82e+01 s
It  1012: Res = 1.011413e-07, Cfl = 1.000000e+02, Elapsed Time = 9.83e+01 s
It  1013: Res = 1.010764e-07, Cfl = 1.000000e+02, Elapsed Time = 9.83e+01 s
It  1014: Res = 1.010343e-07, Cfl = 1.000000e+02, Elapsed Time = 9.84e+01 s
It  1015: Res = 1.010054e-07, Cfl = 1.000000e+02, Elapsed Time = 9.84e+01 s
It  1016: Res = 1.009874e-07, Cfl = 1.000000e+02, Elapsed Time = 9.85e+01 s
It  1017: Res = 1.009660e-07, Cfl = 1.000000e+02, Elapsed Time = 9.85e+01 s
It  1018: Res = 1.009370e-07, Cfl = 1.000000e+02, Elapsed Time = 9.86e+01 s
It  1019: Res = 1.009235e-07, Cfl = 1.000000e+02, Elapsed Time = 9.87e+01 s
It  1020: Res = 1.009119e-07, Cfl = 1.000000e+02, Elapsed Time = 9.88e+01 s
It  1021: Res = 1.009090e-07, Cfl = 1.000000e+02, Elapsed Time = 9.89e+01 s
It  1022: Res = 1.009302e-07, Cfl = 1.000000e+02, Elapsed Time = 9.91e+01 s
It  1023: Res = 1.011198e-07, Cfl = 1.000000e+02, Elapsed Time = 9.92e+01 s
It  1024: Res = 1.012231e-07, Cfl = 1.000000e+02, Elapsed Time = 9.92e+01 s
It  1025: Res = 1.012222e-07, Cfl = 1.000000e+02, Elapsed Time = 9.93e+01 s
It  1026: Res = 1.011977e-07, Cfl = 1.000000e+02, Elapsed Time = 9.94e+01 s
It  1027: Res = 1.011777e-07, Cfl = 1.000000e+02, Elapsed Time = 9.95e+01 s
It  1028: Res = 1.011623e-07, Cfl = 1.000000e+02, Elapsed Time = 9.95e+01 s
It  1029: Res = 1.011598e-07, Cfl = 1.000000e+02, Elapsed Time = 9.96e+01 s
It  1030: Res = 1.011656e-07, Cfl = 1.000000e+02, Elapsed Time = 9.97e+01 s
It  1031: Res = 1.012105e-07, Cfl = 1.000000e+02, Elapsed Time = 9.98e+01 s
It  1032: Res = 1.013204e-07, Cfl = 1.000000e+02, Elapsed Time = 9.98e+01 s
It  1033: Res = 1.013758e-07, Cfl = 1.000000e+02, Elapsed Time = 9.99e+01 s
It  1034: Res = 1.013814e-07, Cfl = 1.000000e+02, Elapsed Time = 1.00e+02 s
It  1035: Res = 1.013655e-07, Cfl = 1.000000e+02, Elapsed Time = 1.00e+02 s
It  1036: Res = 1.014120e-07, Cfl = 1.000000e+02, Elapsed Time = 1.00e+02 s
It  1037: Res = 1.014923e-07, Cfl = 1.000000e+02, Elapsed Time = 1.00e+02 s
It  1038: Res = 1.014456e-07, Cfl = 1.000000e+02, Elapsed Time = 1.00e+02 s
It  1039: Res = 1.013326e-07, Cfl = 1.000000e+02, Elapsed Time = 1.01e+02 s
It  1040: Res = 1.012280e-07, Cfl = 1.000000e+02, Elapsed Time = 1.01e+02 s
It  1041: Res = 1.011070e-07, Cfl = 1.000000e+02, Elapsed Time = 1.01e+02 s
It  1042: Res = 1.010057e-07, Cfl = 1.000000e+02, Elapsed Time = 1.01e+02 s
It  1043: Res = 1.008841e-07, Cfl = 1.000000e+02, Elapsed Time = 1.01e+02 s
It  1044: Res = 1.004464e-07, Cfl = 1.000000e+02, Elapsed Time = 1.01e+02 s
It  1045: Res = 1.002738e-07, Cfl = 1.000000e+02, Elapsed Time = 1.01e+02 s
It  1046: Res = 1.001920e-07, Cfl = 1.000000e+02, Elapsed Time = 1.01e+02 s
It  1047: Res = 1.007145e-07, Cfl = 1.000000e+02, Elapsed Time = 1.01e+02 s
It  1048: Res = 1.008064e-07, Cfl = 1.000000e+02, Elapsed Time = 1.01e+02 s
It  1049: Res = 1.005474e-07, Cfl = 1.000000e+02, Elapsed Time = 1.01e+02 s
It  1050: Res = 1.004392e-07, Cfl = 1.000000e+02, Elapsed Time = 1.01e+02 s
It  1051: Res = 1.003872e-07, Cfl = 1.000000e+02, Elapsed Time = 1.02e+02 s
It  1052: Res = 1.001851e-07, Cfl = 1.000000e+02, Elapsed Time = 1.02e+02 s
It  1053: Res = 9.996045e-08, Cfl = 1.000000e+02, Elapsed Time = 1.02e+02 s
Wrote solution 0 to 'postpro/Pressure.bin'
Wrote solution 0 to 'references/Solution.bin'
Wrote solution 0 to 'references/DEFAULT.FID'

----------------------------------------------------------------------
Elapsed Time Report (s)       :        Min        Max        Avg   # Calls

Problem Setup                 :       1.32       1.33       1.32         1

Fluid Solution                :      94.07      94.11      94.09         -
  Time Steps                  :       0.91       0.99       0.95      1053
  Nodal Weights and Gradients :       1.19       1.88       1.59      3162
  FV Fluxes                   :       5.03       6.56       5.34      3160
  FE Fluxes                   :       0.11       1.29       1.12      3160
  FV Jacobian                 :       0.11       2.20       1.91      2106
  FE Jacobian                 :       0.09       2.12       1.86      2106
  VMS-LES Modeling            :       0.00       0.00       0.00         0
  Dynamic VMS-LES Modeling    :       0.00       0.00       0.00         0
  H2 Matrix Assembly          :       0.00       0.00       0.00         0
  Preconditioner Setup        :       0.85       0.97       0.91      1053
  Linear Solver               :      77.68      78.70      78.12      2106
  Mesh Metrics Update         :       0.00       0.00       0.00         0
  Wall Distance Computation   :       0.89       0.90       0.90         1

Eulerian FSI                  :       0.48       1.79       0.73         -
  F-S Intersections           :       0.00       0.00       0.00         0
  Force calculation           :       0.48       1.79       0.73      1054

Communication/Synchronization :      79.44      89.74      81.90         -
  Local                       :       8.31      16.80      12.23         -
  Global                      :      66.84      73.69      69.67         -
  RMA                         :       0.00       0.00       0.00         -
  Inter                       :       0.00       0.00       0.00         0

I/O                           :       0.74       3.33       1.98         -
  Binary Read                 :       0.00       0.00       0.00         0
  Binary Write                :       0.74       3.33       1.98         3

Total Simulation              :     105.94     107.46     106.48         -
----------------------------------------------------------------------
