--------------------------------------------------------------------------
WARNING: It appears that your OpenFabrics subsystem is configured to only
allow registering part of your physical memory.  This can cause MPI jobs to
run with erratic performance, hang, and/or crash.

This may be caused by your OpenFabrics vendor limiting the amount of
physical memory that can be registered.  You should investigate the
relevant Linux kernel module parameters that control how much physical
memory can be registered, and increase them to allow registering all
physical memory on your machine.

See this Open MPI FAQ item for more information on these Linux kernel module
parameters:

    http://www.open-mpi.org/faq/?category=openfabrics#ib-locked-pages

  Local host:              compute-1-30.local
  Registerable memory:     32768 MiB
  Total memory:            65507 MiB
--------------------------------------------------------------------------

  _______                              __________
  ___    |_____ ______________         ___  ____/
  __  /| |_  _ \__  ___/_  __ \__________  /_  
  _  ___ |/  __/_  /    / /_/ /_/_____/_  __/    
  /_/  |_|\___/ /_/     \____/         /_/     
  Changeset ID: 65cd4574fada 1806 
128 MPI CPU for 128 subdomains
*** Running an Embedded Viscous 1 Phase Fluid-Structure simulation ***
Node statistics: min=290, max=317, total=38934
Edge statistics: min=1319, max=1410, total=175251
Face statistics: min=493, max=537, total=65296
Elem statistics: min=741, max=786, total=97767
--- Spalart-Allmaras Turbulent Model Used ***
Control volume statistics: min=2.548e-10, max=3.709e-02, total=1.251e+01
Mesh bounding box: (Xmin,Ymin,Zmin) = (-1.995e+01 -1.997e+01 0.000e+00)
                   (Xmax,Ymax,Zmax) = (1.998e+01 1.997e+01 1.000e-02)
[Probe] Number of probing nodes is 0
Setting interface thickness to 1.000000e-08.
 ... Symmetry plane of normal Z is used in the embedded corotational solver.
     -> only rotation around axis Z & translations in the X-Y plane are allowed.
Memory required for matvec with H1 (dim=5): 74.28 MB
Memory required for matvec with H1 (dim=1): 2.97 MB
Memory for ILU(0) preconditioner (dim=5): 74.28 MB
Memory for Gmres(250) solver: 745.58 MB
Memory for ILU(0) preconditioner (dim=1): 2.97 MB
Memory for Gmres(150) solver: 89.71 MB
Point-based initial conditions could not be found.  Assuming single-phase flow
NOTE: FluidId-based initial conditions not specified.

It 0 (0,0): Time=0, Elapsed Time=0.00e+00 s
*** Warning: 436 nut values clipped at cutoff (min=-6.976848e-07 at 18083)
It 1 (1,3): Time=0.001, Elapsed Time=1.09e+00 s
It 2 (1,5): Time=0.002, Elapsed Time=1.42e+00 s
It 3 (1,6): Time=0.003, Elapsed Time=1.71e+00 s
[compute-1-31.local:00431] 127 more processes have sent help message help-mpi-btl-openib.txt / reg mem limit low
[compute-1-31.local:00431] Set MCA parameter "orte_base_help_aggregate" to 0 to see all help / error messages
It 4 (1,6): Time=0.004, Elapsed Time=2.61e+00 s
It 5 (1,6): Time=0.005, Elapsed Time=2.89e+00 s
It 6 (1,6): Time=0.006, Elapsed Time=3.16e+00 s
It 7 (1,7): Time=0.007, Elapsed Time=3.90e+00 s
It 8 (1,8): Time=0.008, Elapsed Time=4.17e+00 s
It 9 (1,7): Time=0.009, Elapsed Time=4.52e+00 s
It 10 (1,6): Time=0.01, Elapsed Time=4.71e+00 s
It 11 (1,5): Time=0.011, Elapsed Time=4.87e+00 s
It 12 (1,6): Time=0.012, Elapsed Time=5.12e+00 s
It 13 (1,7): Time=0.013, Elapsed Time=5.47e+00 s
It 14 (1,8): Time=0.014, Elapsed Time=5.86e+00 s
It 15 (1,7): Time=0.015, Elapsed Time=6.27e+00 s
It 16 (1,6): Time=0.016, Elapsed Time=6.52e+00 s
It 17 (1,5): Time=0.017, Elapsed Time=6.79e+00 s
It 18 (1,6): Time=0.018, Elapsed Time=7.00e+00 s
It 19 (1,8): Time=0.019, Elapsed Time=7.20e+00 s
It 20 (1,8): Time=0.02, Elapsed Time=7.53e+00 s
It 21 (1,7): Time=0.021, Elapsed Time=7.81e+00 s
It 22 (1,5): Time=0.022, Elapsed Time=8.10e+00 s
It 23 (1,5): Time=0.023, Elapsed Time=8.31e+00 s
It 24 (1,6): Time=0.024, Elapsed Time=8.60e+00 s
It 25 (1,7): Time=0.025, Elapsed Time=8.89e+00 s
It 26 (1,7): Time=0.026, Elapsed Time=9.22e+00 s
It 27 (1,6): Time=0.027, Elapsed Time=9.38e+00 s
It 28 (1,5): Time=0.028, Elapsed Time=9.60e+00 s
It 29 (1,5): Time=0.029, Elapsed Time=9.83e+00 s
It 30 (1,6): Time=0.03, Elapsed Time=1.01e+01 s
It 31 (1,7): Time=0.031, Elapsed Time=1.04e+01 s
It 32 (1,6): Time=0.032, Elapsed Time=1.07e+01 s
It 33 (1,5): Time=0.033, Elapsed Time=1.09e+01 s
It 34 (1,5): Time=0.034, Elapsed Time=1.11e+01 s
It 35 (1,5): Time=0.035, Elapsed Time=1.14e+01 s
It 36 (1,6): Time=0.036, Elapsed Time=1.16e+01 s
It 37 (1,6): Time=0.037, Elapsed Time=1.18e+01 s
It 38 (1,5): Time=0.038, Elapsed Time=1.20e+01 s
It 39 (1,5): Time=0.039, Elapsed Time=1.23e+01 s
It 40 (1,4): Time=0.04, Elapsed Time=1.25e+01 s
It 41 (1,5): Time=0.041, Elapsed Time=1.27e+01 s
It 42 (1,5): Time=0.042, Elapsed Time=1.29e+01 s
It 43 (1,5): Time=0.043, Elapsed Time=1.32e+01 s
It 44 (1,5): Time=0.044, Elapsed Time=1.34e+01 s
It 45 (1,4): Time=0.045, Elapsed Time=1.37e+01 s
It 46 (1,4): Time=0.046, Elapsed Time=1.39e+01 s
It 47 (1,4): Time=0.047, Elapsed Time=1.40e+01 s
It 48 (1,4): Time=0.048, Elapsed Time=1.42e+01 s
It 49 (1,4): Time=0.049, Elapsed Time=1.44e+01 s
It 50 (1,4): Time=0.05, Elapsed Time=1.46e+01 s
It 51 (1,4): Time=0.051, Elapsed Time=1.49e+01 s
It 52 (1,4): Time=0.052, Elapsed Time=1.51e+01 s
It 53 (1,4): Time=0.053, Elapsed Time=1.53e+01 s
It 54 (1,4): Time=0.054, Elapsed Time=1.55e+01 s
It 55 (1,4): Time=0.055, Elapsed Time=1.57e+01 s
It 56 (1,4): Time=0.056, Elapsed Time=1.60e+01 s
It 57 (1,4): Time=0.057, Elapsed Time=1.61e+01 s
It 58 (1,3): Time=0.058, Elapsed Time=1.63e+01 s
It 59 (1,3): Time=0.059, Elapsed Time=1.64e+01 s
It 60 (1,3): Time=0.06, Elapsed Time=1.66e+01 s
It 61 (1,4): Time=0.061, Elapsed Time=1.68e+01 s
It 62 (1,4): Time=0.062, Elapsed Time=1.71e+01 s
It 63 (1,3): Time=0.063, Elapsed Time=1.73e+01 s
It 64 (1,3): Time=0.064, Elapsed Time=1.75e+01 s
It 65 (1,3): Time=0.065, Elapsed Time=1.77e+01 s
It 66 (1,3): Time=0.066, Elapsed Time=1.78e+01 s
It 67 (1,3): Time=0.067, Elapsed Time=1.81e+01 s
It 68 (1,3): Time=0.068, Elapsed Time=1.83e+01 s
It 69 (1,3): Time=0.069, Elapsed Time=1.85e+01 s
It 70 (1,3): Time=0.07, Elapsed Time=1.86e+01 s
It 71 (1,3): Time=0.071, Elapsed Time=1.87e+01 s
It 72 (1,3): Time=0.072, Elapsed Time=1.89e+01 s
It 73 (1,3): Time=0.073, Elapsed Time=1.91e+01 s
It 74 (1,3): Time=0.074, Elapsed Time=1.93e+01 s
It 75 (1,4): Time=0.075, Elapsed Time=1.98e+01 s
It 76 (1,3): Time=0.076, Elapsed Time=2.00e+01 s
It 77 (1,3): Time=0.077, Elapsed Time=2.02e+01 s
It 78 (1,3): Time=0.078, Elapsed Time=2.04e+01 s
It 79 (1,3): Time=0.079, Elapsed Time=2.06e+01 s
It 80 (1,3): Time=0.08, Elapsed Time=2.08e+01 s
It 81 (1,3): Time=0.081, Elapsed Time=2.09e+01 s
It 82 (1,3): Time=0.082, Elapsed Time=2.11e+01 s
It 83 (1,3): Time=0.083, Elapsed Time=2.13e+01 s
It 84 (1,3): Time=0.084, Elapsed Time=2.15e+01 s
It 85 (1,3): Time=0.085, Elapsed Time=2.17e+01 s
It 86 (1,3): Time=0.086, Elapsed Time=2.19e+01 s
It 87 (1,3): Time=0.087, Elapsed Time=2.21e+01 s
It 88 (1,3): Time=0.088, Elapsed Time=2.23e+01 s
It 89 (1,3): Time=0.089, Elapsed Time=2.25e+01 s
It 90 (1,3): Time=0.09, Elapsed Time=2.27e+01 s
It 91 (1,3): Time=0.091, Elapsed Time=2.29e+01 s
It 92 (1,3): Time=0.092, Elapsed Time=2.31e+01 s
It 93 (1,3): Time=0.093, Elapsed Time=2.32e+01 s
It 94 (1,3): Time=0.094, Elapsed Time=2.34e+01 s
It 95 (1,3): Time=0.095, Elapsed Time=2.36e+01 s
It 96 (1,3): Time=0.096, Elapsed Time=2.38e+01 s
It 97 (1,3): Time=0.097, Elapsed Time=2.40e+01 s
It 98 (1,3): Time=0.098, Elapsed Time=2.42e+01 s
It 99 (1,3): Time=0.099, Elapsed Time=2.44e+01 s
It 100 (1,3): Time=0.1, Elapsed Time=2.46e+01 s
It 101 (1,3): Time=0.101, Elapsed Time=2.48e+01 s
It 102 (1,3): Time=0.102, Elapsed Time=2.50e+01 s
It 103 (1,3): Time=0.103, Elapsed Time=2.52e+01 s
It 104 (1,3): Time=0.104, Elapsed Time=2.54e+01 s
It 105 (1,3): Time=0.105, Elapsed Time=2.55e+01 s
It 106 (1,3): Time=0.106, Elapsed Time=2.57e+01 s
It 107 (1,3): Time=0.107, Elapsed Time=2.59e+01 s
It 108 (1,3): Time=0.108, Elapsed Time=2.61e+01 s
It 109 (1,3): Time=0.109, Elapsed Time=2.63e+01 s
It 110 (1,3): Time=0.11, Elapsed Time=2.65e+01 s
It 111 (1,3): Time=0.111, Elapsed Time=2.67e+01 s
It 112 (1,3): Time=0.112, Elapsed Time=2.69e+01 s
It 113 (1,3): Time=0.113, Elapsed Time=2.71e+01 s
It 114 (1,3): Time=0.114, Elapsed Time=2.73e+01 s
It 115 (1,3): Time=0.115, Elapsed Time=2.75e+01 s
It 116 (1,3): Time=0.116, Elapsed Time=2.77e+01 s
It 117 (1,3): Time=0.117, Elapsed Time=2.78e+01 s
It 118 (1,3): Time=0.118, Elapsed Time=2.80e+01 s
It 119 (1,3): Time=0.119, Elapsed Time=2.82e+01 s
It 120 (1,3): Time=0.12, Elapsed Time=2.84e+01 s
It 121 (1,3): Time=0.121, Elapsed Time=2.86e+01 s
It 122 (1,3): Time=0.122, Elapsed Time=2.88e+01 s
It 123 (1,3): Time=0.123, Elapsed Time=2.90e+01 s
It 124 (1,3): Time=0.124, Elapsed Time=2.92e+01 s
It 125 (1,3): Time=0.125, Elapsed Time=2.94e+01 s
It 126 (1,3): Time=0.126, Elapsed Time=2.96e+01 s
It 127 (1,3): Time=0.127, Elapsed Time=2.98e+01 s
It 128 (1,3): Time=0.128, Elapsed Time=3.00e+01 s
It 129 (1,3): Time=0.129, Elapsed Time=3.01e+01 s
It 130 (1,3): Time=0.13, Elapsed Time=3.03e+01 s
It 131 (1,3): Time=0.131, Elapsed Time=3.05e+01 s
It 132 (1,3): Time=0.132, Elapsed Time=3.07e+01 s
It 133 (1,3): Time=0.133, Elapsed Time=3.10e+01 s
It 134 (1,3): Time=0.134, Elapsed Time=3.12e+01 s
It 135 (1,3): Time=0.135, Elapsed Time=3.21e+01 s
It 136 (1,3): Time=0.136, Elapsed Time=3.23e+01 s
It 137 (1,3): Time=0.137, Elapsed Time=3.24e+01 s
It 138 (1,3): Time=0.138, Elapsed Time=3.26e+01 s
It 139 (1,3): Time=0.139, Elapsed Time=3.28e+01 s
It 140 (1,3): Time=0.14, Elapsed Time=3.30e+01 s
It 141 (1,3): Time=0.141, Elapsed Time=3.32e+01 s
It 142 (1,3): Time=0.142, Elapsed Time=3.36e+01 s
It 143 (1,3): Time=0.143, Elapsed Time=3.39e+01 s
It 144 (1,3): Time=0.144, Elapsed Time=3.40e+01 s
It 145 (1,3): Time=0.145, Elapsed Time=3.42e+01 s
It 146 (1,3): Time=0.146, Elapsed Time=3.44e+01 s
It 147 (1,3): Time=0.147, Elapsed Time=3.46e+01 s
It 148 (1,3): Time=0.148, Elapsed Time=3.47e+01 s
It 149 (1,3): Time=0.149, Elapsed Time=3.49e+01 s
It 150 (1,3): Time=0.15, Elapsed Time=3.51e+01 s
It 151 (1,3): Time=0.151, Elapsed Time=3.53e+01 s
It 152 (1,3): Time=0.152, Elapsed Time=3.56e+01 s
It 153 (1,3): Time=0.153, Elapsed Time=3.57e+01 s
It 154 (1,3): Time=0.154, Elapsed Time=3.59e+01 s
It 155 (1,3): Time=0.155, Elapsed Time=3.62e+01 s
It 156 (1,3): Time=0.156, Elapsed Time=3.63e+01 s
It 157 (1,3): Time=0.157, Elapsed Time=3.65e+01 s
It 158 (1,3): Time=0.158, Elapsed Time=3.74e+01 s
It 159 (1,3): Time=0.159, Elapsed Time=3.76e+01 s
It 160 (1,3): Time=0.16, Elapsed Time=3.79e+01 s
It 161 (1,3): Time=0.161, Elapsed Time=3.80e+01 s
It 162 (1,3): Time=0.162, Elapsed Time=3.82e+01 s
It 163 (1,3): Time=0.163, Elapsed Time=3.85e+01 s
It 164 (1,3): Time=0.164, Elapsed Time=3.86e+01 s
It 165 (1,3): Time=0.165, Elapsed Time=3.88e+01 s
It 166 (1,3): Time=0.166, Elapsed Time=3.91e+01 s
It 167 (1,3): Time=0.167, Elapsed Time=3.92e+01 s
It 168 (1,3): Time=0.168, Elapsed Time=3.94e+01 s
It 169 (1,3): Time=0.169, Elapsed Time=3.95e+01 s
It 170 (1,3): Time=0.17, Elapsed Time=3.97e+01 s
It 171 (1,3): Time=0.171, Elapsed Time=3.99e+01 s
It 172 (1,3): Time=0.172, Elapsed Time=4.02e+01 s
It 173 (1,3): Time=0.173, Elapsed Time=4.03e+01 s
It 174 (1,3): Time=0.174, Elapsed Time=4.04e+01 s
It 175 (1,3): Time=0.175, Elapsed Time=4.07e+01 s
It 176 (1,3): Time=0.176, Elapsed Time=4.09e+01 s
It 177 (1,3): Time=0.177, Elapsed Time=4.11e+01 s
It 178 (1,3): Time=0.178, Elapsed Time=4.13e+01 s
It 179 (1,3): Time=0.179, Elapsed Time=4.15e+01 s
It 180 (1,3): Time=0.18, Elapsed Time=4.16e+01 s
It 181 (1,4): Time=0.181, Elapsed Time=4.18e+01 s
It 182 (1,3): Time=0.182, Elapsed Time=4.20e+01 s
It 183 (1,3): Time=0.183, Elapsed Time=4.22e+01 s
It 184 (1,3): Time=0.184, Elapsed Time=4.25e+01 s
It 185 (1,3): Time=0.185, Elapsed Time=4.26e+01 s
It 186 (1,3): Time=0.186, Elapsed Time=4.27e+01 s
It 187 (1,4): Time=0.187, Elapsed Time=4.30e+01 s
It 188 (1,4): Time=0.188, Elapsed Time=4.32e+01 s
It 189 (1,4): Time=0.189, Elapsed Time=4.34e+01 s
It 190 (1,4): Time=0.19, Elapsed Time=4.37e+01 s
It 191 (1,3): Time=0.191, Elapsed Time=4.38e+01 s
It 192 (1,4): Time=0.192, Elapsed Time=4.40e+01 s
It 193 (1,4): Time=0.193, Elapsed Time=4.42e+01 s
It 194 (1,3): Time=0.194, Elapsed Time=4.43e+01 s
It 195 (1,4): Time=0.195, Elapsed Time=4.47e+01 s
It 196 (1,4): Time=0.196, Elapsed Time=4.49e+01 s
It 197 (1,4): Time=0.197, Elapsed Time=4.50e+01 s
It 198 (1,4): Time=0.198, Elapsed Time=4.53e+01 s
It 199 (1,4): Time=0.199, Elapsed Time=4.55e+01 s
It 200 (1,4): Time=0.2, Elapsed Time=4.57e+01 s
It 201 (1,4): Time=0.201, Elapsed Time=4.61e+01 s
It 202 (1,4): Time=0.202, Elapsed Time=4.62e+01 s
It 203 (1,4): Time=0.203, Elapsed Time=4.65e+01 s
It 204 (1,4): Time=0.204, Elapsed Time=4.66e+01 s
It 205 (1,4): Time=0.205, Elapsed Time=4.69e+01 s
It 206 (1,4): Time=0.206, Elapsed Time=4.72e+01 s
It 207 (1,4): Time=0.207, Elapsed Time=4.73e+01 s
It 208 (1,4): Time=0.208, Elapsed Time=4.75e+01 s
It 209 (1,4): Time=0.209, Elapsed Time=4.78e+01 s
It 210 (1,4): Time=0.21, Elapsed Time=4.80e+01 s
It 211 (1,4): Time=0.211, Elapsed Time=4.83e+01 s
It 212 (1,4): Time=0.212, Elapsed Time=4.84e+01 s
It 213 (1,4): Time=0.213, Elapsed Time=4.86e+01 s
It 214 (1,4): Time=0.214, Elapsed Time=4.88e+01 s
It 215 (1,4): Time=0.215, Elapsed Time=4.90e+01 s
It 216 (1,4): Time=0.216, Elapsed Time=4.93e+01 s
It 217 (1,4): Time=0.217, Elapsed Time=4.95e+01 s
It 218 (1,4): Time=0.218, Elapsed Time=4.96e+01 s
It 219 (1,4): Time=0.219, Elapsed Time=4.99e+01 s
It 220 (1,4): Time=0.22, Elapsed Time=5.01e+01 s
It 221 (1,4): Time=0.221, Elapsed Time=5.03e+01 s
It 222 (1,4): Time=0.222, Elapsed Time=5.06e+01 s
It 223 (1,4): Time=0.223, Elapsed Time=5.07e+01 s
It 224 (1,4): Time=0.224, Elapsed Time=5.09e+01 s
It 225 (1,4): Time=0.225, Elapsed Time=5.11e+01 s
It 226 (1,4): Time=0.226, Elapsed Time=5.13e+01 s
It 227 (1,4): Time=0.227, Elapsed Time=5.16e+01 s
It 228 (1,4): Time=0.228, Elapsed Time=5.18e+01 s
It 229 (1,4): Time=0.229, Elapsed Time=5.19e+01 s
It 230 (1,5): Time=0.23, Elapsed Time=5.22e+01 s
It 231 (1,5): Time=0.231, Elapsed Time=5.25e+01 s
It 232 (1,5): Time=0.232, Elapsed Time=5.28e+01 s
It 233 (1,5): Time=0.233, Elapsed Time=5.30e+01 s
It 234 (1,5): Time=0.234, Elapsed Time=5.32e+01 s
It 235 (1,5): Time=0.235, Elapsed Time=5.34e+01 s
It 236 (1,5): Time=0.236, Elapsed Time=5.36e+01 s
It 237 (1,5): Time=0.237, Elapsed Time=5.40e+01 s
It 238 (1,5): Time=0.238, Elapsed Time=5.41e+01 s
It 239 (1,5): Time=0.239, Elapsed Time=5.43e+01 s
It 240 (1,5): Time=0.24, Elapsed Time=5.46e+01 s
It 241 (1,5): Time=0.241, Elapsed Time=5.49e+01 s
It 242 (1,5): Time=0.242, Elapsed Time=5.51e+01 s
It 243 (1,5): Time=0.243, Elapsed Time=5.53e+01 s
It 244 (1,5): Time=0.244, Elapsed Time=5.55e+01 s
It 245 (1,5): Time=0.245, Elapsed Time=5.57e+01 s
It 246 (1,5): Time=0.246, Elapsed Time=5.59e+01 s
It 247 (1,5): Time=0.247, Elapsed Time=5.63e+01 s
It 248 (1,5): Time=0.248, Elapsed Time=5.64e+01 s
It 249 (1,5): Time=0.249, Elapsed Time=5.67e+01 s
It 250 (1,5): Time=0.25, Elapsed Time=5.70e+01 s
It 251 (1,5): Time=0.251, Elapsed Time=5.72e+01 s
It 252 (1,5): Time=0.252, Elapsed Time=5.75e+01 s
It 253 (1,5): Time=0.253, Elapsed Time=5.77e+01 s
It 254 (1,5): Time=0.254, Elapsed Time=5.79e+01 s
It 255 (1,5): Time=0.255, Elapsed Time=5.81e+01 s
It 256 (1,5): Time=0.256, Elapsed Time=5.85e+01 s
It 257 (1,5): Time=0.257, Elapsed Time=5.86e+01 s
It 258 (1,5): Time=0.258, Elapsed Time=5.88e+01 s
It 259 (1,5): Time=0.259, Elapsed Time=5.91e+01 s
It 260 (1,5): Time=0.26, Elapsed Time=5.93e+01 s
It 261 (1,5): Time=0.261, Elapsed Time=5.96e+01 s
It 262 (1,5): Time=0.262, Elapsed Time=5.98e+01 s
It 263 (1,5): Time=0.263, Elapsed Time=6.00e+01 s
It 264 (1,5): Time=0.264, Elapsed Time=6.03e+01 s
It 265 (1,5): Time=0.265, Elapsed Time=6.04e+01 s
It 266 (1,5): Time=0.266, Elapsed Time=6.08e+01 s
It 267 (1,5): Time=0.267, Elapsed Time=6.10e+01 s
It 268 (1,5): Time=0.268, Elapsed Time=6.11e+01 s
It 269 (1,6): Time=0.269, Elapsed Time=6.15e+01 s
It 270 (1,6): Time=0.27, Elapsed Time=6.18e+01 s
It 271 (1,5): Time=0.271, Elapsed Time=6.20e+01 s
It 272 (1,5): Time=0.272, Elapsed Time=6.22e+01 s
It 273 (1,6): Time=0.273, Elapsed Time=6.24e+01 s
It 274 (1,6): Time=0.274, Elapsed Time=6.27e+01 s
It 275 (1,6): Time=0.275, Elapsed Time=6.30e+01 s
It 276 (1,5): Time=0.276, Elapsed Time=6.32e+01 s
It 277 (1,6): Time=0.277, Elapsed Time=6.34e+01 s
It 278 (1,5): Time=0.278, Elapsed Time=6.37e+01 s
It 279 (1,6): Time=0.279, Elapsed Time=6.40e+01 s
It 280 (1,6): Time=0.28, Elapsed Time=6.42e+01 s
It 281 (1,6): Time=0.281, Elapsed Time=6.45e+01 s
It 282 (1,5): Time=0.282, Elapsed Time=6.46e+01 s
It 283 (1,5): Time=0.283, Elapsed Time=6.49e+01 s
It 284 (1,6): Time=0.284, Elapsed Time=6.51e+01 s
It 285 (1,6): Time=0.285, Elapsed Time=6.55e+01 s
It 286 (1,6): Time=0.286, Elapsed Time=6.57e+01 s
It 287 (1,5): Time=0.287, Elapsed Time=6.58e+01 s
It 288 (1,6): Time=0.288, Elapsed Time=6.62e+01 s
It 289 (1,5): Time=0.289, Elapsed Time=6.65e+01 s
It 290 (1,5): Time=0.29, Elapsed Time=6.67e+01 s
It 291 (1,5): Time=0.291, Elapsed Time=6.69e+01 s
It 292 (1,5): Time=0.292, Elapsed Time=6.71e+01 s
It 293 (1,5): Time=0.293, Elapsed Time=6.73e+01 s
It 294 (1,5): Time=0.294, Elapsed Time=6.77e+01 s
It 295 (1,5): Time=0.295, Elapsed Time=6.78e+01 s
It 296 (1,5): Time=0.296, Elapsed Time=6.80e+01 s
It 297 (1,5): Time=0.297, Elapsed Time=6.82e+01 s
It 298 (1,5): Time=0.298, Elapsed Time=6.86e+01 s
It 299 (1,5): Time=0.299, Elapsed Time=6.88e+01 s
It 300 (1,5): Time=0.3, Elapsed Time=6.90e+01 s
It 301 (1,5): Time=0.301, Elapsed Time=6.93e+01 s
It 302 (1,5): Time=0.302, Elapsed Time=6.95e+01 s
It 303 (1,5): Time=0.303, Elapsed Time=6.96e+01 s
It 304 (1,5): Time=0.304, Elapsed Time=7.00e+01 s
It 305 (1,5): Time=0.305, Elapsed Time=7.02e+01 s
It 306 (1,5): Time=0.306, Elapsed Time=7.03e+01 s
It 307 (1,5): Time=0.307, Elapsed Time=7.07e+01 s
It 308 (1,5): Time=0.308, Elapsed Time=7.09e+01 s
It 309 (1,5): Time=0.309, Elapsed Time=7.12e+01 s
It 310 (1,5): Time=0.31, Elapsed Time=7.14e+01 s
It 311 (1,5): Time=0.311, Elapsed Time=7.16e+01 s
It 312 (1,5): Time=0.312, Elapsed Time=7.18e+01 s
It 313 (1,5): Time=0.313, Elapsed Time=7.22e+01 s
It 314 (1,5): Time=0.314, Elapsed Time=7.24e+01 s
It 315 (1,5): Time=0.315, Elapsed Time=7.25e+01 s
It 316 (1,5): Time=0.316, Elapsed Time=7.27e+01 s
It 317 (1,5): Time=0.317, Elapsed Time=7.31e+01 s
It 318 (1,5): Time=0.318, Elapsed Time=7.33e+01 s
It 319 (1,5): Time=0.319, Elapsed Time=7.35e+01 s
It 320 (1,5): Time=0.32, Elapsed Time=7.37e+01 s
It 321 (1,5): Time=0.321, Elapsed Time=7.40e+01 s
It 322 (1,5): Time=0.322, Elapsed Time=7.41e+01 s
It 323 (1,5): Time=0.323, Elapsed Time=7.46e+01 s
It 324 (1,5): Time=0.324, Elapsed Time=7.47e+01 s
It 325 (1,5): Time=0.325, Elapsed Time=7.49e+01 s
It 326 (1,5): Time=0.326, Elapsed Time=7.51e+01 s
It 327 (1,5): Time=0.327, Elapsed Time=7.54e+01 s
It 328 (1,5): Time=0.328, Elapsed Time=7.57e+01 s
It 329 (1,5): Time=0.329, Elapsed Time=7.59e+01 s
It 330 (1,5): Time=0.33, Elapsed Time=7.62e+01 s
It 331 (1,5): Time=0.331, Elapsed Time=7.64e+01 s
It 332 (1,5): Time=0.332, Elapsed Time=7.66e+01 s
It 333 (1,5): Time=0.333, Elapsed Time=7.69e+01 s
It 334 (1,5): Time=0.334, Elapsed Time=7.71e+01 s
It 335 (1,5): Time=0.335, Elapsed Time=7.72e+01 s
It 336 (1,5): Time=0.336, Elapsed Time=7.76e+01 s
It 337 (1,5): Time=0.337, Elapsed Time=7.78e+01 s
It 338 (1,4): Time=0.338, Elapsed Time=7.81e+01 s
It 339 (1,5): Time=0.339, Elapsed Time=7.83e+01 s
It 340 (1,4): Time=0.34, Elapsed Time=7.85e+01 s
It 341 (1,4): Time=0.341, Elapsed Time=7.87e+01 s
It 342 (1,4): Time=0.342, Elapsed Time=7.89e+01 s
It 343 (1,4): Time=0.343, Elapsed Time=7.92e+01 s
It 344 (1,4): Time=0.344, Elapsed Time=7.94e+01 s
It 345 (1,5): Time=0.345, Elapsed Time=7.95e+01 s
It 346 (1,4): Time=0.346, Elapsed Time=7.98e+01 s
It 347 (1,4): Time=0.347, Elapsed Time=8.00e+01 s
It 348 (1,4): Time=0.348, Elapsed Time=8.03e+01 s
It 349 (1,4): Time=0.349, Elapsed Time=8.05e+01 s
It 350 (1,4): Time=0.35, Elapsed Time=8.07e+01 s
It 351 (1,5): Time=0.351, Elapsed Time=8.09e+01 s
It 352 (1,4): Time=0.352, Elapsed Time=8.12e+01 s
It 353 (1,4): Time=0.353, Elapsed Time=8.15e+01 s
It 354 (1,4): Time=0.354, Elapsed Time=8.16e+01 s
It 355 (1,4): Time=0.355, Elapsed Time=8.18e+01 s
It 356 (1,4): Time=0.356, Elapsed Time=8.20e+01 s
It 357 (1,4): Time=0.357, Elapsed Time=8.23e+01 s
It 358 (1,4): Time=0.358, Elapsed Time=8.25e+01 s
It 359 (1,4): Time=0.359, Elapsed Time=8.27e+01 s
It 360 (1,4): Time=0.36, Elapsed Time=8.29e+01 s
It 361 (1,4): Time=0.361, Elapsed Time=8.32e+01 s
It 362 (1,4): Time=0.362, Elapsed Time=8.33e+01 s
It 363 (1,4): Time=0.363, Elapsed Time=8.37e+01 s
It 364 (1,4): Time=0.364, Elapsed Time=8.38e+01 s
It 365 (1,4): Time=0.365, Elapsed Time=8.40e+01 s
It 366 (1,4): Time=0.366, Elapsed Time=8.41e+01 s
It 367 (1,4): Time=0.367, Elapsed Time=8.44e+01 s
It 368 (1,4): Time=0.368, Elapsed Time=8.46e+01 s
It 369 (1,4): Time=0.369, Elapsed Time=8.49e+01 s
It 370 (1,4): Time=0.37, Elapsed Time=8.51e+01 s
It 371 (1,4): Time=0.371, Elapsed Time=8.53e+01 s
It 372 (1,4): Time=0.372, Elapsed Time=8.55e+01 s
It 373 (1,4): Time=0.373, Elapsed Time=8.57e+01 s
It 374 (1,4): Time=0.374, Elapsed Time=8.61e+01 s
It 375 (1,4): Time=0.375, Elapsed Time=8.62e+01 s
It 376 (1,4): Time=0.376, Elapsed Time=8.64e+01 s
It 377 (1,4): Time=0.377, Elapsed Time=8.66e+01 s
It 378 (1,4): Time=0.378, Elapsed Time=8.69e+01 s
It 379 (1,4): Time=0.379, Elapsed Time=8.71e+01 s
It 380 (1,4): Time=0.38, Elapsed Time=8.73e+01 s
It 381 (1,4): Time=0.381, Elapsed Time=8.75e+01 s
It 382 (1,4): Time=0.382, Elapsed Time=8.78e+01 s
It 383 (1,4): Time=0.383, Elapsed Time=8.79e+01 s
It 384 (1,4): Time=0.384, Elapsed Time=8.82e+01 s
It 385 (1,4): Time=0.385, Elapsed Time=8.85e+01 s
It 386 (1,4): Time=0.386, Elapsed Time=8.86e+01 s
It 387 (1,4): Time=0.387, Elapsed Time=8.87e+01 s
It 388 (1,4): Time=0.388, Elapsed Time=8.90e+01 s
It 389 (1,4): Time=0.389, Elapsed Time=8.92e+01 s
It 390 (1,4): Time=0.39, Elapsed Time=8.95e+01 s
It 391 (1,3): Time=0.391, Elapsed Time=8.97e+01 s
It 392 (1,4): Time=0.392, Elapsed Time=8.99e+01 s
It 393 (1,4): Time=0.393, Elapsed Time=9.01e+01 s
It 394 (1,3): Time=0.394, Elapsed Time=9.02e+01 s
It 395 (1,3): Time=0.395, Elapsed Time=9.05e+01 s
It 396 (1,3): Time=0.396, Elapsed Time=9.08e+01 s
It 397 (1,3): Time=0.397, Elapsed Time=9.09e+01 s
It 398 (1,3): Time=0.398, Elapsed Time=9.10e+01 s
It 399 (1,4): Time=0.399, Elapsed Time=9.13e+01 s
It 400 (1,3): Time=0.4, Elapsed Time=9.15e+01 s
It 401 (1,3): Time=0.401, Elapsed Time=9.17e+01 s
It 402 (1,3): Time=0.402, Elapsed Time=9.19e+01 s
It 403 (1,3): Time=0.403, Elapsed Time=9.21e+01 s
It 404 (1,3): Time=0.404, Elapsed Time=9.23e+01 s
It 405 (1,3): Time=0.405, Elapsed Time=9.24e+01 s
It 406 (1,3): Time=0.406, Elapsed Time=9.27e+01 s
It 407 (1,3): Time=0.407, Elapsed Time=9.30e+01 s
It 408 (1,3): Time=0.408, Elapsed Time=9.31e+01 s
It 409 (1,3): Time=0.409, Elapsed Time=9.33e+01 s
It 410 (1,3): Time=0.41, Elapsed Time=9.34e+01 s
It 411 (1,3): Time=0.411, Elapsed Time=9.37e+01 s
It 412 (1,3): Time=0.412, Elapsed Time=9.39e+01 s
It 413 (1,3): Time=0.413, Elapsed Time=9.41e+01 s
It 414 (1,3): Time=0.414, Elapsed Time=9.43e+01 s
It 415 (1,4): Time=0.415, Elapsed Time=9.46e+01 s
It 416 (1,3): Time=0.416, Elapsed Time=9.47e+01 s
It 417 (1,3): Time=0.417, Elapsed Time=9.48e+01 s
It 418 (1,3): Time=0.418, Elapsed Time=9.52e+01 s
It 419 (1,3): Time=0.419, Elapsed Time=9.54e+01 s
It 420 (1,3): Time=0.42, Elapsed Time=9.55e+01 s
It 421 (1,3): Time=0.421, Elapsed Time=9.56e+01 s
It 422 (1,3): Time=0.422, Elapsed Time=9.59e+01 s
It 423 (1,3): Time=0.423, Elapsed Time=9.61e+01 s
It 424 (1,3): Time=0.424, Elapsed Time=9.63e+01 s
It 425 (1,3): Time=0.425, Elapsed Time=9.65e+01 s
It 426 (1,3): Time=0.426, Elapsed Time=9.67e+01 s
It 427 (1,4): Time=0.427, Elapsed Time=9.69e+01 s
It 428 (1,4): Time=0.428, Elapsed Time=9.70e+01 s
It 429 (1,3): Time=0.429, Elapsed Time=9.73e+01 s
It 430 (1,4): Time=0.43, Elapsed Time=9.76e+01 s
It 431 (1,4): Time=0.431, Elapsed Time=9.78e+01 s
It 432 (1,3): Time=0.432, Elapsed Time=9.79e+01 s
It 433 (1,4): Time=0.433, Elapsed Time=9.82e+01 s
It 434 (1,3): Time=0.434, Elapsed Time=9.84e+01 s
It 435 (1,3): Time=0.435, Elapsed Time=9.86e+01 s
It 436 (1,4): Time=0.436, Elapsed Time=9.88e+01 s
It 437 (1,4): Time=0.437, Elapsed Time=9.91e+01 s
It 438 (1,3): Time=0.438, Elapsed Time=9.92e+01 s
It 439 (1,3): Time=0.439, Elapsed Time=9.94e+01 s
It 440 (1,3): Time=0.44, Elapsed Time=9.96e+01 s
It 441 (1,3): Time=0.441, Elapsed Time=9.99e+01 s
It 442 (1,3): Time=0.442, Elapsed Time=1.00e+02 s
It 443 (1,3): Time=0.443, Elapsed Time=1.00e+02 s
It 444 (1,3): Time=0.444, Elapsed Time=1.00e+02 s
It 445 (1,3): Time=0.445, Elapsed Time=1.01e+02 s
It 446 (1,3): Time=0.446, Elapsed Time=1.01e+02 s
It 447 (1,3): Time=0.447, Elapsed Time=1.01e+02 s
It 448 (1,3): Time=0.448, Elapsed Time=1.01e+02 s
It 449 (1,3): Time=0.449, Elapsed Time=1.01e+02 s
It 450 (1,3): Time=0.45, Elapsed Time=1.02e+02 s
It 451 (1,3): Time=0.451, Elapsed Time=1.02e+02 s
It 452 (1,3): Time=0.452, Elapsed Time=1.02e+02 s
It 453 (1,3): Time=0.453, Elapsed Time=1.02e+02 s
It 454 (1,3): Time=0.454, Elapsed Time=1.02e+02 s
It 455 (1,3): Time=0.455, Elapsed Time=1.02e+02 s
It 456 (1,4): Time=0.456, Elapsed Time=1.03e+02 s
It 457 (1,4): Time=0.457, Elapsed Time=1.03e+02 s
It 458 (1,3): Time=0.458, Elapsed Time=1.03e+02 s
It 459 (1,3): Time=0.459, Elapsed Time=1.03e+02 s
It 460 (1,3): Time=0.46, Elapsed Time=1.04e+02 s
It 461 (1,3): Time=0.461, Elapsed Time=1.04e+02 s
It 462 (1,3): Time=0.462, Elapsed Time=1.04e+02 s
It 463 (1,3): Time=0.463, Elapsed Time=1.04e+02 s
It 464 (1,4): Time=0.464, Elapsed Time=1.04e+02 s
It 465 (1,3): Time=0.465, Elapsed Time=1.05e+02 s
It 466 (1,3): Time=0.466, Elapsed Time=1.05e+02 s
It 467 (1,3): Time=0.467, Elapsed Time=1.05e+02 s
It 468 (1,3): Time=0.468, Elapsed Time=1.05e+02 s
It 469 (1,3): Time=0.469, Elapsed Time=1.05e+02 s
It 470 (1,3): Time=0.47, Elapsed Time=1.05e+02 s
It 471 (1,3): Time=0.471, Elapsed Time=1.06e+02 s
It 472 (1,3): Time=0.472, Elapsed Time=1.06e+02 s
It 473 (1,3): Time=0.473, Elapsed Time=1.06e+02 s
It 474 (1,3): Time=0.474, Elapsed Time=1.06e+02 s
It 475 (1,3): Time=0.475, Elapsed Time=1.06e+02 s
It 476 (1,3): Time=0.476, Elapsed Time=1.07e+02 s
It 477 (1,3): Time=0.477, Elapsed Time=1.07e+02 s
It 478 (1,3): Time=0.478, Elapsed Time=1.07e+02 s
It 479 (1,3): Time=0.479, Elapsed Time=1.07e+02 s
It 480 (1,3): Time=0.48, Elapsed Time=1.07e+02 s
It 481 (1,3): Time=0.481, Elapsed Time=1.08e+02 s
It 482 (1,3): Time=0.482, Elapsed Time=1.08e+02 s
It 483 (1,3): Time=0.483, Elapsed Time=1.08e+02 s
It 484 (1,3): Time=0.484, Elapsed Time=1.08e+02 s
It 485 (1,3): Time=0.485, Elapsed Time=1.08e+02 s
It 486 (1,3): Time=0.486, Elapsed Time=1.09e+02 s
It 487 (1,3): Time=0.487, Elapsed Time=1.09e+02 s
It 488 (1,3): Time=0.488, Elapsed Time=1.09e+02 s
It 489 (1,3): Time=0.489, Elapsed Time=1.09e+02 s
It 490 (1,3): Time=0.49, Elapsed Time=1.09e+02 s
It 491 (1,3): Time=0.491, Elapsed Time=1.09e+02 s
It 492 (1,3): Time=0.492, Elapsed Time=1.10e+02 s
It 493 (1,3): Time=0.493, Elapsed Time=1.10e+02 s
It 494 (1,3): Time=0.494, Elapsed Time=1.10e+02 s
It 495 (1,3): Time=0.495, Elapsed Time=1.10e+02 s
It 496 (1,3): Time=0.496, Elapsed Time=1.10e+02 s
It 497 (1,3): Time=0.497, Elapsed Time=1.11e+02 s
It 498 (1,3): Time=0.498, Elapsed Time=1.11e+02 s
It 499 (1,3): Time=0.499, Elapsed Time=1.11e+02 s
It 500 (1,3): Time=0.5, Elapsed Time=1.11e+02 s
Wrote solution 0 to 'postpro/Pressure.bin'
Wrote solution 0 to 'references/Solution.bin'
Wrote solution 1 to 'references/Solution.bin'
Wrote solution 0 to 'references/DEFAULT.POS'
Wrote solution 1 to 'references/DEFAULT.POS'
Wrote solution 0 to 'references/DEFAULT.FID'

----------------------------------------------------------------------
Elapsed Time Report (s)       :        Min        Max        Avg   # Calls

Problem Setup                 :       1.67       1.71       1.68         1

Fluid Solution                :      51.49      51.65      51.56         -
  Time Steps                  :       0.21       0.28       0.25       500
  Nodal Weights and Gradients :       1.37       1.87       1.62      3485
  FV Fluxes                   :       3.78       4.76       4.01      2484
  FE Fluxes                   :       0.09       1.04       0.88      2484
  FV Jacobian                 :       0.21       4.15       3.60      3968
  FE Jacobian                 :       0.17       4.08       3.50      3968
  VMS-LES Modeling            :       0.00       0.00       0.00         0
  Dynamic VMS-LES Modeling    :       0.00       0.00       0.00         0
  H2 Matrix Assembly          :       0.00       0.00       0.00         0
  Preconditioner Setup        :       1.61       1.81       1.70      1984
  Linear Solver               :      27.67      29.65      28.53      3968
  Mesh Metrics Update         :       0.34       0.42       0.37       500
  Wall Distance Computation   :      41.93      42.57      42.33       500

Mesh Solution                 :       0.02       0.02       0.02         -
  K Matrix Assembly           :       0.00       0.00       0.00         0
  Preconditioner Setup        :       0.00       0.00       0.00         0
  Linear Solver               :       0.00       0.00       0.00         0

Communication/Synchronization :      71.66      92.54      82.55         -
  Local                       :      10.98      35.94      20.62         -
  Global                      :      50.02      68.87      59.90         -
  RMA                         :       1.59       3.13       2.02         -
  Inter                       :       0.00       0.00       0.00         0

I/O                           :       2.04       6.33       4.48         -
  Binary Read                 :       0.00       0.00       0.00         0
  Binary Write                :       2.04       6.33       4.48         6

Total Simulation              :     120.91     122.53     121.52         -
----------------------------------------------------------------------
