# TimeIteration ElapsedTime RelativeResidual CflNumber
0 0.000000e+00 1.000000e+00 0.000000e+00
1 1.420627e+00 6.626281e-01 2.000000e+00
2 1.456742e+00 4.775036e-01 2.000000e+00
3 1.498363e+00 3.145829e-01 4.000000e+00
4 1.543118e+00 2.047066e-01 6.000000e+00
5 1.614498e+00 1.317273e-01 8.000000e+00
6 1.662039e+00 8.569685e-02 1.000000e+01
7 1.686951e+00 5.840545e-02 1.200000e+01
8 1.727935e+00 4.308000e-02 1.400000e+01
9 1.860975e+00 3.443321e-02 1.600000e+01
10 1.884227e+00 2.881546e-02 1.800000e+01
11 1.908757e+00 2.483371e-02 2.000000e+01
12 1.935103e+00 2.208081e-02 2.200000e+01
13 1.961114e+00 2.007890e-02 2.400000e+01
14 1.987087e+00 1.836952e-02 2.600000e+01
15 2.014233e+00 1.671313e-02 2.800000e+01
16 2.043644e+00 1.505903e-02 3.000000e+01
17 2.072213e+00 1.342541e-02 3.200000e+01
18 2.103044e+00 1.182865e-02 3.400000e+01
19 2.133208e+00 1.027894e-02 3.600000e+01
20 2.164821e+00 8.793293e-03 3.800000e+01
21 2.198092e+00 7.399004e-03 4.000000e+01
22 2.251787e+00 6.124925e-03 4.200000e+01
23 2.314311e+00 4.989053e-03 4.400000e+01
24 2.443377e+00 3.993710e-03 4.600000e+01
25 2.521184e+00 3.133606e-03 4.800000e+01
26 2.577073e+00 2.411227e-03 5.000000e+01
27 2.616270e+00 1.846689e-03 5.200000e+01
28 2.657043e+00 1.466583e-03 5.400000e+01
29 2.699595e+00 1.263959e-03 5.600000e+01
30 2.742703e+00 1.170534e-03 5.800000e+01
31 2.812848e+00 1.102741e-03 6.000000e+01
32 2.956431e+00 1.018132e-03 6.200000e+01
33 3.070831e+00 9.189383e-04 6.400000e+01
34 3.135172e+00 8.293666e-04 6.600000e+01
35 3.181522e+00 7.700758e-04 6.800000e+01
36 3.227941e+00 7.408203e-04 7.000000e+01
37 3.339150e+00 7.234390e-04 7.200000e+01
38 3.495397e+00 6.986388e-04 7.400000e+01
39 3.785984e+00 6.572769e-04 7.600000e+01
40 3.922927e+00 6.014855e-04 7.800000e+01
41 4.000351e+00 5.410613e-04 8.000000e+01
42 4.092913e+00 4.882224e-04 8.200000e+01
43 4.154177e+00 4.517884e-04 8.400000e+01
44 4.207077e+00 4.332224e-04 8.600000e+01
45 4.259930e+00 4.278375e-04 8.800000e+01
46 4.314610e+00 4.298531e-04 9.000000e+01
47 4.369810e+00 4.359534e-04 9.200000e+01
48 4.424990e+00 4.454089e-04 9.400000e+01
49 4.480108e+00 4.585413e-04 9.600000e+01
50 4.559267e+00 4.754601e-04 9.800000e+01
51 4.711647e+00 4.956784e-04 1.000000e+02
52 4.861459e+00 5.175453e-04 1.000000e+02
53 4.925714e+00 5.405148e-04 1.000000e+02
54 4.983059e+00 5.636604e-04 1.000000e+02
55 5.041020e+00 5.861575e-04 1.000000e+02
56 5.155986e+00 6.072532e-04 1.000000e+02
57 5.280989e+00 6.262471e-04 1.000000e+02
58 5.445764e+00 6.425038e-04 1.000000e+02
59 5.925418e+00 6.554870e-04 1.000000e+02
60 6.026836e+00 6.647947e-04 1.000000e+02
61 6.116259e+00 6.701879e-04 1.000000e+02
62 6.231558e+00 6.716075e-04 1.000000e+02
63 6.334559e+00 6.691735e-04 1.000000e+02
64 6.431123e+00 6.631668e-04 1.000000e+02
65 6.488730e+00 6.539953e-04 1.000000e+02
66 6.546147e+00 6.421529e-04 1.000000e+02
67 6.603658e+00 6.281697e-04 1.000000e+02
68 6.661104e+00 6.125837e-04 1.000000e+02
69 6.718340e+00 5.958934e-04 1.000000e+02
70 6.775706e+00 5.785268e-04 1.000000e+02
71 6.854588e+00 5.608644e-04 1.000000e+02
72 6.986341e+00 5.432186e-04 1.000000e+02
73 7.144965e+00 5.258383e-04 1.000000e+02
74 7.231377e+00 5.089143e-04 1.000000e+02
75 7.288867e+00 4.925750e-04 1.000000e+02
76 7.348918e+00 4.769160e-04 1.000000e+02
77 7.457521e+00 4.619954e-04 1.000000e+02
78 7.651688e+00 4.478507e-04 1.000000e+02
79 7.737630e+00 4.345001e-04 1.000000e+02
80 7.794880e+00 4.219335e-04 1.000000e+02
81 7.863926e+00 4.101321e-04 1.000000e+02
82 8.037030e+00 3.990614e-04 1.000000e+02
83 8.191107e+00 3.887032e-04 1.000000e+02
84 8.295232e+00 3.790220e-04 1.000000e+02
85 8.399099e+00 3.699780e-04 1.000000e+02
86 8.537331e+00 3.615364e-04 1.000000e+02
87 8.640890e+00 3.536762e-04 1.000000e+02
88 8.738847e+00 3.463596e-04 1.000000e+02
89 8.799189e+00 3.395441e-04 1.000000e+02
90 8.859341e+00 3.331942e-04 1.000000e+02
91 8.920162e+00 3.272744e-04 1.000000e+02
92 8.980372e+00 3.217556e-04 1.000000e+02
93 9.040444e+00 3.166092e-04 1.000000e+02
94 9.100596e+00 3.118097e-04 1.000000e+02
95 9.185074e+00 3.073335e-04 1.000000e+02
96 9.405500e+00 3.031592e-04 1.000000e+02
97 9.514630e+00 2.992556e-04 1.000000e+02
98 9.574804e+00 2.955874e-04 1.000000e+02
99 9.635075e+00 2.921292e-04 1.000000e+02
100 9.718060e+00 2.888607e-04 1.000000e+02
101 9.946535e+00 2.857563e-04 1.000000e+02
102 1.005756e+01 2.827924e-04 1.000000e+02
103 1.011877e+01 2.799517e-04 1.000000e+02
104 1.021193e+01 2.772256e-04 1.000000e+02
105 1.050905e+01 2.746086e-04 1.000000e+02
106 1.060346e+01 2.720832e-04 1.000000e+02
107 1.071691e+01 2.696323e-04 1.000000e+02
108 1.083401e+01 2.672462e-04 1.000000e+02
109 1.092867e+01 2.649161e-04 1.000000e+02
110 1.103913e+01 2.626340e-04 1.000000e+02
111 1.109958e+01 2.603968e-04 1.000000e+02
112 1.115980e+01 2.582015e-04 1.000000e+02
113 1.121996e+01 2.560445e-04 1.000000e+02
114 1.128012e+01 2.539213e-04 1.000000e+02
115 1.134026e+01 2.518313e-04 1.000000e+02
116 1.140109e+01 2.497735e-04 1.000000e+02
117 1.148536e+01 2.477419e-04 1.000000e+02
118 1.169813e+01 2.457295e-04 1.000000e+02
119 1.179032e+01 2.437293e-04 1.000000e+02
120 1.187817e+01 2.417303e-04 1.000000e+02
121 1.193880e+01 2.397208e-04 1.000000e+02
122 1.204329e+01 2.376911e-04 1.000000e+02
123 1.222332e+01 2.356325e-04 1.000000e+02
124 1.235464e+01 2.335343e-04 1.000000e+02
125 1.241482e+01 2.313854e-04 1.000000e+02
126 1.251786e+01 2.291731e-04 1.000000e+02
127 1.274855e+01 2.268836e-04 1.000000e+02
128 1.283124e+01 2.245053e-04 1.000000e+02
129 1.294394e+01 2.220289e-04 1.000000e+02
130 1.304894e+01 2.194459e-04 1.000000e+02
131 1.317977e+01 2.167508e-04 1.000000e+02
132 1.327317e+01 2.139423e-04 1.000000e+02
133 1.336523e+01 2.110229e-04 1.000000e+02
134 1.342903e+01 2.079945e-04 1.000000e+02
135 1.349224e+01 2.048556e-04 1.000000e+02
136 1.355546e+01 2.016034e-04 1.000000e+02
137 1.361868e+01 1.982371e-04 1.000000e+02
138 1.368176e+01 1.947621e-04 1.000000e+02
139 1.376658e+01 1.911883e-04 1.000000e+02
140 1.390704e+01 1.875283e-04 1.000000e+02
141 1.404946e+01 1.837942e-04 1.000000e+02
142 1.416330e+01 1.799966e-04 1.000000e+02
143 1.422636e+01 1.761444e-04 1.000000e+02
144 1.431376e+01 1.722465e-04 1.000000e+02
145 1.452318e+01 1.683126e-04 1.000000e+02
146 1.464208e+01 1.643545e-04 1.000000e+02
147 1.470524e+01 1.603863e-04 1.000000e+02
148 1.480623e+01 1.564227e-04 1.000000e+02
149 1.503261e+01 1.524778e-04 1.000000e+02
150 1.512661e+01 1.485649e-04 1.000000e+02
151 1.524318e+01 1.446958e-04 1.000000e+02
152 1.535108e+01 1.408804e-04 1.000000e+02
153 1.548247e+01 1.371269e-04 1.000000e+02
154 1.558041e+01 1.334424e-04 1.000000e+02
155 1.567208e+01 1.298326e-04 1.000000e+02
156 1.573570e+01 1.263025e-04 1.000000e+02
157 1.579875e+01 1.228561e-04 1.000000e+02
158 1.586187e+01 1.194964e-04 1.000000e+02
159 1.593437e+01 1.162256e-04 1.000000e+02
160 1.599878e+01 1.130449e-04 1.000000e+02
161 1.608730e+01 1.099547e-04 1.000000e+02
162 1.630238e+01 1.069547e-04 1.000000e+02
163 1.642012e+01 1.040438e-04 1.000000e+02
164 1.648326e+01 1.012208e-04 1.000000e+02
165 1.654666e+01 9.848384e-05 1.000000e+02
166 1.665785e+01 9.583112e-05 1.000000e+02
167 1.681779e+01 9.326059e-05 1.000000e+02
168 1.694678e+01 9.077009e-05 1.000000e+02
169 1.701163e+01 8.835743e-05 1.000000e+02
170 1.715580e+01 8.602032e-05 1.000000e+02
171 1.734136e+01 8.375642e-05 1.000000e+02
172 1.742636e+01 8.156342e-05 1.000000e+02
173 1.754354e+01 7.943898e-05 1.000000e+02
174 1.765219e+01 7.738077e-05 1.000000e+02
175 1.775963e+01 7.538648e-05 1.000000e+02
176 1.786671e+01 7.345384e-05 1.000000e+02
177 1.796930e+01 7.158060e-05 1.000000e+02
178 1.803239e+01 6.976460e-05 1.000000e+02
179 1.809542e+01 6.800370e-05 1.000000e+02
180 1.815939e+01 6.629585e-05 1.000000e+02
181 1.822254e+01 6.463908e-05 1.000000e+02
182 1.828568e+01 6.303147e-05 1.000000e+02
183 1.837010e+01 6.147119e-05 1.000000e+02
184 1.851436e+01 5.995649e-05 1.000000e+02
185 1.869756e+01 5.848568e-05 1.000000e+02
186 1.876100e+01 5.705716e-05 1.000000e+02
187 1.882410e+01 5.566940e-05 1.000000e+02
188 1.891170e+01 5.432106e-05 1.000000e+02
189 1.905519e+01 5.301054e-05 1.000000e+02
190 1.919174e+01 5.173656e-05 1.000000e+02
191 1.928322e+01 5.049794e-05 1.000000e+02
192 1.938225e+01 4.929333e-05 1.000000e+02
193 1.957868e+01 4.812173e-05 1.000000e+02
194 1.966635e+01 4.698205e-05 1.000000e+02
195 1.977921e+01 4.587323e-05 1.000000e+02
196 1.988990e+01 4.479427e-05 1.000000e+02
197 2.001323e+01 4.374424e-05 1.000000e+02
198 2.013235e+01 4.272221e-05 1.000000e+02
199 2.024615e+01 4.172733e-05 1.000000e+02
200 2.030978e+01 4.075875e-05 1.000000e+02
201 2.037277e+01 3.981568e-05 1.000000e+02
202 2.043634e+01 3.889735e-05 1.000000e+02
203 2.049943e+01 3.800303e-05 1.000000e+02
204 2.056269e+01 3.713202e-05 1.000000e+02
205 2.062609e+01 3.628363e-05 1.000000e+02
206 2.071492e+01 3.545723e-05 1.000000e+02
207 2.093652e+01 3.465217e-05 1.000000e+02
208 2.102786e+01 3.386786e-05 1.000000e+02
209 2.109088e+01 3.310372e-05 1.000000e+02
210 2.115573e+01 3.235918e-05 1.000000e+02
211 2.128593e+01 3.163373e-05 1.000000e+02
212 2.145077e+01 3.092679e-05 1.000000e+02
213 2.155820e+01 3.023786e-05 1.000000e+02
214 2.163347e+01 2.956647e-05 1.000000e+02
215 2.181042e+01 2.891213e-05 1.000000e+02
216 2.194892e+01 2.827439e-05 1.000000e+02
217 2.203465e+01 2.765279e-05 1.000000e+02
218 2.215194e+01 2.704691e-05 1.000000e+02
219 2.227577e+01 2.645632e-05 1.000000e+02
220 2.239506e+01 2.588063e-05 1.000000e+02
221 2.249137e+01 2.531944e-05 1.000000e+02
222 2.258293e+01 2.477237e-05 1.000000e+02
223 2.264622e+01 2.423904e-05 1.000000e+02
224 2.270923e+01 2.371909e-05 1.000000e+02
225 2.277240e+01 2.321217e-05 1.000000e+02
226 2.283553e+01 2.271795e-05 1.000000e+02
227 2.289886e+01 2.223609e-05 1.000000e+02
228 2.299471e+01 2.176627e-05 1.000000e+02
229 2.319656e+01 2.130818e-05 1.000000e+02
230 2.331160e+01 2.086152e-05 1.000000e+02
231 2.337475e+01 2.042599e-05 1.000000e+02
232 2.343873e+01 2.000130e-05 1.000000e+02
233 2.354665e+01 1.958718e-05 1.000000e+02
234 2.370229e+01 1.918335e-05 1.000000e+02
235 2.380713e+01 1.878954e-05 1.000000e+02
236 2.390855e+01 1.840551e-05 1.000000e+02
237 2.403773e+01 1.803100e-05 1.000000e+02
238 2.419172e+01 1.766577e-05 1.000000e+02
239 2.428003e+01 1.730958e-05 1.000000e+02
240 2.438729e+01 1.696219e-05 1.000000e+02
241 2.449428e+01 1.662340e-05 1.000000e+02
242 2.461614e+01 1.629296e-05 1.000000e+02
243 2.473385e+01 1.597068e-05 1.000000e+02
244 2.484012e+01 1.565636e-05 1.000000e+02
245 2.491166e+01 1.534977e-05 1.000000e+02
246 2.497496e+01 1.505074e-05 1.000000e+02
247 2.503839e+01 1.475906e-05 1.000000e+02
248 2.510240e+01 1.447456e-05 1.000000e+02
249 2.516639e+01 1.419705e-05 1.000000e+02
250 2.523075e+01 1.392635e-05 1.000000e+02
251 2.537215e+01 1.366229e-05 1.000000e+02
252 2.554742e+01 1.340471e-05 1.000000e+02
253 2.563892e+01 1.315343e-05 1.000000e+02
254 2.570285e+01 1.290831e-05 1.000000e+02
255 2.578950e+01 1.266917e-05 1.000000e+02
256 2.591935e+01 1.243588e-05 1.000000e+02
257 2.607048e+01 1.220829e-05 1.000000e+02
258 2.618409e+01 1.198626e-05 1.000000e+02
259 2.627910e+01 1.176963e-05 1.000000e+02
260 2.642377e+01 1.155827e-05 1.000000e+02
261 2.655985e+01 1.135205e-05 1.000000e+02
262 2.666407e+01 1.115085e-05 1.000000e+02
263 2.676629e+01 1.095452e-05 1.000000e+02
264 2.688833e+01 1.076296e-05 1.000000e+02
265 2.698733e+01 1.057603e-05 1.000000e+02
266 2.709481e+01 1.039363e-05 1.000000e+02
267 2.719675e+01 1.021562e-05 1.000000e+02
268 2.726015e+01 1.004191e-05 1.000000e+02
269 2.732324e+01 9.872390e-06 1.000000e+02
270 2.738641e+01 9.706945e-06 1.000000e+02
271 2.744964e+01 9.545486e-06 1.000000e+02
272 2.751286e+01 9.387898e-06 1.000000e+02
273 2.759978e+01 9.234084e-06 1.000000e+02
274 2.778454e+01 9.083946e-06 1.000000e+02
275 2.791060e+01 8.937389e-06 1.000000e+02
276 2.797410e+01 8.794326e-06 1.000000e+02
277 2.803737e+01 8.654666e-06 1.000000e+02
278 2.814627e+01 8.518320e-06 1.000000e+02
279 2.832502e+01 8.385205e-06 1.000000e+02
280 2.842298e+01 8.255243e-06 1.000000e+02
281 2.853614e+01 8.128348e-06 1.000000e+02
282 2.868734e+01 8.004439e-06 1.000000e+02
283 2.885080e+01 7.883446e-06 1.000000e+02
284 2.893768e+01 7.765283e-06 1.000000e+02
285 2.905468e+01 7.649880e-06 1.000000e+02
286 2.916067e+01 7.537170e-06 1.000000e+02
287 2.926705e+01 7.427076e-06 1.000000e+02
288 2.937050e+01 7.319535e-06 1.000000e+02
289 2.947558e+01 7.214482e-06 1.000000e+02
290 2.954699e+01 7.111853e-06 1.000000e+02
291 2.961019e+01 7.011583e-06 1.000000e+02
292 2.967503e+01 6.913613e-06 1.000000e+02
293 2.973980e+01 6.817881e-06 1.000000e+02
294 2.980449e+01 6.724328e-06 1.000000e+02
295 2.989169e+01 6.632901e-06 1.000000e+02
296 3.008705e+01 6.543542e-06 1.000000e+02
297 3.021022e+01 6.456195e-06 1.000000e+02
298 3.027321e+01 6.370808e-06 1.000000e+02
299 3.033796e+01 6.287329e-06 1.000000e+02
300 3.044843e+01 6.205709e-06 1.000000e+02
301 3.063862e+01 6.125898e-06 1.000000e+02
302 3.074501e+01 6.047848e-06 1.000000e+02
303 3.084991e+01 5.971508e-06 1.000000e+02
304 3.103401e+01 5.896836e-06 1.000000e+02
305 3.115806e+01 5.823792e-06 1.000000e+02
306 3.124363e+01 5.752332e-06 1.000000e+02
307 3.137177e+01 5.682415e-06 1.000000e+02
308 3.148321e+01 5.613998e-06 1.000000e+02
309 3.160369e+01 5.547042e-06 1.000000e+02
310 3.175431e+01 5.481507e-06 1.000000e+02
311 3.196904e+01 5.417354e-06 1.000000e+02
312 3.203216e+01 5.354547e-06 1.000000e+02
313 3.209533e+01 5.293052e-06 1.000000e+02
314 3.218094e+01 5.232831e-06 1.000000e+02
315 3.239344e+01 5.173852e-06 1.000000e+02
316 3.250738e+01 5.116081e-06 1.000000e+02
317 3.257046e+01 5.059486e-06 1.000000e+02
318 3.263695e+01 5.004034e-06 1.000000e+02
319 3.274813e+01 4.949697e-06 1.000000e+02
320 3.291531e+01 4.896443e-06 1.000000e+02
321 3.302274e+01 4.844245e-06 1.000000e+02
322 3.314581e+01 4.793072e-06 1.000000e+02
323 3.337207e+01 4.742897e-06 1.000000e+02
324 3.347371e+01 4.693695e-06 1.000000e+02
325 3.358097e+01 4.645437e-06 1.000000e+02
326 3.367906e+01 4.598099e-06 1.000000e+02
327 3.379204e+01 4.551655e-06 1.000000e+02
328 3.390000e+01 4.506082e-06 1.000000e+02
329 3.401750e+01 4.461357e-06 1.000000e+02
330 3.410771e+01 4.417458e-06 1.000000e+02
331 3.417074e+01 4.374363e-06 1.000000e+02
332 3.423369e+01 4.332039e-06 1.000000e+02
333 3.429678e+01 4.290477e-06 1.000000e+02
334 3.435982e+01 4.249654e-06 1.000000e+02
335 3.442464e+01 4.209553e-06 1.000000e+02
336 3.456444e+01 4.170154e-06 1.000000e+02
337 3.473079e+01 4.131439e-06 1.000000e+02
338 3.483190e+01 4.093389e-06 1.000000e+02
339 3.489494e+01 4.055985e-06 1.000000e+02
340 3.497036e+01 4.019214e-06 1.000000e+02
341 3.509778e+01 3.983057e-06 1.000000e+02
342 3.525698e+01 3.947500e-06 1.000000e+02
343 3.536394e+01 3.912527e-06 1.000000e+02
344 3.552406e+01 3.878117e-06 1.000000e+02
345 3.569278e+01 3.844255e-06 1.000000e+02
346 3.578462e+01 3.810929e-06 1.000000e+02
347 3.589254e+01 3.778125e-06 1.000000e+02
348 3.600201e+01 3.745825e-06 1.000000e+02
349 3.611491e+01 3.714020e-06 1.000000e+02
350 3.624150e+01 3.682695e-06 1.000000e+02
351 3.635036e+01 3.651838e-06 1.000000e+02
352 3.642110e+01 3.621437e-06 1.000000e+02
353 3.648638e+01 3.591479e-06 1.000000e+02
354 3.654963e+01 3.561952e-06 1.000000e+02
355 3.661286e+01 3.532847e-06 1.000000e+02
356 3.667875e+01 3.504152e-06 1.000000e+02
357 3.675377e+01 3.475857e-06 1.000000e+02
358 3.688844e+01 3.447952e-06 1.000000e+02
359 3.706552e+01 3.420426e-06 1.000000e+02
360 3.715730e+01 3.393269e-06 1.000000e+02
361 3.722038e+01 3.366472e-06 1.000000e+02
362 3.730865e+01 3.340026e-06 1.000000e+02
363 3.770065e+01 3.313923e-06 1.000000e+02
364 3.782952e+01 3.288152e-06 1.000000e+02
365 3.797785e+01 3.262705e-06 1.000000e+02
366 3.809043e+01 3.237577e-06 1.000000e+02
367 3.819799e+01 3.212760e-06 1.000000e+02
368 3.830524e+01 3.188244e-06 1.000000e+02
369 3.842734e+01 3.164019e-06 1.000000e+02
370 3.854569e+01 3.140080e-06 1.000000e+02
371 3.865938e+01 3.116418e-06 1.000000e+02
372 3.872287e+01 3.093028e-06 1.000000e+02
373 3.878642e+01 3.069903e-06 1.000000e+02
374 3.884946e+01 3.047038e-06 1.000000e+02
375 3.891383e+01 3.024425e-06 1.000000e+02
376 3.897950e+01 3.002060e-06 1.000000e+02
377 3.904417e+01 2.979935e-06 1.000000e+02
378 3.918188e+01 2.958044e-06 1.000000e+02
379 3.934949e+01 2.936384e-06 1.000000e+02
380 3.945133e+01 2.914951e-06 1.000000e+02
381 3.953897e+01 2.893735e-06 1.000000e+02
382 3.965789e+01 2.872732e-06 1.000000e+02
383 3.978609e+01 2.851938e-06 1.000000e+02
384 3.990385e+01 2.831348e-06 1.000000e+02
385 4.004358e+01 2.810957e-06 1.000000e+02
386 4.024726e+01 2.790762e-06 1.000000e+02
387 4.035508e+01 2.770759e-06 1.000000e+02
388 4.044928e+01 2.750942e-06 1.000000e+02
389 4.056683e+01 2.731306e-06 1.000000e+02
390 4.069301e+01 2.711847e-06 1.000000e+02
391 4.081311e+01 2.692567e-06 1.000000e+02
392 4.091857e+01 2.673456e-06 1.000000e+02
393 4.100018e+01 2.654509e-06 1.000000e+02
394 4.106335e+01 2.635726e-06 1.000000e+02
395 4.112669e+01 2.617105e-06 1.000000e+02
396 4.118973e+01 2.598640e-06 1.000000e+02
397 4.125273e+01 2.580327e-06 1.000000e+02
398 4.131576e+01 2.562164e-06 1.000000e+02
399 4.140347e+01 2.544147e-06 1.000000e+02
400 4.158011e+01 2.526274e-06 1.000000e+02
401 4.171484e+01 2.508543e-06 1.000000e+02
402 4.179847e+01 2.490950e-06 1.000000e+02
403 4.191735e+01 2.473493e-06 1.000000e+02
404 4.222996e+01 2.456170e-06 1.000000e+02
405 4.240923e+01 2.438978e-06 1.000000e+02
406 4.257479e+01 2.421913e-06 1.000000e+02
407 4.270687e+01 2.404975e-06 1.000000e+02
408 4.282502e+01 2.388161e-06 1.000000e+02
409 4.294011e+01 2.371469e-06 1.000000e+02
410 4.302637e+01 2.354897e-06 1.000000e+02
411 4.314469e+01 2.338446e-06 1.000000e+02
412 4.324867e+01 2.322102e-06 1.000000e+02
413 4.331681e+01 2.305875e-06 1.000000e+02
414 4.337756e+01 2.289762e-06 1.000000e+02
415 4.343833e+01 2.273759e-06 1.000000e+02
416 4.349927e+01 2.257864e-06 1.000000e+02
417 4.355997e+01 2.242074e-06 1.000000e+02
418 4.362074e+01 2.226389e-06 1.000000e+02
419 4.370547e+01 2.210807e-06 1.000000e+02
420 4.385202e+01 2.195326e-06 1.000000e+02
421 4.398605e+01 2.179945e-06 1.000000e+02
422 4.410446e+01 2.164663e-06 1.000000e+02
423 4.420150e+01 2.149478e-06 1.000000e+02
424 4.429571e+01 2.134389e-06 1.000000e+02
425 4.441675e+01 2.119395e-06 1.000000e+02
426 4.454310e+01 2.104493e-06 1.000000e+02
427 4.470577e+01 2.089683e-06 1.000000e+02
428 4.487286e+01 2.074964e-06 1.000000e+02
429 4.499791e+01 2.060335e-06 1.000000e+02
430 4.511329e+01 2.045794e-06 1.000000e+02
431 4.520930e+01 2.031341e-06 1.000000e+02
432 4.529968e+01 2.016975e-06 1.000000e+02
433 4.541681e+01 2.002695e-06 1.000000e+02
434 4.553825e+01 1.988499e-06 1.000000e+02
435 4.559907e+01 1.974387e-06 1.000000e+02
436 4.565980e+01 1.960359e-06 1.000000e+02
437 4.572047e+01 1.946412e-06 1.000000e+02
438 4.578243e+01 1.932546e-06 1.000000e+02
439 4.584313e+01 1.918765e-06 1.000000e+02
440 4.590522e+01 1.905059e-06 1.000000e+02
441 4.599386e+01 1.891429e-06 1.000000e+02
442 4.612506e+01 1.877877e-06 1.000000e+02
443 4.626530e+01 1.864402e-06 1.000000e+02
444 4.638519e+01 1.851004e-06 1.000000e+02
445 4.648244e+01 1.837681e-06 1.000000e+02
446 4.660689e+01 1.824433e-06 1.000000e+02
447 4.670986e+01 1.811259e-06 1.000000e+02
448 4.684282e+01 1.798159e-06 1.000000e+02
449 4.697989e+01 1.785132e-06 1.000000e+02
450 4.714256e+01 1.772177e-06 1.000000e+02
451 4.722879e+01 1.759295e-06 1.000000e+02
452 4.736455e+01 1.746484e-06 1.000000e+02
453 4.746989e+01 1.733744e-06 1.000000e+02
454 4.758932e+01 1.721075e-06 1.000000e+02
455 4.770315e+01 1.708478e-06 1.000000e+02
456 4.781459e+01 1.695949e-06 1.000000e+02
457 4.787521e+01 1.683490e-06 1.000000e+02
458 4.793676e+01 1.671099e-06 1.000000e+02
459 4.799817e+01 1.658776e-06 1.000000e+02
460 4.805966e+01 1.646521e-06 1.000000e+02
461 4.812183e+01 1.634334e-06 1.000000e+02
462 4.818315e+01 1.622214e-06 1.000000e+02
463 4.824633e+01 1.610162e-06 1.000000e+02
464 4.835202e+01 1.598176e-06 1.000000e+02
465 4.853282e+01 1.586256e-06 1.000000e+02
466 4.863719e+01 1.574402e-06 1.000000e+02
467 4.876008e+01 1.562614e-06 1.000000e+02
468 4.885662e+01 1.550890e-06 1.000000e+02
469 4.898823e+01 1.539232e-06 1.000000e+02
470 4.910672e+01 1.527640e-06 1.000000e+02
471 4.927300e+01 1.516112e-06 1.000000e+02
472 4.942116e+01 1.504647e-06 1.000000e+02
473 4.951910e+01 1.493246e-06 1.000000e+02
474 4.966212e+01 1.481908e-06 1.000000e+02
475 4.975939e+01 1.470634e-06 1.000000e+02
476 4.990171e+01 1.459422e-06 1.000000e+02
477 5.001766e+01 1.448274e-06 1.000000e+02
478 5.010696e+01 1.437189e-06 1.000000e+02
479 5.017060e+01 1.426166e-06 1.000000e+02
480 5.023204e+01 1.415205e-06 1.000000e+02
481 5.029429e+01 1.404305e-06 1.000000e+02
482 5.035560e+01 1.393467e-06 1.000000e+02
483 5.041762e+01 1.382691e-06 1.000000e+02
484 5.047904e+01 1.371977e-06 1.000000e+02
485 5.054212e+01 1.361323e-06 1.000000e+02
486 5.064979e+01 1.350730e-06 1.000000e+02
487 5.081517e+01 1.340198e-06 1.000000e+02
488 5.093100e+01 1.329726e-06 1.000000e+02
489 5.105499e+01 1.319316e-06 1.000000e+02
490 5.115279e+01 1.308965e-06 1.000000e+02
491 5.127352e+01 1.298674e-06 1.000000e+02
492 5.139100e+01 1.288442e-06 1.000000e+02
493 5.157037e+01 1.278271e-06 1.000000e+02
494 5.169449e+01 1.268159e-06 1.000000e+02
495 5.181227e+01 1.258106e-06 1.000000e+02
496 5.193683e+01 1.248113e-06 1.000000e+02
497 5.205437e+01 1.238179e-06 1.000000e+02
498 5.218695e+01 1.228304e-06 1.000000e+02
499 5.229315e+01 1.218488e-06 1.000000e+02
500 5.239487e+01 1.208731e-06 1.000000e+02
501 5.245734e+01 1.199033e-06 1.000000e+02
502 5.251876e+01 1.189393e-06 1.000000e+02
503 5.258013e+01 1.179811e-06 1.000000e+02
504 5.264171e+01 1.170287e-06 1.000000e+02
505 5.270311e+01 1.160820e-06 1.000000e+02
506 5.276455e+01 1.151412e-06 1.000000e+02
507 5.282748e+01 1.142060e-06 1.000000e+02
508 5.293455e+01 1.132767e-06 1.000000e+02
509 5.307395e+01 1.123530e-06 1.000000e+02
510 5.319632e+01 1.114351e-06 1.000000e+02
511 5.331448e+01 1.105228e-06 1.000000e+02
512 5.342905e+01 1.096163e-06 1.000000e+02
513 5.352644e+01 1.087154e-06 1.000000e+02
514 5.364626e+01 1.078202e-06 1.000000e+02
515 5.381925e+01 1.069308e-06 1.000000e+02
516 5.392267e+01 1.060468e-06 1.000000e+02
517 5.406500e+01 1.051684e-06 1.000000e+02
518 5.415749e+01 1.042957e-06 1.000000e+02
519 5.427022e+01 1.034286e-06 1.000000e+02
520 5.436543e+01 1.025671e-06 1.000000e+02
521 5.453497e+01 1.017112e-06 1.000000e+02
522 5.462915e+01 1.008607e-06 1.000000e+02
523 5.470487e+01 1.000158e-06 1.000000e+02
524 5.476399e+01 9.917652e-07 1.000000e+02
525 5.482311e+01 9.834269e-07 1.000000e+02
526 5.488216e+01 9.751434e-07 1.000000e+02
527 5.494133e+01 9.669145e-07 1.000000e+02
528 5.500056e+01 9.587400e-07 1.000000e+02
529 5.506015e+01 9.506198e-07 1.000000e+02
530 5.511972e+01 9.425535e-07 1.000000e+02
531 5.520147e+01 9.345411e-07 1.000000e+02
532 5.533402e+01 9.265827e-07 1.000000e+02
533 5.547539e+01 9.186780e-07 1.000000e+02
534 5.559345e+01 9.108270e-07 1.000000e+02
535 5.570887e+01 9.030294e-07 1.000000e+02
536 5.580205e+01 8.952851e-07 1.000000e+02
537 5.592924e+01 8.875938e-07 1.000000e+02
538 5.606538e+01 8.799555e-07 1.000000e+02
539 5.619829e+01 8.723701e-07 1.000000e+02
540 5.636449e+01 8.648373e-07 1.000000e+02
541 5.645893e+01 8.573570e-07 1.000000e+02
542 5.657858e+01 8.499290e-07 1.000000e+02
543 5.667543e+01 8.425530e-07 1.000000e+02
544 5.685714e+01 8.352291e-07 1.000000e+02
545 5.696494e+01 8.279569e-07 1.000000e+02
546 5.702591e+01 8.207362e-07 1.000000e+02
547 5.708498e+01 8.135671e-07 1.000000e+02
548 5.714471e+01 8.064491e-07 1.000000e+02
549 5.720382e+01 7.993822e-07 1.000000e+02
550 5.726335e+01 7.923661e-07 1.000000e+02
551 5.732242e+01 7.854008e-07 1.000000e+02
552 5.738156e+01 7.784863e-07 1.000000e+02
553 5.744097e+01 7.716219e-07 1.000000e+02
554 5.752347e+01 7.648076e-07 1.000000e+02
555 5.768808e+01 7.580433e-07 1.000000e+02
556 5.780647e+01 7.513286e-07 1.000000e+02
557 5.792517e+01 7.446636e-07 1.000000e+02
558 5.803777e+01 7.380479e-07 1.000000e+02
559 5.815969e+01 7.314815e-07 1.000000e+02
560 5.825430e+01 7.249641e-07 1.000000e+02
561 5.842330e+01 7.184955e-07 1.000000e+02
562 5.853023e+01 7.120755e-07 1.000000e+02
563 5.868429e+01 7.057039e-07 1.000000e+02
564 5.877165e+01 6.993806e-07 1.000000e+02
565 5.908143e+01 6.931053e-07 1.000000e+02
566 5.917351e+01 6.868779e-07 1.000000e+02
567 5.928394e+01 6.806981e-07 1.000000e+02
568 5.934293e+01 6.745658e-07 1.000000e+02
569 5.940211e+01 6.684808e-07 1.000000e+02
570 5.946127e+01 6.624428e-07 1.000000e+02
571 5.952059e+01 6.564516e-07 1.000000e+02
572 5.957962e+01 6.505070e-07 1.000000e+02
573 5.963877e+01 6.446089e-07 1.000000e+02
574 5.969788e+01 6.387569e-07 1.000000e+02
575 5.975874e+01 6.329509e-07 1.000000e+02
576 5.986282e+01 6.271908e-07 1.000000e+02
577 6.005336e+01 6.214763e-07 1.000000e+02
578 6.015782e+01 6.158064e-07 1.000000e+02
579 6.026623e+01 6.101825e-07 1.000000e+02
580 6.036046e+01 6.046035e-07 1.000000e+02
581 6.048235e+01 5.990693e-07 1.000000e+02
582 6.059355e+01 5.935798e-07 1.000000e+02
583 6.075393e+01 5.881345e-07 1.000000e+02
584 6.084513e+01 5.827333e-07 1.000000e+02
585 6.100023e+01 5.773761e-07 1.000000e+02
586 6.112193e+01 5.720624e-07 1.000000e+02
587 6.122456e+01 5.667923e-07 1.000000e+02
588 6.133173e+01 5.615654e-07 1.000000e+02
589 6.145704e+01 5.563815e-07 1.000000e+02
590 6.154928e+01 5.512404e-07 1.000000e+02
591 6.162489e+01 5.461419e-07 1.000000e+02
592 6.168207e+01 5.410850e-07 1.000000e+02
593 6.173889e+01 5.360706e-07 1.000000e+02
594 6.179602e+01 5.310982e-07 1.000000e+02
595 6.185300e+01 5.261675e-07 1.000000e+02
596 6.190995e+01 5.212784e-07 1.000000e+02
597 6.197626e+01 5.164306e-07 1.000000e+02
598 6.203343e+01 5.116240e-07 1.000000e+02
599 6.212444e+01 5.068583e-07 1.000000e+02
600 6.228577e+01 5.021333e-07 1.000000e+02
601 6.240556e+01 4.974488e-07 1.000000e+02
602 6.251221e+01 4.928045e-07 1.000000e+02
603 6.261532e+01 4.882002e-07 1.000000e+02
604 6.273238e+01 4.836356e-07 1.000000e+02
605 6.281339e+01 4.791106e-07 1.000000e+02
606 6.292334e+01 4.746250e-07 1.000000e+02
607 6.308335e+01 4.701784e-07 1.000000e+02
608 6.321666e+01 4.657707e-07 1.000000e+02
609 6.331817e+01 4.614016e-07 1.000000e+02
610 6.343225e+01 4.570710e-07 1.000000e+02
611 6.354289e+01 4.527785e-07 1.000000e+02
612 6.363657e+01 4.485241e-07 1.000000e+02
613 6.376027e+01 4.443073e-07 1.000000e+02
614 6.385127e+01 4.401282e-07 1.000000e+02
615 6.392627e+01 4.359863e-07 1.000000e+02
616 6.398394e+01 4.318815e-07 1.000000e+02
617 6.404085e+01 4.278137e-07 1.000000e+02
618 6.409761e+01 4.237824e-07 1.000000e+02
619 6.415450e+01 4.197876e-07 1.000000e+02
620 6.421129e+01 4.158290e-07 1.000000e+02
621 6.426811e+01 4.119063e-07 1.000000e+02
622 6.432491e+01 4.080195e-07 1.000000e+02
623 6.440427e+01 4.041682e-07 1.000000e+02
624 6.453044e+01 4.003522e-07 1.000000e+02
625 6.466648e+01 3.965713e-07 1.000000e+02
626 6.479725e+01 3.928252e-07 1.000000e+02
627 6.490831e+01 3.891139e-07 1.000000e+02
628 6.501595e+01 3.854370e-07 1.000000e+02
629 6.507276e+01 3.817936e-07 1.000000e+02
630 6.517438e+01 3.781848e-07 1.000000e+02
631 6.532342e+01 3.746099e-07 1.000000e+02
632 6.543722e+01 3.710686e-07 1.000000e+02
633 6.557529e+01 3.675607e-07 1.000000e+02
634 6.567221e+01 3.640859e-07 1.000000e+02
635 6.577982e+01 3.606441e-07 1.000000e+02
636 6.587057e+01 3.572350e-07 1.000000e+02
637 6.599802e+01 3.538584e-07 1.000000e+02
638 6.608810e+01 3.505141e-07 1.000000e+02
639 6.619330e+01 3.472017e-07 1.000000e+02
640 6.624789e+01 3.439212e-07 1.000000e+02
641 6.630258e+01 3.406723e-07 1.000000e+02
642 6.635901e+01 3.374548e-07 1.000000e+02
643 6.641371e+01 3.342684e-07 1.000000e+02
644 6.647035e+01 3.311130e-07 1.000000e+02
645 6.652529e+01 3.279883e-07 1.000000e+02
646 6.658215e+01 3.248942e-07 1.000000e+02
647 6.663722e+01 3.218304e-07 1.000000e+02
648 6.671649e+01 3.187968e-07 1.000000e+02
649 6.689881e+01 3.157930e-07 1.000000e+02
650 6.704646e+01 3.128190e-07 1.000000e+02
651 6.715406e+01 3.098744e-07 1.000000e+02
652 6.726146e+01 3.069591e-07 1.000000e+02
653 6.731687e+01 3.040729e-07 1.000000e+02
654 6.737404e+01 3.012155e-07 1.000000e+02
655 6.747204e+01 2.983868e-07 1.000000e+02
656 6.762261e+01 2.955866e-07 1.000000e+02
657 6.773278e+01 2.928145e-07 1.000000e+02
658 6.784710e+01 2.900705e-07 1.000000e+02
659 6.795571e+01 2.873544e-07 1.000000e+02
660 6.805942e+01 2.846658e-07 1.000000e+02
661 6.817340e+01 2.820047e-07 1.000000e+02
662 6.830266e+01 2.793707e-07 1.000000e+02
663 6.839336e+01 2.767638e-07 1.000000e+02
664 6.849538e+01 2.741836e-07 1.000000e+02
665 6.855023e+01 2.716301e-07 1.000000e+02
666 6.860494e+01 2.691029e-07 1.000000e+02
667 6.866102e+01 2.666019e-07 1.000000e+02
668 6.871592e+01 2.641269e-07 1.000000e+02
669 6.876845e+01 2.616770e-07 1.000000e+02
670 6.882138e+01 2.592533e-07 1.000000e+02
671 6.887394e+01 2.568549e-07 1.000000e+02
672 6.892649e+01 2.544818e-07 1.000000e+02
673 6.900198e+01 2.521337e-07 1.000000e+02
674 6.916483e+01 2.498104e-07 1.000000e+02
675 6.932565e+01 2.475117e-07 1.000000e+02
676 6.943439e+01 2.452374e-07 1.000000e+02
677 6.954021e+01 2.429873e-07 1.000000e+02
678 6.959286e+01 2.407611e-07 1.000000e+02
679 6.964552e+01 2.385587e-07 1.000000e+02
680 6.971985e+01 2.363800e-07 1.000000e+02
681 6.982683e+01 2.342246e-07 1.000000e+02
682 6.998047e+01 2.320924e-07 1.000000e+02
683 7.007945e+01 2.299832e-07 1.000000e+02
684 7.019449e+01 2.278968e-07 1.000000e+02
685 7.029149e+01 2.258331e-07 1.000000e+02
686 7.039307e+01 2.237918e-07 1.000000e+02
687 7.047928e+01 2.217727e-07 1.000000e+02
688 7.064010e+01 2.197756e-07 1.000000e+02
689 7.071627e+01 2.178005e-07 1.000000e+02
690 7.080622e+01 2.158469e-07 1.000000e+02
691 7.085883e+01 2.139149e-07 1.000000e+02
692 7.091131e+01 2.120041e-07 1.000000e+02
693 7.096405e+01 2.101144e-07 1.000000e+02
694 7.101913e+01 2.082456e-07 1.000000e+02
695 7.107292e+01 2.063976e-07 1.000000e+02
696 7.112335e+01 2.045698e-07 1.000000e+02
697 7.117552e+01 2.027624e-07 1.000000e+02
698 7.122595e+01 2.009753e-07 1.000000e+02
699 7.129833e+01 1.992081e-07 1.000000e+02
700 7.143668e+01 1.974608e-07 1.000000e+02
701 7.158972e+01 1.957332e-07 1.000000e+02
702 7.170045e+01 1.940250e-07 1.000000e+02
703 7.177568e+01 1.923360e-07 1.000000e+02
704 7.185464e+01 1.906661e-07 1.000000e+02
705 7.190517e+01 1.890151e-07 1.000000e+02
706 7.195618e+01 1.873827e-07 1.000000e+02
707 7.203084e+01 1.857689e-07 1.000000e+02
708 7.212465e+01 1.841733e-07 1.000000e+02
709 7.226168e+01 1.825960e-07 1.000000e+02
710 7.235667e+01 1.810365e-07 1.000000e+02
711 7.246315e+01 1.794949e-07 1.000000e+02
712 7.253532e+01 1.779708e-07 1.000000e+02
713 7.263292e+01 1.764642e-07 1.000000e+02
714 7.271832e+01 1.749749e-07 1.000000e+02
715 7.280468e+01 1.735026e-07 1.000000e+02
716 7.291919e+01 1.720477e-07 1.000000e+02
717 7.300175e+01 1.706088e-07 1.000000e+02
718 7.308967e+01 1.691866e-07 1.000000e+02
719 7.314721e+01 1.677807e-07 1.000000e+02
720 7.319576e+01 1.663911e-07 1.000000e+02
721 7.324573e+01 1.650176e-07 1.000000e+02
722 7.329426e+01 1.636600e-07 1.000000e+02
723 7.334418e+01 1.623181e-07 1.000000e+02
724 7.339266e+01 1.609917e-07 1.000000e+02
725 7.344210e+01 1.596807e-07 1.000000e+02
726 7.349118e+01 1.583849e-07 1.000000e+02
727 7.353991e+01 1.571041e-07 1.000000e+02
728 7.359015e+01 1.558382e-07 1.000000e+02
729 7.369495e+01 1.545869e-07 1.000000e+02
730 7.385974e+01 1.533502e-07 1.000000e+02
731 7.399762e+01 1.521277e-07 1.000000e+02
732 7.407111e+01 1.509195e-07 1.000000e+02
733 7.414797e+01 1.497253e-07 1.000000e+02
734 7.419458e+01 1.485452e-07 1.000000e+02
735 7.424118e+01 1.473784e-07 1.000000e+02
736 7.428956e+01 1.462251e-07 1.000000e+02
737 7.435875e+01 1.450853e-07 1.000000e+02
738 7.447451e+01 1.439587e-07 1.000000e+02
739 7.460171e+01 1.428452e-07 1.000000e+02
740 7.468633e+01 1.417446e-07 1.000000e+02
741 7.477590e+01 1.406569e-07 1.000000e+02
742 7.485487e+01 1.395817e-07 1.000000e+02
743 7.495992e+01 1.385189e-07 1.000000e+02
744 7.505174e+01 1.374685e-07 1.000000e+02
745 7.513117e+01 1.364301e-07 1.000000e+02
746 7.525729e+01 1.354037e-07 1.000000e+02
747 7.532458e+01 1.343890e-07 1.000000e+02
748 7.540560e+01 1.333862e-07 1.000000e+02
749 7.545094e+01 1.323948e-07 1.000000e+02
750 7.549574e+01 1.314149e-07 1.000000e+02
751 7.554066e+01 1.304462e-07 1.000000e+02
752 7.558546e+01 1.294886e-07 1.000000e+02
753 7.563030e+01 1.285419e-07 1.000000e+02
754 7.567326e+01 1.276057e-07 1.000000e+02
755 7.571621e+01 1.266804e-07 1.000000e+02
756 7.575918e+01 1.257656e-07 1.000000e+02
757 7.580250e+01 1.248613e-07 1.000000e+02
758 7.584545e+01 1.239672e-07 1.000000e+02
759 7.588995e+01 1.230832e-07 1.000000e+02
760 7.598661e+01 1.222092e-07 1.000000e+02
761 7.610568e+01 1.213450e-07 1.000000e+02
762 7.624882e+01 1.204904e-07 1.000000e+02
763 7.632550e+01 1.196455e-07 1.000000e+02
764 7.641530e+01 1.188099e-07 1.000000e+02
765 7.645661e+01 1.179833e-07 1.000000e+02
766 7.649781e+01 1.171660e-07 1.000000e+02
767 7.653906e+01 1.163579e-07 1.000000e+02
768 7.658206e+01 1.155586e-07 1.000000e+02
769 7.664583e+01 1.147682e-07 1.000000e+02
770 7.673487e+01 1.139864e-07 1.000000e+02
771 7.684375e+01 1.132131e-07 1.000000e+02
772 7.692436e+01 1.124482e-07 1.000000e+02
773 7.701810e+01 1.116915e-07 1.000000e+02
774 7.711862e+01 1.109430e-07 1.000000e+02
775 7.716495e+01 1.102026e-07 1.000000e+02
776 7.727194e+01 1.094700e-07 1.000000e+02
777 7.735835e+01 1.087452e-07 1.000000e+02
778 7.741455e+01 1.080281e-07 1.000000e+02
779 7.755085e+01 1.073185e-07 1.000000e+02
780 7.760544e+01 1.066164e-07 1.000000e+02
781 7.768424e+01 1.059216e-07 1.000000e+02
782 7.773078e+01 1.052340e-07 1.000000e+02
783 7.777200e+01 1.045536e-07 1.000000e+02
784 7.781523e+01 1.038807e-07 1.000000e+02
785 7.785832e+01 1.032141e-07 1.000000e+02
786 7.790129e+01 1.025543e-07 1.000000e+02
787 7.794449e+01 1.019011e-07 1.000000e+02
788 7.798742e+01 1.012545e-07 1.000000e+02
789 7.803040e+01 1.006144e-07 1.000000e+02
790 7.807327e+01 9.998073e-08 1.000000e+02
