
  _______                              __________
  ___    |_____ ______________         ___  ____/
  __  /| |_  _ \__  ___/_  __ \__________  /_  
  _  ___ |/  __/_  /    / /_/ /_/_____/_  __/    
  /_/  |_|\___/ /_/     \____/         /_/     
  Changeset ID: c63c2251be38 1562 
*** Warning: Using CFL values under Time and old CFL law for backwards compatibility. The program will run, but correct execution requires all CFL parameters to be under CFLLaw.
128 MPI CPU for 128 subdomains
Node statistics: min=266, max=293, total=35810
Edge statistics: min=1210, max=1299, total=160534
Face statistics: min=449, max=514, total=60068
Elem statistics: min=677, max=718, total=89301
Read solution 0 from '../../data/mesh.dwall'
Control volume statistics: min=1.253e-10, max=3.718e-02, total=1.254e+01
Mesh bounding box: (Xmin,Ymin,Zmin) = (-1.997e+01 -1.999e+01 0.000e+00)
                   (Xmax,Ymax,Zmax) = (2.000e+01 1.999e+01 1.000e-02)
[Probe] Number of probing nodes is 0
Memory required for matvec with H1 (dim=5): 68.07 MB
Memory required for matvec with H1 (dim=1): 2.72 MB
Memory for ILU(0) preconditioner (dim=5): 34.03 MB
Memory for Gmres(250) solver: 342.88 MB
Memory for ILU(0) preconditioner (dim=1): 1.36 MB
Memory for Gmres(150) solver: 41.25 MB
Spatial residual norm = 2.941325704520e+06
Time for one residual evaluation: 0.077851 s

It     0: Res = 1.000000e+00, Cfl = 0.000000e+00, Elapsed Time = 0.00e+00 s
It     1: Res = 4.062527e-01, Cfl = 2.000000e+00, Elapsed Time = 2.73e-01 s
It     2: Res = 3.675364e-01, Cfl = 2.000000e+00, Elapsed Time = 2.82e-01 s
It     3: Res = 2.646112e-01, Cfl = 4.000000e+00, Elapsed Time = 2.92e-01 s
It     4: Res = 1.437960e-01, Cfl = 6.000000e+00, Elapsed Time = 3.02e-01 s
It     5: Res = 8.998390e-02, Cfl = 8.000000e+00, Elapsed Time = 3.13e-01 s
It     6: Res = 7.633475e-02, Cfl = 1.000000e+01, Elapsed Time = 3.25e-01 s
It     7: Res = 5.478753e-02, Cfl = 1.200000e+01, Elapsed Time = 3.38e-01 s
It     8: Res = 3.662307e-02, Cfl = 1.400000e+01, Elapsed Time = 3.51e-01 s
It     9: Res = 2.543476e-02, Cfl = 1.600000e+01, Elapsed Time = 3.65e-01 s
It    10: Res = 1.978423e-02, Cfl = 1.800000e+01, Elapsed Time = 3.80e-01 s
It    11: Res = 1.723342e-02, Cfl = 2.000000e+01, Elapsed Time = 3.95e-01 s
It    12: Res = 1.542519e-02, Cfl = 2.200000e+01, Elapsed Time = 4.12e-01 s
It    13: Res = 1.384858e-02, Cfl = 2.400000e+01, Elapsed Time = 4.28e-01 s
It    14: Res = 1.240183e-02, Cfl = 2.600000e+01, Elapsed Time = 4.45e-01 s
It    15: Res = 1.103657e-02, Cfl = 2.800000e+01, Elapsed Time = 4.62e-01 s
It    16: Res = 9.753664e-03, Cfl = 3.000000e+01, Elapsed Time = 4.82e-01 s
It    17: Res = 8.631429e-03, Cfl = 3.200000e+01, Elapsed Time = 5.01e-01 s
It    18: Res = 7.551889e-03, Cfl = 3.400000e+01, Elapsed Time = 5.21e-01 s
It    19: Res = 6.525628e-03, Cfl = 3.600000e+01, Elapsed Time = 5.41e-01 s
It    20: Res = 5.598254e-03, Cfl = 3.800000e+01, Elapsed Time = 5.62e-01 s
It    21: Res = 4.785287e-03, Cfl = 4.000000e+01, Elapsed Time = 5.83e-01 s
It    22: Res = 4.039365e-03, Cfl = 4.200000e+01, Elapsed Time = 6.05e-01 s
It    23: Res = 3.339396e-03, Cfl = 4.400000e+01, Elapsed Time = 6.28e-01 s
It    24: Res = 2.695828e-03, Cfl = 4.600000e+01, Elapsed Time = 6.52e-01 s
It    25: Res = 2.160425e-03, Cfl = 4.800000e+01, Elapsed Time = 6.77e-01 s
It    26: Res = 1.782809e-03, Cfl = 5.000000e+01, Elapsed Time = 7.03e-01 s
It    27: Res = 1.565509e-03, Cfl = 5.200000e+01, Elapsed Time = 7.29e-01 s
It    28: Res = 1.475947e-03, Cfl = 5.400000e+01, Elapsed Time = 7.56e-01 s
It    29: Res = 1.470557e-03, Cfl = 5.600000e+01, Elapsed Time = 7.84e-01 s
It    30: Res = 1.498097e-03, Cfl = 5.800000e+01, Elapsed Time = 8.11e-01 s
It    31: Res = 1.527878e-03, Cfl = 6.000000e+01, Elapsed Time = 8.40e-01 s
It    32: Res = 1.539357e-03, Cfl = 6.200000e+01, Elapsed Time = 8.69e-01 s
It    33: Res = 1.528790e-03, Cfl = 6.400000e+01, Elapsed Time = 8.97e-01 s
It    34: Res = 1.519459e-03, Cfl = 6.600000e+01, Elapsed Time = 9.26e-01 s
It    35: Res = 1.487042e-03, Cfl = 6.800000e+01, Elapsed Time = 9.55e-01 s
It    36: Res = 1.423975e-03, Cfl = 7.000000e+01, Elapsed Time = 9.83e-01 s
It    37: Res = 1.344875e-03, Cfl = 7.200000e+01, Elapsed Time = 1.01e+00 s
It    38: Res = 1.248427e-03, Cfl = 7.400000e+01, Elapsed Time = 1.04e+00 s
It    39: Res = 1.121183e-03, Cfl = 7.600000e+01, Elapsed Time = 1.07e+00 s
It    40: Res = 9.874251e-04, Cfl = 7.800000e+01, Elapsed Time = 1.10e+00 s
It    41: Res = 8.575336e-04, Cfl = 8.000000e+01, Elapsed Time = 1.14e+00 s
It    42: Res = 7.358052e-04, Cfl = 8.200000e+01, Elapsed Time = 1.17e+00 s
It    43: Res = 6.292378e-04, Cfl = 8.400000e+01, Elapsed Time = 1.20e+00 s
It    44: Res = 5.474581e-04, Cfl = 8.600000e+01, Elapsed Time = 1.23e+00 s
It    45: Res = 5.058762e-04, Cfl = 8.800000e+01, Elapsed Time = 1.27e+00 s
It    46: Res = 4.949552e-04, Cfl = 9.000000e+01, Elapsed Time = 1.30e+00 s
It    47: Res = 4.994359e-04, Cfl = 9.200000e+01, Elapsed Time = 1.34e+00 s
It    48: Res = 4.998677e-04, Cfl = 9.400000e+01, Elapsed Time = 1.37e+00 s
It    49: Res = 4.928237e-04, Cfl = 9.600000e+01, Elapsed Time = 1.41e+00 s
It    50: Res = 4.802006e-04, Cfl = 9.800000e+01, Elapsed Time = 1.44e+00 s
It    51: Res = 4.648705e-04, Cfl = 1.000000e+02, Elapsed Time = 1.48e+00 s
It    52: Res = 4.446493e-04, Cfl = 1.020000e+02, Elapsed Time = 1.51e+00 s
It    53: Res = 4.250353e-04, Cfl = 1.040000e+02, Elapsed Time = 1.55e+00 s
It    54: Res = 4.039516e-04, Cfl = 1.060000e+02, Elapsed Time = 1.59e+00 s
It    55: Res = 3.863466e-04, Cfl = 1.080000e+02, Elapsed Time = 1.62e+00 s
It    56: Res = 3.701171e-04, Cfl = 1.100000e+02, Elapsed Time = 1.66e+00 s
It    57: Res = 3.564438e-04, Cfl = 1.120000e+02, Elapsed Time = 1.70e+00 s
It    58: Res = 3.443681e-04, Cfl = 1.140000e+02, Elapsed Time = 1.75e+00 s
It    59: Res = 3.320469e-04, Cfl = 1.160000e+02, Elapsed Time = 1.79e+00 s
It    60: Res = 3.182729e-04, Cfl = 1.180000e+02, Elapsed Time = 1.83e+00 s
It    61: Res = 3.126682e-04, Cfl = 1.200000e+02, Elapsed Time = 1.87e+00 s
It    62: Res = 3.030167e-04, Cfl = 1.220000e+02, Elapsed Time = 1.91e+00 s
It    63: Res = 2.895086e-04, Cfl = 1.240000e+02, Elapsed Time = 1.94e+00 s
It    64: Res = 2.793267e-04, Cfl = 1.260000e+02, Elapsed Time = 1.98e+00 s
It    65: Res = 2.734585e-04, Cfl = 1.280000e+02, Elapsed Time = 2.03e+00 s
It    66: Res = 2.636948e-04, Cfl = 1.300000e+02, Elapsed Time = 2.07e+00 s
It    67: Res = 2.546597e-04, Cfl = 1.320000e+02, Elapsed Time = 2.11e+00 s
It    68: Res = 2.474014e-04, Cfl = 1.340000e+02, Elapsed Time = 2.16e+00 s
It    69: Res = 2.416670e-04, Cfl = 1.360000e+02, Elapsed Time = 2.20e+00 s
It    70: Res = 2.359698e-04, Cfl = 1.380000e+02, Elapsed Time = 2.24e+00 s
It    71: Res = 2.333204e-04, Cfl = 1.400000e+02, Elapsed Time = 2.29e+00 s
It    72: Res = 2.292038e-04, Cfl = 1.420000e+02, Elapsed Time = 2.33e+00 s
It    73: Res = 2.208847e-04, Cfl = 1.440000e+02, Elapsed Time = 2.37e+00 s
It    74: Res = 2.147019e-04, Cfl = 1.460000e+02, Elapsed Time = 2.42e+00 s
It    75: Res = 2.123268e-04, Cfl = 1.480000e+02, Elapsed Time = 2.46e+00 s
It    76: Res = 2.122586e-04, Cfl = 1.500000e+02, Elapsed Time = 2.51e+00 s
It    77: Res = 2.057723e-04, Cfl = 1.520000e+02, Elapsed Time = 2.55e+00 s
It    78: Res = 2.008179e-04, Cfl = 1.540000e+02, Elapsed Time = 2.60e+00 s
It    79: Res = 1.977821e-04, Cfl = 1.560000e+02, Elapsed Time = 2.65e+00 s
It    80: Res = 1.961191e-04, Cfl = 1.580000e+02, Elapsed Time = 2.70e+00 s
It    81: Res = 1.946692e-04, Cfl = 1.600000e+02, Elapsed Time = 2.74e+00 s
It    82: Res = 1.942618e-04, Cfl = 1.620000e+02, Elapsed Time = 2.80e+00 s
It    83: Res = 1.923718e-04, Cfl = 1.640000e+02, Elapsed Time = 2.85e+00 s
It    84: Res = 1.885665e-04, Cfl = 1.660000e+02, Elapsed Time = 2.90e+00 s
It    85: Res = 1.868075e-04, Cfl = 1.680000e+02, Elapsed Time = 2.95e+00 s
It    86: Res = 1.857710e-04, Cfl = 1.700000e+02, Elapsed Time = 3.00e+00 s
It    87: Res = 1.853139e-04, Cfl = 1.720000e+02, Elapsed Time = 3.05e+00 s
It    88: Res = 1.844222e-04, Cfl = 1.740000e+02, Elapsed Time = 3.11e+00 s
It    89: Res = 1.823121e-04, Cfl = 1.760000e+02, Elapsed Time = 3.16e+00 s
It    90: Res = 1.777540e-04, Cfl = 1.780000e+02, Elapsed Time = 3.21e+00 s
It    91: Res = 1.744916e-04, Cfl = 1.800000e+02, Elapsed Time = 3.27e+00 s
It    92: Res = 1.726868e-04, Cfl = 1.820000e+02, Elapsed Time = 3.33e+00 s
It    93: Res = 1.708613e-04, Cfl = 1.840000e+02, Elapsed Time = 3.38e+00 s
It    94: Res = 1.669660e-04, Cfl = 1.860000e+02, Elapsed Time = 3.44e+00 s
It    95: Res = 1.618101e-04, Cfl = 1.880000e+02, Elapsed Time = 3.49e+00 s
It    96: Res = 1.553763e-04, Cfl = 1.900000e+02, Elapsed Time = 3.55e+00 s
It    97: Res = 1.489276e-04, Cfl = 1.920000e+02, Elapsed Time = 3.61e+00 s
It    98: Res = 1.428435e-04, Cfl = 1.940000e+02, Elapsed Time = 3.67e+00 s
It    99: Res = 1.404473e-04, Cfl = 1.960000e+02, Elapsed Time = 3.73e+00 s
It   100: Res = 1.356101e-04, Cfl = 1.980000e+02, Elapsed Time = 3.80e+00 s
It   101: Res = 1.247056e-04, Cfl = 2.000000e+02, Elapsed Time = 3.86e+00 s
It   102: Res = 1.150385e-04, Cfl = 2.000000e+02, Elapsed Time = 3.92e+00 s
It   103: Res = 1.078256e-04, Cfl = 2.000000e+02, Elapsed Time = 3.98e+00 s
It   104: Res = 1.028845e-04, Cfl = 2.000000e+02, Elapsed Time = 4.04e+00 s
It   105: Res = 9.992211e-05, Cfl = 2.000000e+02, Elapsed Time = 4.10e+00 s
It   106: Res = 9.768914e-05, Cfl = 2.000000e+02, Elapsed Time = 4.16e+00 s
It   107: Res = 9.482053e-05, Cfl = 2.000000e+02, Elapsed Time = 4.22e+00 s
It   108: Res = 8.960112e-05, Cfl = 2.000000e+02, Elapsed Time = 4.28e+00 s
It   109: Res = 8.534971e-05, Cfl = 2.000000e+02, Elapsed Time = 4.33e+00 s
It   110: Res = 8.213091e-05, Cfl = 2.000000e+02, Elapsed Time = 4.39e+00 s
It   111: Res = 7.962762e-05, Cfl = 2.000000e+02, Elapsed Time = 4.45e+00 s
It   112: Res = 7.732432e-05, Cfl = 2.000000e+02, Elapsed Time = 4.51e+00 s
It   113: Res = 7.538850e-05, Cfl = 2.000000e+02, Elapsed Time = 4.57e+00 s
It   114: Res = 7.326812e-05, Cfl = 2.000000e+02, Elapsed Time = 4.63e+00 s
It   115: Res = 7.085748e-05, Cfl = 2.000000e+02, Elapsed Time = 4.68e+00 s
It   116: Res = 6.750241e-05, Cfl = 2.000000e+02, Elapsed Time = 4.74e+00 s
It   117: Res = 6.479009e-05, Cfl = 2.000000e+02, Elapsed Time = 4.80e+00 s
It   118: Res = 6.232397e-05, Cfl = 2.000000e+02, Elapsed Time = 4.86e+00 s
It   119: Res = 6.005592e-05, Cfl = 2.000000e+02, Elapsed Time = 4.92e+00 s
It   120: Res = 5.795186e-05, Cfl = 2.000000e+02, Elapsed Time = 4.98e+00 s
It   121: Res = 5.628249e-05, Cfl = 2.000000e+02, Elapsed Time = 5.03e+00 s
It   122: Res = 5.453621e-05, Cfl = 2.000000e+02, Elapsed Time = 5.09e+00 s
It   123: Res = 5.291279e-05, Cfl = 2.000000e+02, Elapsed Time = 5.15e+00 s
It   124: Res = 4.988087e-05, Cfl = 2.000000e+02, Elapsed Time = 5.21e+00 s
It   125: Res = 4.772211e-05, Cfl = 2.000000e+02, Elapsed Time = 5.27e+00 s
It   126: Res = 4.638321e-05, Cfl = 2.000000e+02, Elapsed Time = 5.33e+00 s
It   127: Res = 4.467388e-05, Cfl = 2.000000e+02, Elapsed Time = 5.39e+00 s
It   128: Res = 4.291731e-05, Cfl = 2.000000e+02, Elapsed Time = 5.44e+00 s
It   129: Res = 4.120955e-05, Cfl = 2.000000e+02, Elapsed Time = 5.50e+00 s
It   130: Res = 3.950980e-05, Cfl = 2.000000e+02, Elapsed Time = 5.56e+00 s
It   131: Res = 3.792930e-05, Cfl = 2.000000e+02, Elapsed Time = 5.62e+00 s
It   132: Res = 3.651315e-05, Cfl = 2.000000e+02, Elapsed Time = 5.68e+00 s
It   133: Res = 3.520105e-05, Cfl = 2.000000e+02, Elapsed Time = 5.74e+00 s
It   134: Res = 3.393166e-05, Cfl = 2.000000e+02, Elapsed Time = 5.80e+00 s
It   135: Res = 3.267602e-05, Cfl = 2.000000e+02, Elapsed Time = 5.86e+00 s
It   136: Res = 3.140759e-05, Cfl = 2.000000e+02, Elapsed Time = 5.92e+00 s
It   137: Res = 3.037867e-05, Cfl = 2.000000e+02, Elapsed Time = 5.98e+00 s
It   138: Res = 2.948217e-05, Cfl = 2.000000e+02, Elapsed Time = 6.04e+00 s
It   139: Res = 2.864391e-05, Cfl = 2.000000e+02, Elapsed Time = 6.10e+00 s
It   140: Res = 2.780760e-05, Cfl = 2.000000e+02, Elapsed Time = 6.16e+00 s
It   141: Res = 2.697334e-05, Cfl = 2.000000e+02, Elapsed Time = 6.22e+00 s
It   142: Res = 2.610164e-05, Cfl = 2.000000e+02, Elapsed Time = 6.28e+00 s
It   143: Res = 2.548072e-05, Cfl = 2.000000e+02, Elapsed Time = 6.34e+00 s
It   144: Res = 2.527080e-05, Cfl = 2.000000e+02, Elapsed Time = 6.40e+00 s
It   145: Res = 2.501371e-05, Cfl = 2.000000e+02, Elapsed Time = 6.46e+00 s
It   146: Res = 2.463259e-05, Cfl = 2.000000e+02, Elapsed Time = 6.53e+00 s
It   147: Res = 2.436735e-05, Cfl = 2.000000e+02, Elapsed Time = 6.59e+00 s
It   148: Res = 2.414831e-05, Cfl = 2.000000e+02, Elapsed Time = 6.65e+00 s
It   149: Res = 2.373312e-05, Cfl = 2.000000e+02, Elapsed Time = 6.71e+00 s
It   150: Res = 2.321924e-05, Cfl = 2.000000e+02, Elapsed Time = 6.76e+00 s
It   151: Res = 2.233855e-05, Cfl = 2.000000e+02, Elapsed Time = 6.82e+00 s
It   152: Res = 2.174704e-05, Cfl = 2.000000e+02, Elapsed Time = 6.88e+00 s
It   153: Res = 2.128342e-05, Cfl = 2.000000e+02, Elapsed Time = 6.94e+00 s
It   154: Res = 2.058084e-05, Cfl = 2.000000e+02, Elapsed Time = 7.00e+00 s
It   155: Res = 1.993005e-05, Cfl = 2.000000e+02, Elapsed Time = 7.06e+00 s
It   156: Res = 1.922231e-05, Cfl = 2.000000e+02, Elapsed Time = 7.11e+00 s
It   157: Res = 1.847488e-05, Cfl = 2.000000e+02, Elapsed Time = 7.17e+00 s
It   158: Res = 1.763798e-05, Cfl = 2.000000e+02, Elapsed Time = 7.23e+00 s
It   159: Res = 1.646661e-05, Cfl = 2.000000e+02, Elapsed Time = 7.29e+00 s
It   160: Res = 1.562564e-05, Cfl = 2.000000e+02, Elapsed Time = 7.35e+00 s
It   161: Res = 1.496848e-05, Cfl = 2.000000e+02, Elapsed Time = 7.41e+00 s
It   162: Res = 1.437014e-05, Cfl = 2.000000e+02, Elapsed Time = 7.47e+00 s
It   163: Res = 1.383821e-05, Cfl = 2.000000e+02, Elapsed Time = 7.53e+00 s
It   164: Res = 1.334992e-05, Cfl = 2.000000e+02, Elapsed Time = 7.59e+00 s
It   165: Res = 1.290976e-05, Cfl = 2.000000e+02, Elapsed Time = 7.65e+00 s
It   166: Res = 1.249910e-05, Cfl = 2.000000e+02, Elapsed Time = 7.71e+00 s
It   167: Res = 1.216473e-05, Cfl = 2.000000e+02, Elapsed Time = 7.78e+00 s
It   168: Res = 1.192816e-05, Cfl = 2.000000e+02, Elapsed Time = 7.84e+00 s
It   169: Res = 1.171623e-05, Cfl = 2.000000e+02, Elapsed Time = 7.90e+00 s
It   170: Res = 1.148467e-05, Cfl = 2.000000e+02, Elapsed Time = 7.96e+00 s
It   171: Res = 1.126962e-05, Cfl = 2.000000e+02, Elapsed Time = 8.02e+00 s
It   172: Res = 1.108700e-05, Cfl = 2.000000e+02, Elapsed Time = 8.08e+00 s
It   173: Res = 1.090912e-05, Cfl = 2.000000e+02, Elapsed Time = 8.14e+00 s
It   174: Res = 1.072096e-05, Cfl = 2.000000e+02, Elapsed Time = 8.20e+00 s
It   175: Res = 1.053965e-05, Cfl = 2.000000e+02, Elapsed Time = 8.26e+00 s
It   176: Res = 1.036719e-05, Cfl = 2.000000e+02, Elapsed Time = 8.32e+00 s
It   177: Res = 1.020529e-05, Cfl = 2.000000e+02, Elapsed Time = 8.38e+00 s
It   178: Res = 1.005473e-05, Cfl = 2.000000e+02, Elapsed Time = 8.44e+00 s
It   179: Res = 9.905342e-06, Cfl = 2.000000e+02, Elapsed Time = 8.51e+00 s
It   180: Res = 9.758575e-06, Cfl = 2.000000e+02, Elapsed Time = 8.57e+00 s
It   181: Res = 9.616711e-06, Cfl = 2.000000e+02, Elapsed Time = 8.63e+00 s
It   182: Res = 9.468208e-06, Cfl = 2.000000e+02, Elapsed Time = 8.69e+00 s
It   183: Res = 9.325571e-06, Cfl = 2.000000e+02, Elapsed Time = 8.75e+00 s
It   184: Res = 9.201293e-06, Cfl = 2.000000e+02, Elapsed Time = 8.81e+00 s
It   185: Res = 9.080666e-06, Cfl = 2.000000e+02, Elapsed Time = 8.87e+00 s
It   186: Res = 8.955718e-06, Cfl = 2.000000e+02, Elapsed Time = 8.93e+00 s
It   187: Res = 8.835014e-06, Cfl = 2.000000e+02, Elapsed Time = 8.99e+00 s
It   188: Res = 8.710052e-06, Cfl = 2.000000e+02, Elapsed Time = 9.06e+00 s
It   189: Res = 8.610403e-06, Cfl = 2.000000e+02, Elapsed Time = 9.12e+00 s
It   190: Res = 8.531328e-06, Cfl = 2.000000e+02, Elapsed Time = 9.18e+00 s
It   191: Res = 8.460757e-06, Cfl = 2.000000e+02, Elapsed Time = 9.25e+00 s
It   192: Res = 8.365777e-06, Cfl = 2.000000e+02, Elapsed Time = 9.31e+00 s
It   193: Res = 8.254345e-06, Cfl = 2.000000e+02, Elapsed Time = 9.38e+00 s
It   194: Res = 8.121659e-06, Cfl = 2.000000e+02, Elapsed Time = 9.44e+00 s
It   195: Res = 7.968925e-06, Cfl = 2.000000e+02, Elapsed Time = 9.51e+00 s
It   196: Res = 7.804180e-06, Cfl = 2.000000e+02, Elapsed Time = 9.57e+00 s
It   197: Res = 7.635395e-06, Cfl = 2.000000e+02, Elapsed Time = 9.64e+00 s
It   198: Res = 7.469401e-06, Cfl = 2.000000e+02, Elapsed Time = 9.70e+00 s
It   199: Res = 7.314867e-06, Cfl = 2.000000e+02, Elapsed Time = 9.77e+00 s
It   200: Res = 7.172361e-06, Cfl = 2.000000e+02, Elapsed Time = 9.83e+00 s
It   201: Res = 7.031248e-06, Cfl = 2.000000e+02, Elapsed Time = 9.90e+00 s
It   202: Res = 6.903304e-06, Cfl = 2.000000e+02, Elapsed Time = 9.97e+00 s
It   203: Res = 6.805459e-06, Cfl = 2.000000e+02, Elapsed Time = 1.00e+01 s
It   204: Res = 6.725359e-06, Cfl = 2.000000e+02, Elapsed Time = 1.01e+01 s
It   205: Res = 6.666437e-06, Cfl = 2.000000e+02, Elapsed Time = 1.02e+01 s
It   206: Res = 6.586475e-06, Cfl = 2.000000e+02, Elapsed Time = 1.02e+01 s
It   207: Res = 6.596029e-06, Cfl = 2.000000e+02, Elapsed Time = 1.03e+01 s
It   208: Res = 6.731747e-06, Cfl = 2.000000e+02, Elapsed Time = 1.03e+01 s
It   209: Res = 6.863057e-06, Cfl = 2.000000e+02, Elapsed Time = 1.04e+01 s
It   210: Res = 7.001347e-06, Cfl = 2.000000e+02, Elapsed Time = 1.05e+01 s
It   211: Res = 7.125747e-06, Cfl = 2.000000e+02, Elapsed Time = 1.05e+01 s
It   212: Res = 6.867942e-06, Cfl = 2.000000e+02, Elapsed Time = 1.06e+01 s
It   213: Res = 6.138159e-06, Cfl = 2.000000e+02, Elapsed Time = 1.06e+01 s
It   214: Res = 5.879937e-06, Cfl = 2.000000e+02, Elapsed Time = 1.07e+01 s
It   215: Res = 5.837126e-06, Cfl = 2.000000e+02, Elapsed Time = 1.08e+01 s
It   216: Res = 5.800551e-06, Cfl = 2.000000e+02, Elapsed Time = 1.08e+01 s
It   217: Res = 5.760432e-06, Cfl = 2.000000e+02, Elapsed Time = 1.09e+01 s
It   218: Res = 5.721682e-06, Cfl = 2.000000e+02, Elapsed Time = 1.10e+01 s
It   219: Res = 5.676280e-06, Cfl = 2.000000e+02, Elapsed Time = 1.10e+01 s
It   220: Res = 5.536060e-06, Cfl = 2.000000e+02, Elapsed Time = 1.11e+01 s
It   221: Res = 5.247444e-06, Cfl = 2.000000e+02, Elapsed Time = 1.11e+01 s
It   222: Res = 5.065912e-06, Cfl = 2.000000e+02, Elapsed Time = 1.12e+01 s
It   223: Res = 4.951262e-06, Cfl = 2.000000e+02, Elapsed Time = 1.13e+01 s
It   224: Res = 4.875683e-06, Cfl = 2.000000e+02, Elapsed Time = 1.13e+01 s
It   225: Res = 4.820568e-06, Cfl = 2.000000e+02, Elapsed Time = 1.14e+01 s
It   226: Res = 4.776184e-06, Cfl = 2.000000e+02, Elapsed Time = 1.14e+01 s
It   227: Res = 4.737940e-06, Cfl = 2.000000e+02, Elapsed Time = 1.15e+01 s
It   228: Res = 4.701221e-06, Cfl = 2.000000e+02, Elapsed Time = 1.16e+01 s
It   229: Res = 4.664895e-06, Cfl = 2.000000e+02, Elapsed Time = 1.16e+01 s
It   230: Res = 4.629268e-06, Cfl = 2.000000e+02, Elapsed Time = 1.17e+01 s
It   231: Res = 4.600643e-06, Cfl = 2.000000e+02, Elapsed Time = 1.18e+01 s
It   232: Res = 4.573452e-06, Cfl = 2.000000e+02, Elapsed Time = 1.18e+01 s
It   233: Res = 4.568864e-06, Cfl = 2.000000e+02, Elapsed Time = 1.19e+01 s
It   234: Res = 4.606187e-06, Cfl = 2.000000e+02, Elapsed Time = 1.20e+01 s
It   235: Res = 4.650318e-06, Cfl = 2.000000e+02, Elapsed Time = 1.20e+01 s
It   236: Res = 4.866145e-06, Cfl = 2.000000e+02, Elapsed Time = 1.21e+01 s
It   237: Res = 5.156182e-06, Cfl = 2.000000e+02, Elapsed Time = 1.21e+01 s
It   238: Res = 5.388625e-06, Cfl = 2.000000e+02, Elapsed Time = 1.22e+01 s
It   239: Res = 5.546155e-06, Cfl = 2.000000e+02, Elapsed Time = 1.23e+01 s
It   240: Res = 5.639916e-06, Cfl = 2.000000e+02, Elapsed Time = 1.23e+01 s
It   241: Res = 5.690431e-06, Cfl = 2.000000e+02, Elapsed Time = 1.24e+01 s
It   242: Res = 5.660373e-06, Cfl = 2.000000e+02, Elapsed Time = 1.24e+01 s
It   243: Res = 5.323160e-06, Cfl = 2.000000e+02, Elapsed Time = 1.25e+01 s
It   244: Res = 5.064651e-06, Cfl = 2.000000e+02, Elapsed Time = 1.26e+01 s
It   245: Res = 4.876714e-06, Cfl = 2.000000e+02, Elapsed Time = 1.26e+01 s
It   246: Res = 4.735234e-06, Cfl = 2.000000e+02, Elapsed Time = 1.27e+01 s
It   247: Res = 4.625399e-06, Cfl = 2.000000e+02, Elapsed Time = 1.27e+01 s
It   248: Res = 4.536469e-06, Cfl = 2.000000e+02, Elapsed Time = 1.28e+01 s
It   249: Res = 4.463748e-06, Cfl = 2.000000e+02, Elapsed Time = 1.29e+01 s
It   250: Res = 4.403215e-06, Cfl = 2.000000e+02, Elapsed Time = 1.29e+01 s
It   251: Res = 4.356517e-06, Cfl = 2.000000e+02, Elapsed Time = 1.30e+01 s
It   252: Res = 4.319383e-06, Cfl = 2.000000e+02, Elapsed Time = 1.31e+01 s
It   253: Res = 4.274665e-06, Cfl = 2.000000e+02, Elapsed Time = 1.31e+01 s
It   254: Res = 4.292575e-06, Cfl = 2.000000e+02, Elapsed Time = 1.32e+01 s
It   255: Res = 4.329689e-06, Cfl = 2.000000e+02, Elapsed Time = 1.32e+01 s
It   256: Res = 4.284855e-06, Cfl = 2.000000e+02, Elapsed Time = 1.33e+01 s
It   257: Res = 4.239942e-06, Cfl = 2.000000e+02, Elapsed Time = 1.34e+01 s
It   258: Res = 4.217596e-06, Cfl = 2.000000e+02, Elapsed Time = 1.34e+01 s
It   259: Res = 4.200219e-06, Cfl = 2.000000e+02, Elapsed Time = 1.35e+01 s
It   260: Res = 4.187281e-06, Cfl = 2.000000e+02, Elapsed Time = 1.35e+01 s
It   261: Res = 4.167467e-06, Cfl = 2.000000e+02, Elapsed Time = 1.36e+01 s
It   262: Res = 4.137438e-06, Cfl = 2.000000e+02, Elapsed Time = 1.37e+01 s
It   263: Res = 4.096096e-06, Cfl = 2.000000e+02, Elapsed Time = 1.37e+01 s
It   264: Res = 4.043480e-06, Cfl = 2.000000e+02, Elapsed Time = 1.38e+01 s
It   265: Res = 3.980686e-06, Cfl = 2.000000e+02, Elapsed Time = 1.39e+01 s
It   266: Res = 3.909653e-06, Cfl = 2.000000e+02, Elapsed Time = 1.39e+01 s
It   267: Res = 3.832318e-06, Cfl = 2.000000e+02, Elapsed Time = 1.40e+01 s
It   268: Res = 3.747936e-06, Cfl = 2.000000e+02, Elapsed Time = 1.40e+01 s
It   269: Res = 3.657391e-06, Cfl = 2.000000e+02, Elapsed Time = 1.41e+01 s
It   270: Res = 3.571674e-06, Cfl = 2.000000e+02, Elapsed Time = 1.42e+01 s
It   271: Res = 3.468882e-06, Cfl = 2.000000e+02, Elapsed Time = 1.42e+01 s
It   272: Res = 3.289797e-06, Cfl = 2.000000e+02, Elapsed Time = 1.43e+01 s
It   273: Res = 3.142685e-06, Cfl = 2.000000e+02, Elapsed Time = 1.43e+01 s
It   274: Res = 3.014206e-06, Cfl = 2.000000e+02, Elapsed Time = 1.44e+01 s
It   275: Res = 2.899732e-06, Cfl = 2.000000e+02, Elapsed Time = 1.45e+01 s
It   276: Res = 2.823118e-06, Cfl = 2.000000e+02, Elapsed Time = 1.45e+01 s
It   277: Res = 2.762998e-06, Cfl = 2.000000e+02, Elapsed Time = 1.46e+01 s
It   278: Res = 2.684286e-06, Cfl = 2.000000e+02, Elapsed Time = 1.47e+01 s
It   279: Res = 2.607492e-06, Cfl = 2.000000e+02, Elapsed Time = 1.47e+01 s
It   280: Res = 2.539337e-06, Cfl = 2.000000e+02, Elapsed Time = 1.48e+01 s
It   281: Res = 2.481826e-06, Cfl = 2.000000e+02, Elapsed Time = 1.48e+01 s
It   282: Res = 2.433523e-06, Cfl = 2.000000e+02, Elapsed Time = 1.49e+01 s
It   283: Res = 2.388904e-06, Cfl = 2.000000e+02, Elapsed Time = 1.50e+01 s
It   284: Res = 2.344355e-06, Cfl = 2.000000e+02, Elapsed Time = 1.50e+01 s
It   285: Res = 2.297010e-06, Cfl = 2.000000e+02, Elapsed Time = 1.51e+01 s
It   286: Res = 2.250796e-06, Cfl = 2.000000e+02, Elapsed Time = 1.52e+01 s
It   287: Res = 2.203320e-06, Cfl = 2.000000e+02, Elapsed Time = 1.52e+01 s
It   288: Res = 2.151239e-06, Cfl = 2.000000e+02, Elapsed Time = 1.53e+01 s
It   289: Res = 2.095391e-06, Cfl = 2.000000e+02, Elapsed Time = 1.53e+01 s
It   290: Res = 2.037094e-06, Cfl = 2.000000e+02, Elapsed Time = 1.54e+01 s
It   291: Res = 1.977810e-06, Cfl = 2.000000e+02, Elapsed Time = 1.55e+01 s
It   292: Res = 1.918613e-06, Cfl = 2.000000e+02, Elapsed Time = 1.55e+01 s
It   293: Res = 1.859974e-06, Cfl = 2.000000e+02, Elapsed Time = 1.56e+01 s
It   294: Res = 1.802021e-06, Cfl = 2.000000e+02, Elapsed Time = 1.57e+01 s
It   295: Res = 1.744562e-06, Cfl = 2.000000e+02, Elapsed Time = 1.57e+01 s
It   296: Res = 1.685988e-06, Cfl = 2.000000e+02, Elapsed Time = 1.58e+01 s
It   297: Res = 1.625770e-06, Cfl = 2.000000e+02, Elapsed Time = 1.58e+01 s
It   298: Res = 1.566576e-06, Cfl = 2.000000e+02, Elapsed Time = 1.59e+01 s
It   299: Res = 1.508062e-06, Cfl = 2.000000e+02, Elapsed Time = 1.60e+01 s
It   300: Res = 1.497963e-06, Cfl = 2.000000e+02, Elapsed Time = 1.60e+01 s
It   301: Res = 1.492766e-06, Cfl = 2.000000e+02, Elapsed Time = 1.61e+01 s
It   302: Res = 1.482008e-06, Cfl = 2.000000e+02, Elapsed Time = 1.61e+01 s
It   303: Res = 1.462383e-06, Cfl = 2.000000e+02, Elapsed Time = 1.62e+01 s
It   304: Res = 1.432415e-06, Cfl = 2.000000e+02, Elapsed Time = 1.63e+01 s
It   305: Res = 1.394200e-06, Cfl = 2.000000e+02, Elapsed Time = 1.63e+01 s
It   306: Res = 1.350034e-06, Cfl = 2.000000e+02, Elapsed Time = 1.64e+01 s
It   307: Res = 1.301987e-06, Cfl = 2.000000e+02, Elapsed Time = 1.64e+01 s
It   308: Res = 1.250860e-06, Cfl = 2.000000e+02, Elapsed Time = 1.65e+01 s
It   309: Res = 1.193113e-06, Cfl = 2.000000e+02, Elapsed Time = 1.66e+01 s
It   310: Res = 1.135474e-06, Cfl = 2.000000e+02, Elapsed Time = 1.66e+01 s
It   311: Res = 1.080972e-06, Cfl = 2.000000e+02, Elapsed Time = 1.67e+01 s
It   312: Res = 1.027967e-06, Cfl = 2.000000e+02, Elapsed Time = 1.67e+01 s
It   313: Res = 9.764362e-07, Cfl = 2.000000e+02, Elapsed Time = 1.68e+01 s
It   314: Res = 9.271419e-07, Cfl = 2.000000e+02, Elapsed Time = 1.69e+01 s
It   315: Res = 8.802568e-07, Cfl = 2.000000e+02, Elapsed Time = 1.69e+01 s
It   316: Res = 8.361298e-07, Cfl = 2.000000e+02, Elapsed Time = 1.70e+01 s
It   317: Res = 7.949405e-07, Cfl = 2.000000e+02, Elapsed Time = 1.70e+01 s
It   318: Res = 7.511261e-07, Cfl = 2.000000e+02, Elapsed Time = 1.71e+01 s
It   319: Res = 7.119239e-07, Cfl = 2.000000e+02, Elapsed Time = 1.72e+01 s
It   320: Res = 6.784278e-07, Cfl = 2.000000e+02, Elapsed Time = 1.72e+01 s
It   321: Res = 6.492937e-07, Cfl = 2.000000e+02, Elapsed Time = 1.73e+01 s
It   322: Res = 6.233614e-07, Cfl = 2.000000e+02, Elapsed Time = 1.73e+01 s
It   323: Res = 6.000360e-07, Cfl = 2.000000e+02, Elapsed Time = 1.74e+01 s
It   324: Res = 5.794208e-07, Cfl = 2.000000e+02, Elapsed Time = 1.74e+01 s
It   325: Res = 5.613244e-07, Cfl = 2.000000e+02, Elapsed Time = 1.75e+01 s
It   326: Res = 5.444696e-07, Cfl = 2.000000e+02, Elapsed Time = 1.76e+01 s
It   327: Res = 5.255304e-07, Cfl = 2.000000e+02, Elapsed Time = 1.76e+01 s
It   328: Res = 5.125079e-07, Cfl = 2.000000e+02, Elapsed Time = 1.77e+01 s
It   329: Res = 5.035769e-07, Cfl = 2.000000e+02, Elapsed Time = 1.77e+01 s
It   330: Res = 4.968137e-07, Cfl = 2.000000e+02, Elapsed Time = 1.78e+01 s
It   331: Res = 4.924877e-07, Cfl = 2.000000e+02, Elapsed Time = 1.79e+01 s
It   332: Res = 4.895366e-07, Cfl = 2.000000e+02, Elapsed Time = 1.79e+01 s
It   333: Res = 4.859390e-07, Cfl = 2.000000e+02, Elapsed Time = 1.80e+01 s
It   334: Res = 4.841924e-07, Cfl = 2.000000e+02, Elapsed Time = 1.81e+01 s
It   335: Res = 4.870437e-07, Cfl = 2.000000e+02, Elapsed Time = 1.81e+01 s
It   336: Res = 4.893697e-07, Cfl = 2.000000e+02, Elapsed Time = 1.82e+01 s
It   337: Res = 4.903829e-07, Cfl = 2.000000e+02, Elapsed Time = 1.82e+01 s
It   338: Res = 4.902441e-07, Cfl = 2.000000e+02, Elapsed Time = 1.83e+01 s
It   339: Res = 4.902942e-07, Cfl = 2.000000e+02, Elapsed Time = 1.84e+01 s
It   340: Res = 4.907127e-07, Cfl = 2.000000e+02, Elapsed Time = 1.84e+01 s
It   341: Res = 4.909762e-07, Cfl = 2.000000e+02, Elapsed Time = 1.85e+01 s
It   342: Res = 4.922165e-07, Cfl = 2.000000e+02, Elapsed Time = 1.86e+01 s
It   343: Res = 4.942133e-07, Cfl = 2.000000e+02, Elapsed Time = 1.86e+01 s
It   344: Res = 4.960688e-07, Cfl = 2.000000e+02, Elapsed Time = 1.87e+01 s
It   345: Res = 4.976922e-07, Cfl = 2.000000e+02, Elapsed Time = 1.88e+01 s
It   346: Res = 4.985980e-07, Cfl = 2.000000e+02, Elapsed Time = 1.88e+01 s
It   347: Res = 4.992101e-07, Cfl = 2.000000e+02, Elapsed Time = 1.89e+01 s
It   348: Res = 4.997391e-07, Cfl = 2.000000e+02, Elapsed Time = 1.90e+01 s
It   349: Res = 5.007641e-07, Cfl = 2.000000e+02, Elapsed Time = 1.90e+01 s
It   350: Res = 5.037753e-07, Cfl = 2.000000e+02, Elapsed Time = 1.91e+01 s
It   351: Res = 5.061948e-07, Cfl = 2.000000e+02, Elapsed Time = 1.92e+01 s
It   352: Res = 5.080190e-07, Cfl = 2.000000e+02, Elapsed Time = 1.92e+01 s
It   353: Res = 5.094654e-07, Cfl = 2.000000e+02, Elapsed Time = 1.93e+01 s
It   354: Res = 5.101247e-07, Cfl = 2.000000e+02, Elapsed Time = 1.93e+01 s
It   355: Res = 5.102505e-07, Cfl = 2.000000e+02, Elapsed Time = 1.94e+01 s
It   356: Res = 5.102126e-07, Cfl = 2.000000e+02, Elapsed Time = 1.95e+01 s
It   357: Res = 5.104889e-07, Cfl = 2.000000e+02, Elapsed Time = 1.95e+01 s
It   358: Res = 5.104982e-07, Cfl = 2.000000e+02, Elapsed Time = 1.96e+01 s
It   359: Res = 5.101077e-07, Cfl = 2.000000e+02, Elapsed Time = 1.96e+01 s
It   360: Res = 5.094237e-07, Cfl = 2.000000e+02, Elapsed Time = 1.97e+01 s
It   361: Res = 5.085562e-07, Cfl = 2.000000e+02, Elapsed Time = 1.98e+01 s
It   362: Res = 5.074795e-07, Cfl = 2.000000e+02, Elapsed Time = 1.98e+01 s
It   363: Res = 5.061096e-07, Cfl = 2.000000e+02, Elapsed Time = 1.99e+01 s
It   364: Res = 5.044782e-07, Cfl = 2.000000e+02, Elapsed Time = 2.00e+01 s
It   365: Res = 5.011456e-07, Cfl = 2.000000e+02, Elapsed Time = 2.00e+01 s
It   366: Res = 4.964910e-07, Cfl = 2.000000e+02, Elapsed Time = 2.01e+01 s
It   367: Res = 4.927862e-07, Cfl = 2.000000e+02, Elapsed Time = 2.01e+01 s
It   368: Res = 4.898221e-07, Cfl = 2.000000e+02, Elapsed Time = 2.02e+01 s
It   369: Res = 4.871779e-07, Cfl = 2.000000e+02, Elapsed Time = 2.03e+01 s
It   370: Res = 4.832575e-07, Cfl = 2.000000e+02, Elapsed Time = 2.03e+01 s
It   371: Res = 4.794622e-07, Cfl = 2.000000e+02, Elapsed Time = 2.04e+01 s
It   372: Res = 4.754396e-07, Cfl = 2.000000e+02, Elapsed Time = 2.05e+01 s
It   373: Res = 4.714459e-07, Cfl = 2.000000e+02, Elapsed Time = 2.05e+01 s
It   374: Res = 4.691215e-07, Cfl = 2.000000e+02, Elapsed Time = 2.06e+01 s
It   375: Res = 4.660063e-07, Cfl = 2.000000e+02, Elapsed Time = 2.07e+01 s
It   376: Res = 4.625654e-07, Cfl = 2.000000e+02, Elapsed Time = 2.07e+01 s
It   377: Res = 4.591242e-07, Cfl = 2.000000e+02, Elapsed Time = 2.08e+01 s
It   378: Res = 4.557600e-07, Cfl = 2.000000e+02, Elapsed Time = 2.09e+01 s
It   379: Res = 4.524682e-07, Cfl = 2.000000e+02, Elapsed Time = 2.09e+01 s
It   380: Res = 4.490008e-07, Cfl = 2.000000e+02, Elapsed Time = 2.10e+01 s
It   381: Res = 4.453310e-07, Cfl = 2.000000e+02, Elapsed Time = 2.11e+01 s
It   382: Res = 4.414714e-07, Cfl = 2.000000e+02, Elapsed Time = 2.11e+01 s
It   383: Res = 4.374826e-07, Cfl = 2.000000e+02, Elapsed Time = 2.12e+01 s
It   384: Res = 4.332504e-07, Cfl = 2.000000e+02, Elapsed Time = 2.13e+01 s
It   385: Res = 4.287621e-07, Cfl = 2.000000e+02, Elapsed Time = 2.13e+01 s
It   386: Res = 4.245384e-07, Cfl = 2.000000e+02, Elapsed Time = 2.14e+01 s
It   387: Res = 4.205638e-07, Cfl = 2.000000e+02, Elapsed Time = 2.15e+01 s
It   388: Res = 4.162192e-07, Cfl = 2.000000e+02, Elapsed Time = 2.15e+01 s
It   389: Res = 4.111523e-07, Cfl = 2.000000e+02, Elapsed Time = 2.16e+01 s
It   390: Res = 4.059062e-07, Cfl = 2.000000e+02, Elapsed Time = 2.17e+01 s
It   391: Res = 4.007895e-07, Cfl = 2.000000e+02, Elapsed Time = 2.17e+01 s
It   392: Res = 3.957673e-07, Cfl = 2.000000e+02, Elapsed Time = 2.18e+01 s
It   393: Res = 3.907821e-07, Cfl = 2.000000e+02, Elapsed Time = 2.19e+01 s
It   394: Res = 3.859287e-07, Cfl = 2.000000e+02, Elapsed Time = 2.19e+01 s
It   395: Res = 3.812497e-07, Cfl = 2.000000e+02, Elapsed Time = 2.20e+01 s
It   396: Res = 3.767928e-07, Cfl = 2.000000e+02, Elapsed Time = 2.21e+01 s
It   397: Res = 3.724220e-07, Cfl = 2.000000e+02, Elapsed Time = 2.21e+01 s
It   398: Res = 3.680572e-07, Cfl = 2.000000e+02, Elapsed Time = 2.22e+01 s
It   399: Res = 3.637301e-07, Cfl = 2.000000e+02, Elapsed Time = 2.23e+01 s
It   400: Res = 3.594871e-07, Cfl = 2.000000e+02, Elapsed Time = 2.23e+01 s
It   401: Res = 3.539384e-07, Cfl = 2.000000e+02, Elapsed Time = 2.24e+01 s
It   402: Res = 3.493636e-07, Cfl = 2.000000e+02, Elapsed Time = 2.24e+01 s
It   403: Res = 3.453975e-07, Cfl = 2.000000e+02, Elapsed Time = 2.25e+01 s
It   404: Res = 3.414400e-07, Cfl = 2.000000e+02, Elapsed Time = 2.26e+01 s
It   405: Res = 3.372740e-07, Cfl = 2.000000e+02, Elapsed Time = 2.26e+01 s
It   406: Res = 3.340580e-07, Cfl = 2.000000e+02, Elapsed Time = 2.27e+01 s
It   407: Res = 3.310760e-07, Cfl = 2.000000e+02, Elapsed Time = 2.28e+01 s
It   408: Res = 3.280523e-07, Cfl = 2.000000e+02, Elapsed Time = 2.28e+01 s
It   409: Res = 3.250089e-07, Cfl = 2.000000e+02, Elapsed Time = 2.29e+01 s
It   410: Res = 3.219008e-07, Cfl = 2.000000e+02, Elapsed Time = 2.29e+01 s
It   411: Res = 3.187296e-07, Cfl = 2.000000e+02, Elapsed Time = 2.30e+01 s
It   412: Res = 3.158952e-07, Cfl = 2.000000e+02, Elapsed Time = 2.31e+01 s
It   413: Res = 3.131563e-07, Cfl = 2.000000e+02, Elapsed Time = 2.31e+01 s
It   414: Res = 3.106690e-07, Cfl = 2.000000e+02, Elapsed Time = 2.32e+01 s
It   415: Res = 3.082464e-07, Cfl = 2.000000e+02, Elapsed Time = 2.33e+01 s
It   416: Res = 3.057421e-07, Cfl = 2.000000e+02, Elapsed Time = 2.33e+01 s
It   417: Res = 3.031424e-07, Cfl = 2.000000e+02, Elapsed Time = 2.34e+01 s
It   418: Res = 3.005931e-07, Cfl = 2.000000e+02, Elapsed Time = 2.34e+01 s
It   419: Res = 2.979392e-07, Cfl = 2.000000e+02, Elapsed Time = 2.35e+01 s
It   420: Res = 2.743336e-07, Cfl = 2.000000e+02, Elapsed Time = 2.36e+01 s
It   421: Res = 2.659370e-07, Cfl = 2.000000e+02, Elapsed Time = 2.36e+01 s
It   422: Res = 2.616398e-07, Cfl = 2.000000e+02, Elapsed Time = 2.37e+01 s
It   423: Res = 2.587163e-07, Cfl = 2.000000e+02, Elapsed Time = 2.37e+01 s
It   424: Res = 2.564341e-07, Cfl = 2.000000e+02, Elapsed Time = 2.38e+01 s
It   425: Res = 2.544356e-07, Cfl = 2.000000e+02, Elapsed Time = 2.39e+01 s
It   426: Res = 2.524642e-07, Cfl = 2.000000e+02, Elapsed Time = 2.39e+01 s
It   427: Res = 2.504533e-07, Cfl = 2.000000e+02, Elapsed Time = 2.40e+01 s
It   428: Res = 2.484765e-07, Cfl = 2.000000e+02, Elapsed Time = 2.40e+01 s
It   429: Res = 2.464575e-07, Cfl = 2.000000e+02, Elapsed Time = 2.41e+01 s
It   430: Res = 2.443972e-07, Cfl = 2.000000e+02, Elapsed Time = 2.42e+01 s
It   431: Res = 2.423288e-07, Cfl = 2.000000e+02, Elapsed Time = 2.42e+01 s
It   432: Res = 2.402356e-07, Cfl = 2.000000e+02, Elapsed Time = 2.43e+01 s
It   433: Res = 2.380763e-07, Cfl = 2.000000e+02, Elapsed Time = 2.43e+01 s
It   434: Res = 2.358494e-07, Cfl = 2.000000e+02, Elapsed Time = 2.44e+01 s
It   435: Res = 2.336232e-07, Cfl = 2.000000e+02, Elapsed Time = 2.45e+01 s
It   436: Res = 2.313880e-07, Cfl = 2.000000e+02, Elapsed Time = 2.45e+01 s
It   437: Res = 2.291008e-07, Cfl = 2.000000e+02, Elapsed Time = 2.46e+01 s
It   438: Res = 2.268193e-07, Cfl = 2.000000e+02, Elapsed Time = 2.46e+01 s
It   439: Res = 2.245378e-07, Cfl = 2.000000e+02, Elapsed Time = 2.47e+01 s
It   440: Res = 2.222338e-07, Cfl = 2.000000e+02, Elapsed Time = 2.48e+01 s
It   441: Res = 2.199294e-07, Cfl = 2.000000e+02, Elapsed Time = 2.48e+01 s
It   442: Res = 2.176229e-07, Cfl = 2.000000e+02, Elapsed Time = 2.49e+01 s
It   443: Res = 2.153330e-07, Cfl = 2.000000e+02, Elapsed Time = 2.49e+01 s
It   444: Res = 2.130141e-07, Cfl = 2.000000e+02, Elapsed Time = 2.50e+01 s
It   445: Res = 2.107419e-07, Cfl = 2.000000e+02, Elapsed Time = 2.51e+01 s
It   446: Res = 2.086557e-07, Cfl = 2.000000e+02, Elapsed Time = 2.51e+01 s
It   447: Res = 2.066404e-07, Cfl = 2.000000e+02, Elapsed Time = 2.52e+01 s
It   448: Res = 2.044846e-07, Cfl = 2.000000e+02, Elapsed Time = 2.53e+01 s
It   449: Res = 2.021822e-07, Cfl = 2.000000e+02, Elapsed Time = 2.53e+01 s
It   450: Res = 1.999617e-07, Cfl = 2.000000e+02, Elapsed Time = 2.54e+01 s
It   451: Res = 1.977775e-07, Cfl = 2.000000e+02, Elapsed Time = 2.54e+01 s
It   452: Res = 1.956283e-07, Cfl = 2.000000e+02, Elapsed Time = 2.55e+01 s
It   453: Res = 1.935316e-07, Cfl = 2.000000e+02, Elapsed Time = 2.56e+01 s
It   454: Res = 1.914703e-07, Cfl = 2.000000e+02, Elapsed Time = 2.56e+01 s
It   455: Res = 1.894243e-07, Cfl = 2.000000e+02, Elapsed Time = 2.57e+01 s
It   456: Res = 1.873774e-07, Cfl = 2.000000e+02, Elapsed Time = 2.57e+01 s
It   457: Res = 1.853704e-07, Cfl = 2.000000e+02, Elapsed Time = 2.58e+01 s
It   458: Res = 1.833902e-07, Cfl = 2.000000e+02, Elapsed Time = 2.59e+01 s
It   459: Res = 1.815298e-07, Cfl = 2.000000e+02, Elapsed Time = 2.59e+01 s
It   460: Res = 1.795721e-07, Cfl = 2.000000e+02, Elapsed Time = 2.60e+01 s
It   461: Res = 1.779461e-07, Cfl = 2.000000e+02, Elapsed Time = 2.61e+01 s
It   462: Res = 1.764399e-07, Cfl = 2.000000e+02, Elapsed Time = 2.61e+01 s
It   463: Res = 1.748298e-07, Cfl = 2.000000e+02, Elapsed Time = 2.62e+01 s
It   464: Res = 1.730512e-07, Cfl = 2.000000e+02, Elapsed Time = 2.62e+01 s
It   465: Res = 1.712651e-07, Cfl = 2.000000e+02, Elapsed Time = 2.63e+01 s
It   466: Res = 1.694667e-07, Cfl = 2.000000e+02, Elapsed Time = 2.64e+01 s
It   467: Res = 1.676765e-07, Cfl = 2.000000e+02, Elapsed Time = 2.64e+01 s
It   468: Res = 1.659096e-07, Cfl = 2.000000e+02, Elapsed Time = 2.65e+01 s
It   469: Res = 1.641656e-07, Cfl = 2.000000e+02, Elapsed Time = 2.66e+01 s
It   470: Res = 1.624507e-07, Cfl = 2.000000e+02, Elapsed Time = 2.66e+01 s
It   471: Res = 1.607518e-07, Cfl = 2.000000e+02, Elapsed Time = 2.67e+01 s
It   472: Res = 1.590412e-07, Cfl = 2.000000e+02, Elapsed Time = 2.67e+01 s
It   473: Res = 1.573454e-07, Cfl = 2.000000e+02, Elapsed Time = 2.68e+01 s
It   474: Res = 1.557077e-07, Cfl = 2.000000e+02, Elapsed Time = 2.69e+01 s
It   475: Res = 1.541101e-07, Cfl = 2.000000e+02, Elapsed Time = 2.69e+01 s
It   476: Res = 1.525383e-07, Cfl = 2.000000e+02, Elapsed Time = 2.70e+01 s
It   477: Res = 1.509340e-07, Cfl = 2.000000e+02, Elapsed Time = 2.71e+01 s
It   478: Res = 1.492212e-07, Cfl = 2.000000e+02, Elapsed Time = 2.71e+01 s
It   479: Res = 1.476789e-07, Cfl = 2.000000e+02, Elapsed Time = 2.72e+01 s
It   480: Res = 1.461833e-07, Cfl = 2.000000e+02, Elapsed Time = 2.72e+01 s
It   481: Res = 1.447086e-07, Cfl = 2.000000e+02, Elapsed Time = 2.73e+01 s
It   482: Res = 1.432227e-07, Cfl = 2.000000e+02, Elapsed Time = 2.74e+01 s
It   483: Res = 1.421204e-07, Cfl = 2.000000e+02, Elapsed Time = 2.74e+01 s
It   484: Res = 1.409230e-07, Cfl = 2.000000e+02, Elapsed Time = 2.75e+01 s
It   485: Res = 1.395072e-07, Cfl = 2.000000e+02, Elapsed Time = 2.75e+01 s
It   486: Res = 1.379289e-07, Cfl = 2.000000e+02, Elapsed Time = 2.76e+01 s
It   487: Res = 1.362608e-07, Cfl = 2.000000e+02, Elapsed Time = 2.77e+01 s
It   488: Res = 1.345351e-07, Cfl = 2.000000e+02, Elapsed Time = 2.77e+01 s
It   489: Res = 1.328450e-07, Cfl = 2.000000e+02, Elapsed Time = 2.78e+01 s
It   490: Res = 1.311960e-07, Cfl = 2.000000e+02, Elapsed Time = 2.78e+01 s
It   491: Res = 1.295701e-07, Cfl = 2.000000e+02, Elapsed Time = 2.79e+01 s
It   492: Res = 1.277774e-07, Cfl = 2.000000e+02, Elapsed Time = 2.80e+01 s
It   493: Res = 1.259568e-07, Cfl = 2.000000e+02, Elapsed Time = 2.80e+01 s
It   494: Res = 1.242269e-07, Cfl = 2.000000e+02, Elapsed Time = 2.81e+01 s
It   495: Res = 1.224472e-07, Cfl = 2.000000e+02, Elapsed Time = 2.81e+01 s
It   496: Res = 1.205479e-07, Cfl = 2.000000e+02, Elapsed Time = 2.82e+01 s
It   497: Res = 1.187283e-07, Cfl = 2.000000e+02, Elapsed Time = 2.83e+01 s
It   498: Res = 1.170135e-07, Cfl = 2.000000e+02, Elapsed Time = 2.83e+01 s
It   499: Res = 1.153301e-07, Cfl = 2.000000e+02, Elapsed Time = 2.84e+01 s
It   500: Res = 1.136570e-07, Cfl = 2.000000e+02, Elapsed Time = 2.84e+01 s
It   501: Res = 1.120184e-07, Cfl = 2.000000e+02, Elapsed Time = 2.85e+01 s
It   502: Res = 1.103868e-07, Cfl = 2.000000e+02, Elapsed Time = 2.86e+01 s
It   503: Res = 1.088850e-07, Cfl = 2.000000e+02, Elapsed Time = 2.86e+01 s
It   504: Res = 1.075310e-07, Cfl = 2.000000e+02, Elapsed Time = 2.87e+01 s
It   505: Res = 1.060979e-07, Cfl = 2.000000e+02, Elapsed Time = 2.87e+01 s
It   506: Res = 1.046257e-07, Cfl = 2.000000e+02, Elapsed Time = 2.88e+01 s
It   507: Res = 1.031648e-07, Cfl = 2.000000e+02, Elapsed Time = 2.89e+01 s
It   508: Res = 1.016601e-07, Cfl = 2.000000e+02, Elapsed Time = 2.89e+01 s
It   509: Res = 1.000896e-07, Cfl = 2.000000e+02, Elapsed Time = 2.90e+01 s
It   510: Res = 9.843168e-08, Cfl = 2.000000e+02, Elapsed Time = 2.90e+01 s
Wrote solution 0 to 'postpro/Pressure.bin'
Wrote solution 0 to 'references/Solution.bin'

----------------------------------------------------------------------
Elapsed Time Report (s)       :        Min        Max        Avg   # Calls

Problem Setup                 :       0.78       0.79       0.79         1

Fluid Solution                :      28.36      28.38      28.38         -
  Time Steps                  :       0.25       0.28       0.26       510
  Nodal Weights and Gradients :       0.19       0.32       0.26      1022
  FV Fluxes                   :       0.53       0.63       0.59      1021
  FE Fluxes                   :       0.28       0.31       0.30      1021
  FV Jacobian                 :       0.75       0.81       0.78      1020
  FE Jacobian                 :       0.73       0.80       0.76      1020
  VMS-LES Modeling            :       0.00       0.00       0.00         0
  Dynamic VMS-LES Modeling    :       0.00       0.00       0.00         0
  H2 Matrix Assembly          :       0.00       0.00       0.00         0
  Preconditioner Setup        :       0.31       0.35       0.33       510
  Linear Solver               :      25.20      25.31      25.26      1020
  Mesh Metrics Update         :       0.00       0.00       0.00         0

Mesh Solution                 :       0.00       0.00       0.00         -
  K Matrix Assembly           :       0.00       0.00       0.00         0
  Preconditioner Setup        :       0.00       0.00       0.00         0
  Linear Solver               :       0.00       0.00       0.00         0

Communication/Synchronization :      22.91      23.63      23.26         -
  Local                       :       0.92       2.11       1.70         -
  Global                      :      21.15      22.33      21.56         -
  RMA                         :       0.00       0.00       0.00         -
  Inter                       :       0.00       0.00       0.00         0

I/O                           :       2.25       4.15       3.09         -
  Binary Read                 :       0.00       0.01       0.00         1
  Binary Write                :       2.25       4.14       3.08         2

Total Simulation              :      33.00      34.32      33.55         -
----------------------------------------------------------------------
