# TimeIteration ElapsedTime RelativeResidual CflNumber
0 0.000000e+00 1.000000e+00 0.000000e+00
1 5.869479e-01 3.656857e-01 2.000000e+00
2 7.144260e-01 2.820325e-01 2.000000e+00
3 7.242241e-01 1.826958e-01 4.000000e+00
4 7.346320e-01 1.073166e-01 6.000000e+00
5 7.456250e-01 6.102905e-02 8.000000e+00
6 7.573171e-01 3.562633e-02 1.000000e+01
7 7.700410e-01 2.320549e-02 1.200000e+01
8 7.835209e-01 1.794123e-02 1.400000e+01
9 7.977390e-01 1.569105e-02 1.600000e+01
10 8.130310e-01 1.437186e-02 1.800000e+01
11 8.281460e-01 1.328829e-02 2.000000e+01
12 8.442230e-01 1.229439e-02 2.200000e+01
13 8.603110e-01 1.131755e-02 2.400000e+01
14 8.764601e-01 1.029470e-02 2.600000e+01
15 8.939140e-01 9.223681e-03 2.800000e+01
16 9.124019e-01 8.155667e-03 3.000000e+01
17 9.308610e-01 7.141376e-03 3.200000e+01
18 9.504111e-01 6.195987e-03 3.400000e+01
19 9.700079e-01 5.310100e-03 3.600000e+01
20 9.906311e-01 4.476148e-03 3.800000e+01
21 1.011510e+00 3.699783e-03 4.000000e+01
22 1.033305e+00 2.996207e-03 4.200000e+01
23 1.056423e+00 2.380369e-03 4.400000e+01
24 1.079404e+00 1.858328e-03 4.600000e+01
25 1.103810e+00 1.425372e-03 4.800000e+01
26 1.129525e+00 1.074019e-03 5.000000e+01
27 1.156766e+00 8.044871e-04 5.200000e+01
28 1.184028e+00 6.264123e-04 5.400000e+01
29 1.212715e+00 5.396484e-04 5.600000e+01
30 1.242753e+00 5.110331e-04 5.800000e+01
31 1.274339e+00 4.945762e-04 6.000000e+01
32 1.305851e+00 4.653730e-04 6.200000e+01
33 1.337430e+00 4.229140e-04 6.400000e+01
34 1.368970e+00 3.799032e-04 6.600000e+01
35 1.400608e+00 3.498486e-04 6.800000e+01
36 1.432057e+00 3.364931e-04 7.000000e+01
37 1.466292e+00 3.321003e-04 7.200000e+01
38 1.499398e+00 3.257778e-04 7.400000e+01
39 1.532993e+00 3.110492e-04 7.600000e+01
40 1.566679e+00 2.876041e-04 7.800000e+01
41 1.602361e+00 2.598903e-04 8.000000e+01
42 1.637478e+00 2.345892e-04 8.200000e+01
43 1.674396e+00 2.173548e-04 8.400000e+01
44 1.713400e+00 2.097875e-04 8.600000e+01
45 1.752126e+00 2.092583e-04 8.800000e+01
46 1.790719e+00 2.118448e-04 9.000000e+01
47 1.829290e+00 2.149449e-04 9.200000e+01
48 1.869746e+00 2.177001e-04 9.400000e+01
49 1.910184e+00 2.201943e-04 9.600000e+01
50 1.950726e+00 2.226415e-04 9.800000e+01
51 1.989570e+00 2.250178e-04 1.000000e+02
52 2.028597e+00 2.270810e-04 1.020000e+02
53 2.067200e+00 2.285270e-04 1.040000e+02
54 2.107644e+00 2.291088e-04 1.060000e+02
55 2.147984e+00 2.286759e-04 1.080000e+02
56 2.190269e+00 2.271686e-04 1.100000e+02
57 2.233334e+00 2.245979e-04 1.120000e+02
58 2.276132e+00 2.210262e-04 1.140000e+02
59 2.320345e+00 2.165584e-04 1.160000e+02
60 2.364644e+00 2.113222e-04 1.180000e+02
61 2.409061e+00 2.054714e-04 1.200000e+02
62 2.455099e+00 1.991692e-04 1.220000e+02
63 2.501150e+00 1.925581e-04 1.240000e+02
64 2.549237e+00 1.857824e-04 1.260000e+02
65 2.597521e+00 1.789738e-04 1.280000e+02
66 2.648211e+00 1.722528e-04 1.300000e+02
67 2.698787e+00 1.657125e-04 1.320000e+02
68 2.750342e+00 1.594175e-04 1.340000e+02
69 2.803237e+00 1.534155e-04 1.360000e+02
70 2.855863e+00 1.477413e-04 1.380000e+02
71 2.908542e+00 1.424256e-04 1.400000e+02
72 2.961490e+00 1.374642e-04 1.420000e+02
73 3.016637e+00 1.328623e-04 1.440000e+02
74 3.071443e+00 1.286025e-04 1.460000e+02
75 3.126362e+00 1.246747e-04 1.480000e+02
76 3.183950e+00 1.210614e-04 1.500000e+02
77 3.241527e+00 1.177423e-04 1.520000e+02
78 3.299018e+00 1.146923e-04 1.540000e+02
79 3.356562e+00 1.118913e-04 1.560000e+02
80 3.414215e+00 1.093228e-04 1.580000e+02
81 3.474121e+00 1.069663e-04 1.600000e+02
82 3.533945e+00 1.048017e-04 1.620000e+02
83 3.594005e+00 1.028112e-04 1.640000e+02
84 3.653845e+00 1.009781e-04 1.660000e+02
85 3.713815e+00 9.928133e-05 1.680000e+02
86 3.773737e+00 9.769711e-05 1.700000e+02
87 3.836210e+00 9.620138e-05 1.720000e+02
88 3.898360e+00 9.477877e-05 1.740000e+02
89 3.960915e+00 9.341593e-05 1.760000e+02
90 4.025832e+00 9.210202e-05 1.780000e+02
91 4.091411e+00 9.083136e-05 1.800000e+02
92 4.158596e+00 8.958665e-05 1.820000e+02
93 4.225494e+00 8.835850e-05 1.840000e+02
94 4.292385e+00 8.714601e-05 1.860000e+02
95 4.359260e+00 8.594769e-05 1.880000e+02
96 4.428723e+00 8.476225e-05 1.900000e+02
97 4.498337e+00 8.358481e-05 1.920000e+02
98 4.568269e+00 8.240706e-05 1.940000e+02
99 4.639059e+00 8.120372e-05 1.960000e+02
100 4.709075e+00 7.995336e-05 1.980000e+02
101 4.781603e+00 7.864270e-05 2.000000e+02
102 4.854148e+00 7.719466e-05 2.000000e+02
103 4.926623e+00 7.563939e-05 2.000000e+02
104 4.999382e+00 7.397053e-05 2.000000e+02
105 5.072032e+00 7.218995e-05 2.000000e+02
106 5.144550e+00 7.030017e-05 2.000000e+02
107 5.217710e+00 6.829449e-05 2.000000e+02
108 5.290771e+00 6.617098e-05 2.000000e+02
109 5.363673e+00 6.394580e-05 2.000000e+02
110 5.436020e+00 6.164259e-05 2.000000e+02
111 5.508562e+00 5.928265e-05 2.000000e+02
112 5.581378e+00 5.688643e-05 2.000000e+02
113 5.654355e+00 5.447629e-05 2.000000e+02
114 5.735986e+00 5.207802e-05 2.000000e+02
115 5.808659e+00 4.971607e-05 2.000000e+02
116 5.881030e+00 4.741003e-05 2.000000e+02
117 5.953648e+00 4.517509e-05 2.000000e+02
118 6.026411e+00 4.302227e-05 2.000000e+02
119 6.100358e+00 4.095882e-05 2.000000e+02
120 6.172905e+00 3.898871e-05 2.000000e+02
121 6.245381e+00 3.711294e-05 2.000000e+02
122 6.317965e+00 3.533035e-05 2.000000e+02
123 6.390344e+00 3.363837e-05 2.000000e+02
124 6.463151e+00 3.203358e-05 2.000000e+02
125 6.535651e+00 3.051217e-05 2.000000e+02
126 6.608566e+00 2.907009e-05 2.000000e+02
127 6.681745e+00 2.770341e-05 2.000000e+02
128 6.754316e+00 2.640817e-05 2.000000e+02
129 6.826848e+00 2.518050e-05 2.000000e+02
130 6.899254e+00 2.401667e-05 2.000000e+02
131 6.971840e+00 2.291310e-05 2.000000e+02
132 7.044516e+00 2.186639e-05 2.000000e+02
133 7.118403e+00 2.087333e-05 2.000000e+02
134 7.190996e+00 1.993081e-05 2.000000e+02
135 7.264042e+00 1.903607e-05 2.000000e+02
136 7.336526e+00 1.818644e-05 2.000000e+02
137 7.408830e+00 1.737942e-05 2.000000e+02
138 7.481685e+00 1.661269e-05 2.000000e+02
139 7.554111e+00 1.588409e-05 2.000000e+02
140 7.626563e+00 1.519159e-05 2.000000e+02
141 7.698857e+00 1.453330e-05 2.000000e+02
142 7.771527e+00 1.390744e-05 2.000000e+02
143 7.843989e+00 1.331233e-05 2.000000e+02
144 7.916458e+00 1.274645e-05 2.000000e+02
145 7.989028e+00 1.220826e-05 2.000000e+02
146 8.063783e+00 1.169639e-05 2.000000e+02
147 8.136100e+00 1.120953e-05 2.000000e+02
148 8.208521e+00 1.074641e-05 2.000000e+02
149 8.280852e+00 1.030588e-05 2.000000e+02
150 8.353382e+00 9.886807e-06 2.000000e+02
151 8.425765e+00 9.488130e-06 2.000000e+02
152 8.498122e+00 9.108841e-06 2.000000e+02
153 8.570705e+00 8.747987e-06 2.000000e+02
154 8.643205e+00 8.404671e-06 2.000000e+02
155 8.715589e+00 8.078009e-06 2.000000e+02
156 8.788137e+00 7.767181e-06 2.000000e+02
157 8.860574e+00 7.471413e-06 2.000000e+02
158 8.932927e+00 7.189975e-06 2.000000e+02
159 9.005490e+00 6.922153e-06 2.000000e+02
160 9.081060e+00 6.667273e-06 2.000000e+02
161 9.153522e+00 6.424699e-06 2.000000e+02
162 9.226131e+00 6.193829e-06 2.000000e+02
163 9.298670e+00 5.974080e-06 2.000000e+02
164 9.371104e+00 5.764905e-06 2.000000e+02
165 9.443533e+00 5.565779e-06 2.000000e+02
166 9.515864e+00 5.376208e-06 2.000000e+02
167 9.588379e+00 5.195718e-06 2.000000e+02
168 9.661202e+00 5.023851e-06 2.000000e+02
169 9.733870e+00 4.860179e-06 2.000000e+02
170 9.806503e+00 4.704292e-06 2.000000e+02
171 9.878881e+00 4.555799e-06 2.000000e+02
172 9.951438e+00 4.414325e-06 2.000000e+02
173 1.002422e+01 4.279519e-06 2.000000e+02
174 1.009655e+01 4.151042e-06 2.000000e+02
175 1.016967e+01 4.028575e-06 2.000000e+02
176 1.024201e+01 3.911807e-06 2.000000e+02
177 1.031481e+01 3.800452e-06 2.000000e+02
178 1.038733e+01 3.694231e-06 2.000000e+02
179 1.045969e+01 3.592879e-06 2.000000e+02
180 1.053240e+01 3.496142e-06 2.000000e+02
181 1.060491e+01 3.403780e-06 2.000000e+02
182 1.067883e+01 3.315568e-06 2.000000e+02
183 1.075145e+01 3.231288e-06 2.000000e+02
184 1.082387e+01 3.150731e-06 2.000000e+02
185 1.089629e+01 3.073699e-06 2.000000e+02
186 1.096952e+01 3.000013e-06 2.000000e+02
187 1.104290e+01 2.929486e-06 2.000000e+02
188 1.111654e+01 2.861953e-06 2.000000e+02
189 1.118978e+01 2.797251e-06 2.000000e+02
190 1.126305e+01 2.735233e-06 2.000000e+02
191 1.133613e+01 2.675756e-06 2.000000e+02
192 1.140932e+01 2.618680e-06 2.000000e+02
193 1.148271e+01 2.563876e-06 2.000000e+02
194 1.155568e+01 2.511222e-06 2.000000e+02
195 1.162925e+01 2.460598e-06 2.000000e+02
196 1.170227e+01 2.411896e-06 2.000000e+02
197 1.177645e+01 2.365010e-06 2.000000e+02
198 1.184960e+01 2.319841e-06 2.000000e+02
199 1.192274e+01 2.276297e-06 2.000000e+02
200 1.199604e+01 2.234287e-06 2.000000e+02
201 1.206933e+01 2.193728e-06 2.000000e+02
202 1.214240e+01 2.154540e-06 2.000000e+02
203 1.221542e+01 2.116646e-06 2.000000e+02
204 1.228980e+01 2.079983e-06 2.000000e+02
205 1.236296e+01 2.044469e-06 2.000000e+02
206 1.243738e+01 2.010055e-06 2.000000e+02
207 1.251044e+01 1.976680e-06 2.000000e+02
208 1.258500e+01 1.944286e-06 2.000000e+02
209 1.265819e+01 1.912820e-06 2.000000e+02
210 1.273245e+01 1.882234e-06 2.000000e+02
211 1.280558e+01 1.852478e-06 2.000000e+02
212 1.287859e+01 1.823509e-06 2.000000e+02
213 1.295259e+01 1.795284e-06 2.000000e+02
214 1.302590e+01 1.767766e-06 2.000000e+02
215 1.309903e+01 1.740915e-06 2.000000e+02
216 1.317207e+01 1.714699e-06 2.000000e+02
217 1.324551e+01 1.689084e-06 2.000000e+02
218 1.331847e+01 1.664042e-06 2.000000e+02
219 1.339046e+01 1.639545e-06 2.000000e+02
220 1.346087e+01 1.615565e-06 2.000000e+02
221 1.353146e+01 1.592073e-06 2.000000e+02
222 1.360213e+01 1.569041e-06 2.000000e+02
223 1.367273e+01 1.546454e-06 2.000000e+02
224 1.375234e+01 1.524291e-06 2.000000e+02
225 1.382296e+01 1.502530e-06 2.000000e+02
226 1.389352e+01 1.481153e-06 2.000000e+02
227 1.396502e+01 1.460142e-06 2.000000e+02
228 1.403592e+01 1.439480e-06 2.000000e+02
229 1.410756e+01 1.419154e-06 2.000000e+02
230 1.417797e+01 1.399149e-06 2.000000e+02
231 1.424850e+01 1.379453e-06 2.000000e+02
232 1.431903e+01 1.360053e-06 2.000000e+02
233 1.438967e+01 1.340938e-06 2.000000e+02
234 1.446069e+01 1.322095e-06 2.000000e+02
235 1.453184e+01 1.303514e-06 2.000000e+02
236 1.460234e+01 1.285184e-06 2.000000e+02
237 1.467333e+01 1.267098e-06 2.000000e+02
238 1.475420e+01 1.249246e-06 2.000000e+02
239 1.482537e+01 1.231623e-06 2.000000e+02
240 1.489591e+01 1.214220e-06 2.000000e+02
241 1.496696e+01 1.197030e-06 2.000000e+02
242 1.503784e+01 1.180048e-06 2.000000e+02
243 1.510835e+01 1.163268e-06 2.000000e+02
244 1.517891e+01 1.146685e-06 2.000000e+02
245 1.524995e+01 1.130294e-06 2.000000e+02
246 1.532097e+01 1.114089e-06 2.000000e+02
247 1.539144e+01 1.098066e-06 2.000000e+02
248 1.546192e+01 1.082221e-06 2.000000e+02
249 1.553254e+01 1.066549e-06 2.000000e+02
250 1.560344e+01 1.051049e-06 2.000000e+02
251 1.567488e+01 1.035716e-06 2.000000e+02
252 1.575471e+01 1.020547e-06 2.000000e+02
253 1.582526e+01 1.005540e-06 2.000000e+02
254 1.589573e+01 9.906929e-07 2.000000e+02
255 1.596644e+01 9.760032e-07 2.000000e+02
256 1.603731e+01 9.614681e-07 2.000000e+02
257 1.610936e+01 9.470854e-07 2.000000e+02
258 1.617997e+01 9.328534e-07 2.000000e+02
259 1.625050e+01 9.187708e-07 2.000000e+02
260 1.632106e+01 9.048359e-07 2.000000e+02
261 1.639155e+01 8.910475e-07 2.000000e+02
262 1.646197e+01 8.774041e-07 2.000000e+02
263 1.653298e+01 8.639044e-07 2.000000e+02
264 1.660354e+01 8.505472e-07 2.000000e+02
265 1.667448e+01 8.373313e-07 2.000000e+02
266 1.674504e+01 8.242557e-07 2.000000e+02
267 1.681577e+01 8.113195e-07 2.000000e+02
268 1.688757e+01 7.985217e-07 2.000000e+02
269 1.695824e+01 7.858616e-07 2.000000e+02
270 1.702938e+01 7.733383e-07 2.000000e+02
271 1.710128e+01 7.609511e-07 2.000000e+02
272 1.717190e+01 7.486992e-07 2.000000e+02
273 1.724321e+01 7.365820e-07 2.000000e+02
274 1.731388e+01 7.245986e-07 2.000000e+02
275 1.738437e+01 7.127487e-07 2.000000e+02
276 1.745520e+01 7.010318e-07 2.000000e+02
277 1.752577e+01 6.894470e-07 2.000000e+02
278 1.759621e+01 6.779931e-07 2.000000e+02
279 1.766731e+01 6.666678e-07 2.000000e+02
280 1.774742e+01 6.554735e-07 2.000000e+02
281 1.781863e+01 6.444110e-07 2.000000e+02
282 1.788978e+01 6.334792e-07 2.000000e+02
283 1.796108e+01 6.226770e-07 2.000000e+02
284 1.803260e+01 6.120036e-07 2.000000e+02
285 1.810566e+01 6.014584e-07 2.000000e+02
286 1.817694e+01 5.910414e-07 2.000000e+02
287 1.824802e+01 5.807512e-07 2.000000e+02
288 1.831965e+01 5.705873e-07 2.000000e+02
289 1.839216e+01 5.605490e-07 2.000000e+02
290 1.846337e+01 5.506358e-07 2.000000e+02
291 1.853483e+01 5.408471e-07 2.000000e+02
292 1.860606e+01 5.311822e-07 2.000000e+02
293 1.867732e+01 5.216410e-07 2.000000e+02
294 1.874882e+01 5.122228e-07 2.000000e+02
295 1.882008e+01 5.029260e-07 2.000000e+02
296 1.889125e+01 4.937508e-07 2.000000e+02
297 1.896255e+01 4.846969e-07 2.000000e+02
298 1.903404e+01 4.757654e-07 2.000000e+02
299 1.910719e+01 4.669554e-07 2.000000e+02
300 1.917850e+01 4.582640e-07 2.000000e+02
301 1.924993e+01 4.496891e-07 2.000000e+02
302 1.932107e+01 4.412310e-07 2.000000e+02
303 1.939241e+01 4.328894e-07 2.000000e+02
304 1.946351e+01 4.246633e-07 2.000000e+02
305 1.953474e+01 4.165527e-07 2.000000e+02
306 1.960610e+01 4.085568e-07 2.000000e+02
307 1.967901e+01 4.006743e-07 2.000000e+02
308 1.975888e+01 3.929043e-07 2.000000e+02
309 1.983025e+01 3.852464e-07 2.000000e+02
310 1.990147e+01 3.776995e-07 2.000000e+02
311 1.997285e+01 3.702631e-07 2.000000e+02
312 2.004435e+01 3.629362e-07 2.000000e+02
313 2.011553e+01 3.557180e-07 2.000000e+02
314 2.018673e+01 3.486075e-07 2.000000e+02
315 2.025786e+01 3.416040e-07 2.000000e+02
316 2.032984e+01 3.347065e-07 2.000000e+02
317 2.040117e+01 3.279140e-07 2.000000e+02
318 2.047230e+01 3.212257e-07 2.000000e+02
319 2.054389e+01 3.146405e-07 2.000000e+02
320 2.061531e+01 3.081576e-07 2.000000e+02
321 2.068689e+01 3.017760e-07 2.000000e+02
322 2.075837e+01 2.954948e-07 2.000000e+02
323 2.082955e+01 2.893129e-07 2.000000e+02
324 2.090068e+01 2.832294e-07 2.000000e+02
325 2.097202e+01 2.772434e-07 2.000000e+02
326 2.104340e+01 2.713538e-07 2.000000e+02
327 2.111466e+01 2.655597e-07 2.000000e+02
328 2.118598e+01 2.598601e-07 2.000000e+02
329 2.125748e+01 2.542541e-07 2.000000e+02
330 2.132851e+01 2.487405e-07 2.000000e+02
331 2.139971e+01 2.433185e-07 2.000000e+02
332 2.147238e+01 2.379870e-07 2.000000e+02
333 2.154361e+01 2.327450e-07 2.000000e+02
334 2.161485e+01 2.275915e-07 2.000000e+02
335 2.168628e+01 2.225257e-07 2.000000e+02
336 2.175777e+01 2.175463e-07 2.000000e+02
337 2.182900e+01 2.126525e-07 2.000000e+02
338 2.190015e+01 2.078433e-07 2.000000e+02
339 2.197150e+01 2.031176e-07 2.000000e+02
340 2.204289e+01 1.984745e-07 2.000000e+02
341 2.211413e+01 1.939130e-07 2.000000e+02
342 2.218535e+01 1.894321e-07 2.000000e+02
343 2.225690e+01 1.850308e-07 2.000000e+02
344 2.232815e+01 1.807081e-07 2.000000e+02
345 2.240011e+01 1.764631e-07 2.000000e+02
346 2.247174e+01 1.722952e-07 2.000000e+02
347 2.254285e+01 1.682028e-07 2.000000e+02
348 2.261550e+01 1.641851e-07 2.000000e+02
349 2.268683e+01 1.602412e-07 2.000000e+02
350 2.275915e+01 1.563700e-07 2.000000e+02
351 2.283165e+01 1.525706e-07 2.000000e+02
352 2.290329e+01 1.488422e-07 2.000000e+02
353 2.297461e+01 1.451838e-07 2.000000e+02
354 2.304641e+01 1.415945e-07 2.000000e+02
355 2.311885e+01 1.380733e-07 2.000000e+02
356 2.319042e+01 1.346194e-07 2.000000e+02
357 2.326176e+01 1.312319e-07 2.000000e+02
358 2.333296e+01 1.279097e-07 2.000000e+02
359 2.340429e+01 1.246521e-07 2.000000e+02
360 2.347681e+01 1.214581e-07 2.000000e+02
361 2.354797e+01 1.183269e-07 2.000000e+02
362 2.361930e+01 1.152576e-07 2.000000e+02
363 2.369050e+01 1.122493e-07 2.000000e+02
364 2.376186e+01 1.093011e-07 2.000000e+02
365 2.383316e+01 1.064123e-07 2.000000e+02
366 2.390439e+01 1.035819e-07 2.000000e+02
367 2.397570e+01 1.008091e-07 2.000000e+02
368 2.404804e+01 9.809311e-08 2.000000e+02
