
  _______                              __________
  ___    |_____ ______________         ___  ____/
  __  /| |_  _ \__  ___/_  __ \__________  /_  
  _  ___ |/  __/_  /    / /_/ /_/_____/_  __/    
  /_/  |_|\___/ /_/     \____/         /_/     
  Changeset ID: c63c2251be38 1562 
*** Warning: Using CFL values under Time and old CFL law for backwards compatibility. The program will run, but correct execution requires all CFL parameters to be under CFLLaw.
128 MPI CPU for 128 subdomains
Node statistics: min=266, max=293, total=35810
Edge statistics: min=1210, max=1299, total=160534
Face statistics: min=449, max=514, total=60068
Elem statistics: min=677, max=718, total=89301
Read solution 0 from '../../data/mesh.dwall'
Control volume statistics: min=1.253e-10, max=3.718e-02, total=1.254e+01
Mesh bounding box: (Xmin,Ymin,Zmin) = (-1.997e+01 -1.999e+01 0.000e+00)
                   (Xmax,Ymax,Zmax) = (2.000e+01 1.999e+01 1.000e-02)
[Probe] Number of probing nodes is 0
Memory for ILU(0) preconditioner (dim=5): 34.03 MB
Memory for Gmres(250) solver: 342.88 MB
Memory for ILU(0) preconditioner (dim=1): 1.36 MB
Memory for Gmres(150) solver: 41.25 MB
Spatial residual norm = 2.941325704520e+06
Time for one residual evaluation: 0.128971 s

It     0: Res = 1.000000e+00, Cfl = 0.000000e+00, Elapsed Time = 0.00e+00 s
It     1: Res = 4.697778e-01, Cfl = 2.000000e+00, Elapsed Time = 1.30e-01 s
It     2: Res = 3.900474e-01, Cfl = 2.000000e+00, Elapsed Time = 1.53e-01 s
It     3: Res = 2.279024e-01, Cfl = 4.000000e+00, Elapsed Time = 1.81e-01 s
It     4: Res = 1.167291e-01, Cfl = 6.000000e+00, Elapsed Time = 2.17e-01 s
It     5: Res = 6.988050e-02, Cfl = 8.000000e+00, Elapsed Time = 2.59e-01 s
It     6: Res = 4.379350e-02, Cfl = 1.000000e+01, Elapsed Time = 3.05e-01 s
It     7: Res = 2.923344e-02, Cfl = 1.200000e+01, Elapsed Time = 3.55e-01 s
It     8: Res = 2.205981e-02, Cfl = 1.400000e+01, Elapsed Time = 4.13e-01 s
It     9: Res = 1.849521e-02, Cfl = 1.600000e+01, Elapsed Time = 4.76e-01 s
It    10: Res = 1.648613e-02, Cfl = 1.800000e+01, Elapsed Time = 5.41e-01 s
It    11: Res = 1.513441e-02, Cfl = 2.000000e+01, Elapsed Time = 6.16e-01 s
It    12: Res = 1.393780e-02, Cfl = 2.200000e+01, Elapsed Time = 6.90e-01 s
It    13: Res = 1.272782e-02, Cfl = 2.400000e+01, Elapsed Time = 7.69e-01 s
It    14: Res = 1.140062e-02, Cfl = 2.600000e+01, Elapsed Time = 8.54e-01 s
It    15: Res = 9.958712e-03, Cfl = 2.800000e+01, Elapsed Time = 9.40e-01 s
It    16: Res = 8.609929e-03, Cfl = 3.000000e+01, Elapsed Time = 1.03e+00 s
It    17: Res = 7.435645e-03, Cfl = 3.200000e+01, Elapsed Time = 1.13e+00 s
It    18: Res = 6.449367e-03, Cfl = 3.400000e+01, Elapsed Time = 1.23e+00 s
It    19: Res = 5.565052e-03, Cfl = 3.600000e+01, Elapsed Time = 1.33e+00 s
It    20: Res = 4.741408e-03, Cfl = 3.800000e+01, Elapsed Time = 1.45e+00 s
It    21: Res = 3.966311e-03, Cfl = 4.000000e+01, Elapsed Time = 1.56e+00 s
It    22: Res = 3.232803e-03, Cfl = 4.200000e+01, Elapsed Time = 1.67e+00 s
It    23: Res = 2.580628e-03, Cfl = 4.400000e+01, Elapsed Time = 1.86e+00 s
It    24: Res = 2.017869e-03, Cfl = 4.600000e+01, Elapsed Time = 1.97e+00 s
It    25: Res = 1.548051e-03, Cfl = 4.800000e+01, Elapsed Time = 2.11e+00 s
It    26: Res = 1.175222e-03, Cfl = 5.000000e+01, Elapsed Time = 2.23e+00 s
It    27: Res = 8.905854e-04, Cfl = 5.200000e+01, Elapsed Time = 2.42e+00 s
It    28: Res = 7.409814e-04, Cfl = 5.400000e+01, Elapsed Time = 2.56e+00 s
It    29: Res = 6.980032e-04, Cfl = 5.600000e+01, Elapsed Time = 2.72e+00 s
It    30: Res = 7.136012e-04, Cfl = 5.800000e+01, Elapsed Time = 2.87e+00 s
It    31: Res = 7.041172e-04, Cfl = 6.000000e+01, Elapsed Time = 3.15e+00 s
It    32: Res = 6.505806e-04, Cfl = 6.200000e+01, Elapsed Time = 3.45e+00 s
It    33: Res = 6.029555e-04, Cfl = 6.400000e+01, Elapsed Time = 3.80e+00 s
It    34: Res = 4.937871e-04, Cfl = 6.600000e+01, Elapsed Time = 4.03e+00 s
It    35: Res = 4.451400e-04, Cfl = 6.800000e+01, Elapsed Time = 4.25e+00 s
It    36: Res = 4.358659e-04, Cfl = 7.000000e+01, Elapsed Time = 4.46e+00 s
It    37: Res = 4.256640e-04, Cfl = 7.200000e+01, Elapsed Time = 4.65e+00 s
It    38: Res = 4.347129e-04, Cfl = 7.400000e+01, Elapsed Time = 4.85e+00 s
It    39: Res = 4.430751e-04, Cfl = 7.600000e+01, Elapsed Time = 5.03e+00 s
It    40: Res = 4.358537e-04, Cfl = 7.800000e+01, Elapsed Time = 5.22e+00 s
It    41: Res = 3.868507e-04, Cfl = 8.000000e+01, Elapsed Time = 5.44e+00 s
It    42: Res = 3.401670e-04, Cfl = 8.200000e+01, Elapsed Time = 5.66e+00 s
It    43: Res = 3.057679e-04, Cfl = 8.400000e+01, Elapsed Time = 6.26e+00 s
It    44: Res = 2.875576e-04, Cfl = 8.600000e+01, Elapsed Time = 7.22e+00 s
It    45: Res = 2.859254e-04, Cfl = 8.800000e+01, Elapsed Time = 7.52e+00 s
*** Warning: Gmres(250) solver reached 250 its (initial=5.12e+02, res=7.74e-02, target=5.12e-02, ratio = 1.51e+00)
It    46: Res = 2.908001e-04, Cfl = 9.000000e+01, Elapsed Time = 9.53e+00 s
It    47: Res = 2.888636e-04, Cfl = 9.200000e+01, Elapsed Time = 9.89e+00 s
It    48: Res = 2.848239e-04, Cfl = 9.400000e+01, Elapsed Time = 1.01e+01 s
It    49: Res = 2.803890e-04, Cfl = 9.600000e+01, Elapsed Time = 1.06e+01 s
It    50: Res = 2.773117e-04, Cfl = 9.800000e+01, Elapsed Time = 1.18e+01 s
It    51: Res = 2.743991e-04, Cfl = 1.000000e+02, Elapsed Time = 1.22e+01 s
It    52: Res = 2.733208e-04, Cfl = 1.020000e+02, Elapsed Time = 1.25e+01 s
It    53: Res = 2.714892e-04, Cfl = 1.040000e+02, Elapsed Time = 1.29e+01 s
It    54: Res = 2.685257e-04, Cfl = 1.060000e+02, Elapsed Time = 1.32e+01 s
It    55: Res = 2.642442e-04, Cfl = 1.080000e+02, Elapsed Time = 1.36e+01 s
It    56: Res = 2.587424e-04, Cfl = 1.100000e+02, Elapsed Time = 1.40e+01 s
It    57: Res = 2.515799e-04, Cfl = 1.120000e+02, Elapsed Time = 1.50e+01 s
It    58: Res = 2.436305e-04, Cfl = 1.140000e+02, Elapsed Time = 1.59e+01 s
It    59: Res = 2.355474e-04, Cfl = 1.160000e+02, Elapsed Time = 1.63e+01 s
It    60: Res = 2.316040e-04, Cfl = 1.180000e+02, Elapsed Time = 1.71e+01 s
It    61: Res = 2.217174e-04, Cfl = 1.200000e+02, Elapsed Time = 1.74e+01 s
It    62: Res = 2.123827e-04, Cfl = 1.220000e+02, Elapsed Time = 1.83e+01 s
It    63: Res = 2.070789e-04, Cfl = 1.240000e+02, Elapsed Time = 1.91e+01 s
It    64: Res = 1.994000e-04, Cfl = 1.260000e+02, Elapsed Time = 1.97e+01 s
It    65: Res = 1.942043e-04, Cfl = 1.280000e+02, Elapsed Time = 2.10e+01 s
It    66: Res = 1.875216e-04, Cfl = 1.300000e+02, Elapsed Time = 2.13e+01 s
It    67: Res = 1.825094e-04, Cfl = 1.320000e+02, Elapsed Time = 2.18e+01 s
It    68: Res = 1.779647e-04, Cfl = 1.340000e+02, Elapsed Time = 2.22e+01 s
It    69: Res = 1.740080e-04, Cfl = 1.360000e+02, Elapsed Time = 2.26e+01 s
It    70: Res = 1.710430e-04, Cfl = 1.380000e+02, Elapsed Time = 2.32e+01 s
It    71: Res = 1.682840e-04, Cfl = 1.400000e+02, Elapsed Time = 2.44e+01 s
It    72: Res = 1.650416e-04, Cfl = 1.420000e+02, Elapsed Time = 2.48e+01 s
It    73: Res = 1.626309e-04, Cfl = 1.440000e+02, Elapsed Time = 2.54e+01 s
It    74: Res = 1.617896e-04, Cfl = 1.460000e+02, Elapsed Time = 2.61e+01 s
It    75: Res = 1.593723e-04, Cfl = 1.480000e+02, Elapsed Time = 2.64e+01 s
It    76: Res = 1.594528e-04, Cfl = 1.500000e+02, Elapsed Time = 2.67e+01 s
It    77: Res = 1.572722e-04, Cfl = 1.520000e+02, Elapsed Time = 2.71e+01 s
It    78: Res = 1.561441e-04, Cfl = 1.540000e+02, Elapsed Time = 2.74e+01 s
It    79: Res = 1.556563e-04, Cfl = 1.560000e+02, Elapsed Time = 2.77e+01 s
It    80: Res = 1.566174e-04, Cfl = 1.580000e+02, Elapsed Time = 2.84e+01 s
It    81: Res = 1.548896e-04, Cfl = 1.600000e+02, Elapsed Time = 2.88e+01 s
It    82: Res = 1.544384e-04, Cfl = 1.620000e+02, Elapsed Time = 2.92e+01 s
It    83: Res = 1.528136e-04, Cfl = 1.640000e+02, Elapsed Time = 2.96e+01 s
It    84: Res = 1.512861e-04, Cfl = 1.660000e+02, Elapsed Time = 3.03e+01 s
It    85: Res = 1.506147e-04, Cfl = 1.680000e+02, Elapsed Time = 3.07e+01 s
It    86: Res = 1.490507e-04, Cfl = 1.700000e+02, Elapsed Time = 3.12e+01 s
It    87: Res = 1.478820e-04, Cfl = 1.720000e+02, Elapsed Time = 3.28e+01 s
It    88: Res = 1.461669e-04, Cfl = 1.740000e+02, Elapsed Time = 3.33e+01 s
It    89: Res = 1.447330e-04, Cfl = 1.760000e+02, Elapsed Time = 3.37e+01 s
It    90: Res = 1.422065e-04, Cfl = 1.780000e+02, Elapsed Time = 3.43e+01 s
It    91: Res = 1.391770e-04, Cfl = 1.800000e+02, Elapsed Time = 3.50e+01 s
It    92: Res = 1.355452e-04, Cfl = 1.820000e+02, Elapsed Time = 3.54e+01 s
It    93: Res = 1.310852e-04, Cfl = 1.840000e+02, Elapsed Time = 3.62e+01 s
It    94: Res = 1.256129e-04, Cfl = 1.860000e+02, Elapsed Time = 3.71e+01 s
It    95: Res = 1.192457e-04, Cfl = 1.880000e+02, Elapsed Time = 3.84e+01 s
It    96: Res = 1.120527e-04, Cfl = 1.900000e+02, Elapsed Time = 3.97e+01 s
It    97: Res = 1.070504e-04, Cfl = 1.920000e+02, Elapsed Time = 4.04e+01 s
It    98: Res = 9.766156e-05, Cfl = 1.940000e+02, Elapsed Time = 4.09e+01 s
It    99: Res = 9.143762e-05, Cfl = 1.960000e+02, Elapsed Time = 4.19e+01 s
It   100: Res = 8.243003e-05, Cfl = 1.980000e+02, Elapsed Time = 4.28e+01 s
It   101: Res = 7.641748e-05, Cfl = 2.000000e+02, Elapsed Time = 4.33e+01 s
It   102: Res = 7.125424e-05, Cfl = 2.000000e+02, Elapsed Time = 4.38e+01 s
It   103: Res = 6.770711e-05, Cfl = 2.000000e+02, Elapsed Time = 4.44e+01 s
It   104: Res = 6.402488e-05, Cfl = 2.000000e+02, Elapsed Time = 4.52e+01 s
It   105: Res = 6.142786e-05, Cfl = 2.000000e+02, Elapsed Time = 4.59e+01 s
It   106: Res = 5.966164e-05, Cfl = 2.000000e+02, Elapsed Time = 4.66e+01 s
It   107: Res = 5.746005e-05, Cfl = 2.000000e+02, Elapsed Time = 4.73e+01 s
It   108: Res = 5.570325e-05, Cfl = 2.000000e+02, Elapsed Time = 4.85e+01 s
It   109: Res = 5.410073e-05, Cfl = 2.000000e+02, Elapsed Time = 4.93e+01 s
It   110: Res = 5.241632e-05, Cfl = 2.000000e+02, Elapsed Time = 4.97e+01 s
It   111: Res = 5.079367e-05, Cfl = 2.000000e+02, Elapsed Time = 5.02e+01 s
It   112: Res = 4.923461e-05, Cfl = 2.000000e+02, Elapsed Time = 5.07e+01 s
It   113: Res = 4.762182e-05, Cfl = 2.000000e+02, Elapsed Time = 5.16e+01 s
It   114: Res = 4.612951e-05, Cfl = 2.000000e+02, Elapsed Time = 5.21e+01 s
It   115: Res = 4.448757e-05, Cfl = 2.000000e+02, Elapsed Time = 5.30e+01 s
It   116: Res = 4.290177e-05, Cfl = 2.000000e+02, Elapsed Time = 5.34e+01 s
It   117: Res = 4.139499e-05, Cfl = 2.000000e+02, Elapsed Time = 5.40e+01 s
It   118: Res = 4.033578e-05, Cfl = 2.000000e+02, Elapsed Time = 5.46e+01 s
It   119: Res = 3.845963e-05, Cfl = 2.000000e+02, Elapsed Time = 5.50e+01 s
It   120: Res = 3.708661e-05, Cfl = 2.000000e+02, Elapsed Time = 5.58e+01 s
It   121: Res = 3.575720e-05, Cfl = 2.000000e+02, Elapsed Time = 5.66e+01 s
It   122: Res = 3.463902e-05, Cfl = 2.000000e+02, Elapsed Time = 5.77e+01 s
It   123: Res = 3.346466e-05, Cfl = 2.000000e+02, Elapsed Time = 5.81e+01 s
It   124: Res = 3.192603e-05, Cfl = 2.000000e+02, Elapsed Time = 5.89e+01 s
It   125: Res = 3.072865e-05, Cfl = 2.000000e+02, Elapsed Time = 5.94e+01 s
It   126: Res = 2.964333e-05, Cfl = 2.000000e+02, Elapsed Time = 6.04e+01 s
It   127: Res = 2.844160e-05, Cfl = 2.000000e+02, Elapsed Time = 6.15e+01 s
It   128: Res = 2.748920e-05, Cfl = 2.000000e+02, Elapsed Time = 6.20e+01 s
It   129: Res = 2.628763e-05, Cfl = 2.000000e+02, Elapsed Time = 6.25e+01 s
It   130: Res = 2.523491e-05, Cfl = 2.000000e+02, Elapsed Time = 6.33e+01 s
It   131: Res = 2.424216e-05, Cfl = 2.000000e+02, Elapsed Time = 6.42e+01 s
It   132: Res = 2.325590e-05, Cfl = 2.000000e+02, Elapsed Time = 6.49e+01 s
It   133: Res = 2.230713e-05, Cfl = 2.000000e+02, Elapsed Time = 6.54e+01 s
It   134: Res = 2.140681e-05, Cfl = 2.000000e+02, Elapsed Time = 6.61e+01 s
It   135: Res = 2.058555e-05, Cfl = 2.000000e+02, Elapsed Time = 6.67e+01 s
It   136: Res = 1.974086e-05, Cfl = 2.000000e+02, Elapsed Time = 6.75e+01 s
It   137: Res = 1.912790e-05, Cfl = 2.000000e+02, Elapsed Time = 6.80e+01 s
It   138: Res = 1.819258e-05, Cfl = 2.000000e+02, Elapsed Time = 6.88e+01 s
It   139: Res = 1.743327e-05, Cfl = 2.000000e+02, Elapsed Time = 6.92e+01 s
It   140: Res = 1.673159e-05, Cfl = 2.000000e+02, Elapsed Time = 7.00e+01 s
It   141: Res = 1.605091e-05, Cfl = 2.000000e+02, Elapsed Time = 7.04e+01 s
It   142: Res = 1.538914e-05, Cfl = 2.000000e+02, Elapsed Time = 7.09e+01 s
It   143: Res = 1.476765e-05, Cfl = 2.000000e+02, Elapsed Time = 7.15e+01 s
It   144: Res = 1.464980e-05, Cfl = 2.000000e+02, Elapsed Time = 7.20e+01 s
It   145: Res = 1.360181e-05, Cfl = 2.000000e+02, Elapsed Time = 7.26e+01 s
It   146: Res = 1.306405e-05, Cfl = 2.000000e+02, Elapsed Time = 7.34e+01 s
It   147: Res = 1.253189e-05, Cfl = 2.000000e+02, Elapsed Time = 7.40e+01 s
It   148: Res = 1.203605e-05, Cfl = 2.000000e+02, Elapsed Time = 7.47e+01 s
It   149: Res = 1.156323e-05, Cfl = 2.000000e+02, Elapsed Time = 7.53e+01 s
It   150: Res = 1.111896e-05, Cfl = 2.000000e+02, Elapsed Time = 7.59e+01 s
It   151: Res = 1.066687e-05, Cfl = 2.000000e+02, Elapsed Time = 7.66e+01 s
It   152: Res = 1.047231e-05, Cfl = 2.000000e+02, Elapsed Time = 7.72e+01 s
It   153: Res = 9.849611e-06, Cfl = 2.000000e+02, Elapsed Time = 7.78e+01 s
It   154: Res = 9.484579e-06, Cfl = 2.000000e+02, Elapsed Time = 7.82e+01 s
It   155: Res = 9.131799e-06, Cfl = 2.000000e+02, Elapsed Time = 7.89e+01 s
It   156: Res = 9.002479e-06, Cfl = 2.000000e+02, Elapsed Time = 7.95e+01 s
It   157: Res = 8.511870e-06, Cfl = 2.000000e+02, Elapsed Time = 8.03e+01 s
It   158: Res = 8.190049e-06, Cfl = 2.000000e+02, Elapsed Time = 8.07e+01 s
It   159: Res = 8.183119e-06, Cfl = 2.000000e+02, Elapsed Time = 8.14e+01 s
It   160: Res = 7.599520e-06, Cfl = 2.000000e+02, Elapsed Time = 8.21e+01 s
It   161: Res = 7.321367e-06, Cfl = 2.000000e+02, Elapsed Time = 8.25e+01 s
It   162: Res = 7.102346e-06, Cfl = 2.000000e+02, Elapsed Time = 8.31e+01 s
It   163: Res = 6.813455e-06, Cfl = 2.000000e+02, Elapsed Time = 8.35e+01 s
It   164: Res = 6.585061e-06, Cfl = 2.000000e+02, Elapsed Time = 8.40e+01 s
It   165: Res = 6.360805e-06, Cfl = 2.000000e+02, Elapsed Time = 8.47e+01 s
It   166: Res = 6.201650e-06, Cfl = 2.000000e+02, Elapsed Time = 8.56e+01 s
It   167: Res = 7.174593e-06, Cfl = 2.000000e+02, Elapsed Time = 8.67e+01 s
It   168: Res = 5.959816e-06, Cfl = 2.000000e+02, Elapsed Time = 8.72e+01 s
It   169: Res = 5.579580e-06, Cfl = 2.000000e+02, Elapsed Time = 8.77e+01 s
It   170: Res = 5.384621e-06, Cfl = 2.000000e+02, Elapsed Time = 8.81e+01 s
It   171: Res = 5.226061e-06, Cfl = 2.000000e+02, Elapsed Time = 8.91e+01 s
It   172: Res = 5.759032e-06, Cfl = 2.000000e+02, Elapsed Time = 9.00e+01 s
It   173: Res = 4.977088e-06, Cfl = 2.000000e+02, Elapsed Time = 9.05e+01 s
It   174: Res = 4.760172e-06, Cfl = 2.000000e+02, Elapsed Time = 9.12e+01 s
It   175: Res = 4.589708e-06, Cfl = 2.000000e+02, Elapsed Time = 9.16e+01 s
It   176: Res = 4.458471e-06, Cfl = 2.000000e+02, Elapsed Time = 9.20e+01 s
It   177: Res = 4.343924e-06, Cfl = 2.000000e+02, Elapsed Time = 9.25e+01 s
It   178: Res = 4.244248e-06, Cfl = 2.000000e+02, Elapsed Time = 9.30e+01 s
It   179: Res = 4.154500e-06, Cfl = 2.000000e+02, Elapsed Time = 9.34e+01 s
It   180: Res = 4.052585e-06, Cfl = 2.000000e+02, Elapsed Time = 9.40e+01 s
It   181: Res = 3.963911e-06, Cfl = 2.000000e+02, Elapsed Time = 9.46e+01 s
It   182: Res = 3.838370e-06, Cfl = 2.000000e+02, Elapsed Time = 9.52e+01 s
It   183: Res = 3.769979e-06, Cfl = 2.000000e+02, Elapsed Time = 9.57e+01 s
It   184: Res = 3.636567e-06, Cfl = 2.000000e+02, Elapsed Time = 9.62e+01 s
It   185: Res = 3.613386e-06, Cfl = 2.000000e+02, Elapsed Time = 9.68e+01 s
It   186: Res = 3.474392e-06, Cfl = 2.000000e+02, Elapsed Time = 9.73e+01 s
It   187: Res = 3.386251e-06, Cfl = 2.000000e+02, Elapsed Time = 9.77e+01 s
It   188: Res = 3.349815e-06, Cfl = 2.000000e+02, Elapsed Time = 9.84e+01 s
It   189: Res = 3.234423e-06, Cfl = 2.000000e+02, Elapsed Time = 9.88e+01 s
It   190: Res = 3.172999e-06, Cfl = 2.000000e+02, Elapsed Time = 9.93e+01 s
It   191: Res = 3.303290e-06, Cfl = 2.000000e+02, Elapsed Time = 1.00e+02 s
It   192: Res = 3.345698e-06, Cfl = 2.000000e+02, Elapsed Time = 1.01e+02 s
It   193: Res = 3.861406e-06, Cfl = 2.000000e+02, Elapsed Time = 1.02e+02 s
It   194: Res = 2.951023e-06, Cfl = 2.000000e+02, Elapsed Time = 1.03e+02 s
It   195: Res = 2.916808e-06, Cfl = 2.000000e+02, Elapsed Time = 1.03e+02 s
It   196: Res = 2.887325e-06, Cfl = 2.000000e+02, Elapsed Time = 1.04e+02 s
It   197: Res = 2.931758e-06, Cfl = 2.000000e+02, Elapsed Time = 1.05e+02 s
It   198: Res = 2.727653e-06, Cfl = 2.000000e+02, Elapsed Time = 1.05e+02 s
It   199: Res = 2.671949e-06, Cfl = 2.000000e+02, Elapsed Time = 1.06e+02 s
It   200: Res = 2.668057e-06, Cfl = 2.000000e+02, Elapsed Time = 1.06e+02 s
It   201: Res = 2.619252e-06, Cfl = 2.000000e+02, Elapsed Time = 1.07e+02 s
It   202: Res = 2.573179e-06, Cfl = 2.000000e+02, Elapsed Time = 1.07e+02 s
It   203: Res = 2.536852e-06, Cfl = 2.000000e+02, Elapsed Time = 1.08e+02 s
It   204: Res = 2.506015e-06, Cfl = 2.000000e+02, Elapsed Time = 1.09e+02 s
It   205: Res = 2.490759e-06, Cfl = 2.000000e+02, Elapsed Time = 1.09e+02 s
It   206: Res = 2.446457e-06, Cfl = 2.000000e+02, Elapsed Time = 1.10e+02 s
It   207: Res = 2.560773e-06, Cfl = 2.000000e+02, Elapsed Time = 1.10e+02 s
It   208: Res = 2.452511e-06, Cfl = 2.000000e+02, Elapsed Time = 1.10e+02 s
It   209: Res = 2.363887e-06, Cfl = 2.000000e+02, Elapsed Time = 1.11e+02 s
It   210: Res = 2.338824e-06, Cfl = 2.000000e+02, Elapsed Time = 1.11e+02 s
It   211: Res = 2.314497e-06, Cfl = 2.000000e+02, Elapsed Time = 1.12e+02 s
It   212: Res = 2.288923e-06, Cfl = 2.000000e+02, Elapsed Time = 1.12e+02 s
It   213: Res = 2.284525e-06, Cfl = 2.000000e+02, Elapsed Time = 1.13e+02 s
It   214: Res = 2.240667e-06, Cfl = 2.000000e+02, Elapsed Time = 1.13e+02 s
It   215: Res = 2.217770e-06, Cfl = 2.000000e+02, Elapsed Time = 1.13e+02 s
It   216: Res = 2.196154e-06, Cfl = 2.000000e+02, Elapsed Time = 1.14e+02 s
It   217: Res = 2.174927e-06, Cfl = 2.000000e+02, Elapsed Time = 1.14e+02 s
It   218: Res = 2.153569e-06, Cfl = 2.000000e+02, Elapsed Time = 1.14e+02 s
It   219: Res = 2.157809e-06, Cfl = 2.000000e+02, Elapsed Time = 1.15e+02 s
It   220: Res = 2.112389e-06, Cfl = 2.000000e+02, Elapsed Time = 1.15e+02 s
It   221: Res = 2.092829e-06, Cfl = 2.000000e+02, Elapsed Time = 1.16e+02 s
It   222: Res = 2.077529e-06, Cfl = 2.000000e+02, Elapsed Time = 1.16e+02 s
It   223: Res = 2.056532e-06, Cfl = 2.000000e+02, Elapsed Time = 1.17e+02 s
It   224: Res = 2.039277e-06, Cfl = 2.000000e+02, Elapsed Time = 1.17e+02 s
It   225: Res = 2.021350e-06, Cfl = 2.000000e+02, Elapsed Time = 1.17e+02 s
It   226: Res = 2.004449e-06, Cfl = 2.000000e+02, Elapsed Time = 1.18e+02 s
It   227: Res = 1.986806e-06, Cfl = 2.000000e+02, Elapsed Time = 1.18e+02 s
It   228: Res = 1.968343e-06, Cfl = 2.000000e+02, Elapsed Time = 1.19e+02 s
It   229: Res = 1.950853e-06, Cfl = 2.000000e+02, Elapsed Time = 1.19e+02 s
It   230: Res = 1.985040e-06, Cfl = 2.000000e+02, Elapsed Time = 1.19e+02 s
It   231: Res = 1.915227e-06, Cfl = 2.000000e+02, Elapsed Time = 1.20e+02 s
It   232: Res = 1.900945e-06, Cfl = 2.000000e+02, Elapsed Time = 1.20e+02 s
It   233: Res = 1.878382e-06, Cfl = 2.000000e+02, Elapsed Time = 1.21e+02 s
It   234: Res = 1.859941e-06, Cfl = 2.000000e+02, Elapsed Time = 1.21e+02 s
It   235: Res = 1.972788e-06, Cfl = 2.000000e+02, Elapsed Time = 1.21e+02 s
It   236: Res = 1.822472e-06, Cfl = 2.000000e+02, Elapsed Time = 1.22e+02 s
It   237: Res = 1.817513e-06, Cfl = 2.000000e+02, Elapsed Time = 1.22e+02 s
It   238: Res = 1.782941e-06, Cfl = 2.000000e+02, Elapsed Time = 1.22e+02 s
It   239: Res = 1.773335e-06, Cfl = 2.000000e+02, Elapsed Time = 1.23e+02 s
It   240: Res = 1.744783e-06, Cfl = 2.000000e+02, Elapsed Time = 1.24e+02 s
It   241: Res = 1.724539e-06, Cfl = 2.000000e+02, Elapsed Time = 1.24e+02 s
It   242: Res = 1.704485e-06, Cfl = 2.000000e+02, Elapsed Time = 1.24e+02 s
It   243: Res = 1.684812e-06, Cfl = 2.000000e+02, Elapsed Time = 1.25e+02 s
It   244: Res = 1.665385e-06, Cfl = 2.000000e+02, Elapsed Time = 1.25e+02 s
It   245: Res = 1.645690e-06, Cfl = 2.000000e+02, Elapsed Time = 1.26e+02 s
It   246: Res = 1.626283e-06, Cfl = 2.000000e+02, Elapsed Time = 1.26e+02 s
It   247: Res = 1.605312e-06, Cfl = 2.000000e+02, Elapsed Time = 1.26e+02 s
It   248: Res = 1.617494e-06, Cfl = 2.000000e+02, Elapsed Time = 1.27e+02 s
It   249: Res = 1.570292e-06, Cfl = 2.000000e+02, Elapsed Time = 1.27e+02 s
It   250: Res = 1.544245e-06, Cfl = 2.000000e+02, Elapsed Time = 1.28e+02 s
It   251: Res = 1.522881e-06, Cfl = 2.000000e+02, Elapsed Time = 1.28e+02 s
It   252: Res = 1.502203e-06, Cfl = 2.000000e+02, Elapsed Time = 1.28e+02 s
It   253: Res = 1.480838e-06, Cfl = 2.000000e+02, Elapsed Time = 1.29e+02 s
It   254: Res = 1.460307e-06, Cfl = 2.000000e+02, Elapsed Time = 1.29e+02 s
It   255: Res = 1.447934e-06, Cfl = 2.000000e+02, Elapsed Time = 1.30e+02 s
It   256: Res = 1.441505e-06, Cfl = 2.000000e+02, Elapsed Time = 1.30e+02 s
It   257: Res = 1.394405e-06, Cfl = 2.000000e+02, Elapsed Time = 1.31e+02 s
It   258: Res = 1.373072e-06, Cfl = 2.000000e+02, Elapsed Time = 1.31e+02 s
It   259: Res = 1.348045e-06, Cfl = 2.000000e+02, Elapsed Time = 1.32e+02 s
It   260: Res = 1.347615e-06, Cfl = 2.000000e+02, Elapsed Time = 1.33e+02 s
It   261: Res = 1.326433e-06, Cfl = 2.000000e+02, Elapsed Time = 1.33e+02 s
It   262: Res = 1.288038e-06, Cfl = 2.000000e+02, Elapsed Time = 1.34e+02 s
It   263: Res = 1.313943e-06, Cfl = 2.000000e+02, Elapsed Time = 1.34e+02 s
It   264: Res = 1.244692e-06, Cfl = 2.000000e+02, Elapsed Time = 1.35e+02 s
It   265: Res = 1.221511e-06, Cfl = 2.000000e+02, Elapsed Time = 1.35e+02 s
It   266: Res = 1.191030e-06, Cfl = 2.000000e+02, Elapsed Time = 1.36e+02 s
It   267: Res = 1.162965e-06, Cfl = 2.000000e+02, Elapsed Time = 1.36e+02 s
It   268: Res = 1.143627e-06, Cfl = 2.000000e+02, Elapsed Time = 1.37e+02 s
It   269: Res = 2.717719e-06, Cfl = 2.000000e+02, Elapsed Time = 1.38e+02 s
It   270: Res = 6.138815e-06, Cfl = 2.000000e+02, Elapsed Time = 1.38e+02 s
It   271: Res = 1.539386e-05, Cfl = 2.000000e+02, Elapsed Time = 1.38e+02 s
It   272: Res = 7.132215e-06, Cfl = 2.000000e+02, Elapsed Time = 1.39e+02 s
It   273: Res = 1.785476e-06, Cfl = 2.000000e+02, Elapsed Time = 1.39e+02 s
It   274: Res = 1.070332e-06, Cfl = 2.000000e+02, Elapsed Time = 1.39e+02 s
It   275: Res = 1.006371e-06, Cfl = 2.000000e+02, Elapsed Time = 1.40e+02 s
It   276: Res = 9.682512e-07, Cfl = 2.000000e+02, Elapsed Time = 1.40e+02 s
It   277: Res = 9.376678e-07, Cfl = 2.000000e+02, Elapsed Time = 1.40e+02 s
It   278: Res = 9.100749e-07, Cfl = 2.000000e+02, Elapsed Time = 1.41e+02 s
It   279: Res = 8.833334e-07, Cfl = 2.000000e+02, Elapsed Time = 1.41e+02 s
It   280: Res = 8.582708e-07, Cfl = 2.000000e+02, Elapsed Time = 1.41e+02 s
It   281: Res = 8.336836e-07, Cfl = 2.000000e+02, Elapsed Time = 1.42e+02 s
It   282: Res = 8.105719e-07, Cfl = 2.000000e+02, Elapsed Time = 1.42e+02 s
It   283: Res = 7.884247e-07, Cfl = 2.000000e+02, Elapsed Time = 1.43e+02 s
It   284: Res = 7.670734e-07, Cfl = 2.000000e+02, Elapsed Time = 1.43e+02 s
It   285: Res = 7.436206e-07, Cfl = 2.000000e+02, Elapsed Time = 1.44e+02 s
It   286: Res = 7.219560e-07, Cfl = 2.000000e+02, Elapsed Time = 1.44e+02 s
It   287: Res = 7.006469e-07, Cfl = 2.000000e+02, Elapsed Time = 1.45e+02 s
It   288: Res = 6.797089e-07, Cfl = 2.000000e+02, Elapsed Time = 1.45e+02 s
It   289: Res = 6.589357e-07, Cfl = 2.000000e+02, Elapsed Time = 1.45e+02 s
It   290: Res = 6.384337e-07, Cfl = 2.000000e+02, Elapsed Time = 1.46e+02 s
It   291: Res = 6.185625e-07, Cfl = 2.000000e+02, Elapsed Time = 1.46e+02 s
It   292: Res = 6.014894e-07, Cfl = 2.000000e+02, Elapsed Time = 1.47e+02 s
It   293: Res = 5.790959e-07, Cfl = 2.000000e+02, Elapsed Time = 1.47e+02 s
It   294: Res = 5.598070e-07, Cfl = 2.000000e+02, Elapsed Time = 1.47e+02 s
It   295: Res = 5.408476e-07, Cfl = 2.000000e+02, Elapsed Time = 1.48e+02 s
It   296: Res = 5.230954e-07, Cfl = 2.000000e+02, Elapsed Time = 1.48e+02 s
It   297: Res = 5.032565e-07, Cfl = 2.000000e+02, Elapsed Time = 1.49e+02 s
It   298: Res = 4.848857e-07, Cfl = 2.000000e+02, Elapsed Time = 1.49e+02 s
It   299: Res = 4.662167e-07, Cfl = 2.000000e+02, Elapsed Time = 1.50e+02 s
It   300: Res = 4.478503e-07, Cfl = 2.000000e+02, Elapsed Time = 1.50e+02 s
It   301: Res = 4.295765e-07, Cfl = 2.000000e+02, Elapsed Time = 1.50e+02 s
It   302: Res = 4.297775e-07, Cfl = 2.000000e+02, Elapsed Time = 1.51e+02 s
It   303: Res = 4.000631e-07, Cfl = 2.000000e+02, Elapsed Time = 1.51e+02 s
It   304: Res = 3.763097e-07, Cfl = 2.000000e+02, Elapsed Time = 1.51e+02 s
It   305: Res = 3.588131e-07, Cfl = 2.000000e+02, Elapsed Time = 1.52e+02 s
It   306: Res = 3.416936e-07, Cfl = 2.000000e+02, Elapsed Time = 1.53e+02 s
It   307: Res = 3.249765e-07, Cfl = 2.000000e+02, Elapsed Time = 1.53e+02 s
It   308: Res = 3.148236e-07, Cfl = 2.000000e+02, Elapsed Time = 1.54e+02 s
It   309: Res = 2.932877e-07, Cfl = 2.000000e+02, Elapsed Time = 1.54e+02 s
It   310: Res = 2.782183e-07, Cfl = 2.000000e+02, Elapsed Time = 1.54e+02 s
It   311: Res = 2.637663e-07, Cfl = 2.000000e+02, Elapsed Time = 1.55e+02 s
It   312: Res = 2.499056e-07, Cfl = 2.000000e+02, Elapsed Time = 1.55e+02 s
It   313: Res = 2.366895e-07, Cfl = 2.000000e+02, Elapsed Time = 1.55e+02 s
It   314: Res = 2.274866e-07, Cfl = 2.000000e+02, Elapsed Time = 1.56e+02 s
It   315: Res = 2.121695e-07, Cfl = 2.000000e+02, Elapsed Time = 1.56e+02 s
It   316: Res = 2.015654e-07, Cfl = 2.000000e+02, Elapsed Time = 1.57e+02 s
It   317: Res = 1.903651e-07, Cfl = 2.000000e+02, Elapsed Time = 1.57e+02 s
It   318: Res = 1.807514e-07, Cfl = 2.000000e+02, Elapsed Time = 1.58e+02 s
It   319: Res = 1.704954e-07, Cfl = 2.000000e+02, Elapsed Time = 1.58e+02 s
It   320: Res = 1.616044e-07, Cfl = 2.000000e+02, Elapsed Time = 1.58e+02 s
It   321: Res = 1.529096e-07, Cfl = 2.000000e+02, Elapsed Time = 1.59e+02 s
It   322: Res = 1.448796e-07, Cfl = 2.000000e+02, Elapsed Time = 1.59e+02 s
It   323: Res = 1.379608e-07, Cfl = 2.000000e+02, Elapsed Time = 1.59e+02 s
It   324: Res = 1.304450e-07, Cfl = 2.000000e+02, Elapsed Time = 1.60e+02 s
It   325: Res = 1.259614e-07, Cfl = 2.000000e+02, Elapsed Time = 1.60e+02 s
It   326: Res = 1.181279e-07, Cfl = 2.000000e+02, Elapsed Time = 1.61e+02 s
It   327: Res = 1.131526e-07, Cfl = 2.000000e+02, Elapsed Time = 1.61e+02 s
It   328: Res = 1.078475e-07, Cfl = 2.000000e+02, Elapsed Time = 1.61e+02 s
It   329: Res = 1.034665e-07, Cfl = 2.000000e+02, Elapsed Time = 1.62e+02 s
It   330: Res = 9.978610e-08, Cfl = 2.000000e+02, Elapsed Time = 1.63e+02 s
Wrote solution 0 to 'postpro/Pressure.bin'
Wrote solution 0 to 'references/Solution.bin'

----------------------------------------------------------------------
Elapsed Time Report (s)       :        Min        Max        Avg   # Calls

Problem Setup                 :       1.27       1.28       1.28         1

Fluid Solution                :     162.39     162.40     162.40         -
  Time Steps                  :       0.16       0.18       0.17       330
  Nodal Weights and Gradients :       6.27       9.22       8.10     38858
  FV Fluxes                   :      18.53      21.03      19.67     38857
  FE Fluxes                   :      10.74      11.85      11.18     38857
  FV Jacobian                 :       0.51       0.55       0.53       660
  FE Jacobian                 :       0.53       0.58       0.55       660
  VMS-LES Modeling            :       0.00       0.00       0.00         0
  Dynamic VMS-LES Modeling    :       0.00       0.00       0.00         0
  H2 Matrix Assembly          :       0.00       0.00       0.00         0
  Preconditioner Setup        :       0.20       0.22       0.22       330
  Linear Solver               :     160.39     160.42     160.40       660
  Mesh Metrics Update         :       0.00       0.00       0.00         0

Mesh Solution                 :       0.00       0.00       0.00         -
  K Matrix Assembly           :       0.00       0.00       0.00         0
  Preconditioner Setup        :       0.00       0.00       0.00         0
  Linear Solver               :       0.00       0.00       0.00         0

Communication/Synchronization :     120.68     125.99     123.13         -
  Local                       :       3.24       8.52       6.55         -
  Global                      :     113.40     120.25     116.59         -
  RMA                         :       0.00       0.00       0.00         -
  Inter                       :       0.00       0.00       0.00         0

I/O                           :       2.33       5.10       3.23         -
  Binary Read                 :       0.00       0.01       0.00         1
  Binary Write                :       2.33       5.10       3.23         2

Total Simulation              :     167.48     169.35     168.03         -
----------------------------------------------------------------------
